Username*,"First Name*","Last Name*",Email*,Phone,City,Country,"Date of Birth",Description,Role*,"Can be Instructor",Department*,"Department Manager*",Team,Status
amanda@lupi@tzinsurance.com,Amanda,Lupi,amanda@lupi@tzinsurance.com,,,"United States",,,Learner,,tzinsurance,TZINSURANCE_MANAGER,,"Error: Invalid email address; Department does not exists; Department Manager does not exists;"
andrew.ream@tzinsurance.com,Andrew,Ream,andrew.ream@tzinsurance.com,,,"United States",,,Learner,,tzinsurance,TZINSURANCE_MANAGER,,"Error: Department does not exists; Department Manager does not exists;"
benjamin.warnick@tzinsurance.com,Benjamin,Warnick,benjamin.warnick@tzinsurance.com,,,"United States",,,Learner,,tzinsurance,TZINSURANCE_MANAGER,,"Error: Department does not exists; Department Manager does not exists;"
brandy.dillon@tzinsurance.com,Brandy,Dillon,brandy.dillon@tzinsurance.com,,,"United States",,,Learner,,tzinsurance,TZINSURANCE_MANAGER,,"Error: Department does not exists; Department Manager does not exists;"
bwackerly@trubridgeinc.com,Brett,Wackerly,bwackerly@trubridgeinc.com,,,"United States",,,Learner,,trubridge,trubridge_manager,,Success
christopher.pizzedaz@tranzact.net,Christopher,Pizzedaz,christopher.pizzedaz@tranzact.net,,,"United States",,,Learner,,tranzact,manager_tranzact,,Success
cindy.molesky@tzinsurance.com,Cindy,Molesky,cindy.molesky@tzinsurance.com,,,"United States",,,Learner,,tzinsurance,TZINSURANCE_MANAGER,,"Error: Department does not exists; Department Manager does not exists;"
courtney.shaw@tzinsurance.com,Courtney,Shaw,courtney.shaw@tzinsurance.com,,,"United States",,,Learner,,tzinsurance,manager_tzinsurance,,"Error: Department does not exists; Department Manager does not exists;"
daemon.hayes@tzinsurance.com,Daemon,Hayes,daemon.hayes@tzinsurance.com,,,"United States",,,Learner,,tzinsurance,TZINSURANCE_MANAGER,,"Error: Department does not exists; Department Manager does not exists;"
jclausnitzer@trubridgeinc.com,Jackie,Clausnitzer,jclausnitzer@trubridgeinc.com,,,"United States",,,Learner,,trubridge,trubridge_manager,,Success
jamie.ingold@tzinsurance.com,Jamie,Ingold,jamie.ingold@tzinsurance.com,,,"United States",,,Learner,,tzinsurance,TZINSURANCE_MANAGER,,"Error: Department does not exists; Department Manager does not exists;"
janice.gotter@tzinsurance.com,Janice,Gotter,janice.gotter@tzinsurance.com,,,"United States",,,Learner,,tzinsurance,TZINSURANCE_MANAGER,,"Error: Department does not exists; Department Manager does not exists;"
jennifer.mears@tzinsurance.com,Jennifer,Mears,jennifer.mears@tzinsurance.com,,,"United States",,,Learner,,tzinsurance,TZINSURANCE_MANAGER,,"Error: Department does not exists; Department Manager does not exists;"
jgrosko@trubridgeinc.com,Joe,Grosko,jgrosko@trubridgeinc.com,,,"United States",,,Learner,,trubridge,trubridge_manager,,Success
josie.clay@tzinsurance.com,Josie,Clay,josie.clay@tzinsurance.com,,,"United States",,,Learner,,tzinsurance,TZINSURANCE_MANAGER,,"Error: Department does not exists; Department Manager does not exists;"
julie.schwenk@tzinsurance.com,Julie,Schwenk,julie.schwenk@tzinsurance.com,,,"United States",,,Learner,,tzinsurance,TZINSURANCE_MANAGER,,"Error: Department does not exists; Department Manager does not exists;"
katelyn.haren@tzinsurance.com,Katelyn,Haren,katelyn.haren@tzinsurance.com,,,"United States",,,Learner,,tzinsurance,TZINSURANCE_MANAGER,,"Error: Department does not exists; Department Manager does not exists;"
lonn.klapper@tzinsurance.com,Lonn,Klapper,lonn.klapper@tzinsurance.com,,,"United States",,,Learner,,tzinsurance,TZINSURANCE_MANAGER,,"Error: Department does not exists; Department Manager does not exists;"
marie.russell@tzinsurance.com,Marie,Russell,marie.russell@tzinsurance.com,,,"United States",,,Learner,,tzinsurance,TZINSURANCE_MANAGER,,"Error: Department does not exists; Department Manager does not exists;"
mark.hiney@tzinsurance.com,Mark,Hiney,mark.hiney@tzinsurance.com,,,"United States",,,Learner,,tzinsurance,TZINSURANCE_MANAGER,,"Error: Department does not exists; Department Manager does not exists;"
matt.conlon@tzinsurance.com,Matt,Conlon,matt.conlon@tzinsurance.com,,,"United States",,,Learner,,tzinsurance,TZINSURANCE_MANAGER,,"Error: Department does not exists; Department Manager does not exists;"
mindy.oberlin@tzinsurance.com,Mindy,Oberlin,mindy.oberlin@tzinsurance.com,,,"United States",,,Learner,,tzinsurance,TZINSURANCE_MANAGER,,"Error: Department does not exists; Department Manager does not exists;"
ryan.thompson@tzinsurance.com,Ryan,Thompson,ryan.thompson@tzinsurance.com,,,"United States",,,Learner,,tzinsurance,TZINSURANCE_MANAGER,,"Error: Department does not exists; Department Manager does not exists;"
sstout@trubridgeinc.com,Steven,Stout,sstout@trubridgeinc.com,,,"United States",,,Learner,,trubridge,trubridge_manager,,Success
