Username*,"First Name*","Last Name*",Email*,Phone,City,Country,"Date of Birth",Description,Role*,"Can be Instructor",Department*,"Department Manager*",Team,"User Identifier",Status
alaina.schock@tzinsurance.com,"Alaina Jeann",Schock,alaina.schock@tzinsurance.com,,Canton,"United States",2/20/2017,,learner,,"TZ Insurance Solutions",TZINSURANCE_MANAGER,"Moo Med Supp",20000978,Success
Bathsheba.Stewart@tzinsurance.com,Bathsheba,Stewart,Bathsheba.Stewart@tzinsurance.com,,Tampa,"United States",3/6/2017,,learner,,"TZ Insurance Solutions",TZINSURANCE_MANAGER,"CCR Agents TPA",20000979,Success
Bryan.Allen@Tranzact.net,"Bryan David",Allen,Bryan.Allen@Tranzact.net,,"Fort Lee","United States",3/1/2017,,learner,,TRANZACT,TRANZACT_MANAGER,"Tranzact Corporate",20000980,Success
chandra.robinson@tzinsurance.com,"Chandra Nicole",Robinson,chandra.robinson@tzinsurance.com,,Canton,"United States",2/20/2017,,learner,,"TZ Insurance Solutions",TZINSURANCE_MANAGER,"Moo Med Supp",20000981,Success
mike.jerles@tzinsurance.com,Charles,Jerles,mike.jerles@tzinsurance.com,,"Fort Myers","United States",10/24/2011,,learner,,"TZ Insurance Solutions",TZINSURANCE_MANAGER,"MOO Life Agents FTM",20000982,Success
charles.brooks@tzinsurance.com,Charles,Brooks,charles.brooks@tzinsurance.com,,Charlotte,"United States",8/18/2014,,learner,,"TZ Insurance Solutions",TZINSURANCE_MANAGER,"MOO Agents CLT",20000983,Success
charles.inboden@tzinsurance.com,"Charles E",Inboden,charles.inboden@tzinsurance.com,,Canton,"United States",2/20/2017,,learner,,"TZ Insurance Solutions",TZINSURANCE_MANAGER,"Moo Med Supp",20000984,Success
chintana.phonthipsavath@tzinsurance.com,Chintana,Phonthipsavath,chintana.phonthipsavath@tzinsurance.com,,Tampa,"United States",8/15/2011,,learner,,"TZ Insurance Solutions",TZINSURANCE_MANAGER,"MOO Agents TPA",20000985,Success
Christopher.Ferreris@tzinsurance.com,Christopher,Ferreris,Christopher.Ferreris@tzinsurance.com,,Tampa,"United States",3/6/2017,,learner,,"TZ Insurance Solutions",TZINSURANCE_MANAGER,"CCR Agents TPA",20000986,Success
Christopher.Griffith@tzinsurance.com,Christopher,Griffith,Christopher.Griffith@tzinsurance.com,,Tampa,"United States",3/6/2017,,learner,,"TZ Insurance Solutions",TZINSURANCE_MANAGER,"CCR Agents TPA",20000987,Success
courtney.mcadoo@tzinsurance.com,"Courtney Nicole",McAdoo,courtney.mcadoo@tzinsurance.com,,Charlotte,"United States",2/27/2017,,learner,,"TZ Insurance Solutions",TZINSURANCE_MANAGER,"MOO Agents CLT",20000988,Success
cindy.brady@tzinsurance.com,Cynthia,Brady,cindy.brady@tzinsurance.com,,"Fort Myers","United States",9/24/2012,,learner,,"TZ Insurance Solutions",TZINSURANCE_MANAGER,"MOO Agents FTM",20000989,Success
David.Ramirez@tzinsurance.com,David,Ramirez,David.Ramirez@tzinsurance.com,,Tampa,"United States",3/6/2017,,learner,,"TZ Insurance Solutions",TZINSURANCE_MANAGER,"CCR Agents TPA",20000990,Success
David.Hamoui@Tranzact.net,David,Hamoui,David.Hamoui@Tranzact.net,,"Fort Lee","United States",3/27/2017,,learner,,TRANZACT,TRANZACT_MANAGER,"Tranzact Marketing",20000991,Success
deme.gibson@tzinsurance.com,"Deme Janay",Gibson,deme.gibson@tzinsurance.com,,Canton,"United States",3/13/2017,,learner,,"TZ Insurance Solutions",TZINSURANCE_MANAGER,"Moo Med Supp",20000992,Success
Derrick.Oates@tzinsurance.com,Derrick,Oates,Derrick.Oates@tzinsurance.com,,Tampa,"United States",3/6/2017,,learner,,"TZ Insurance Solutions",TZINSURANCE_MANAGER,"CCR Agents TPA",20000993,Success
Donte.Johnson@tzinsurance.com,Donte,Johnson,Donte.Johnson@tzinsurance.com,,"Fort Myers","United States",3/6/2017,,learner,,"TZ Insurance Solutions",TZINSURANCE_MANAGER,"MOO Agents FTM",20000994,Success
emmanuel.fellouzis@tzinsurance.com,"Emmanuel Michael",Fellouzis,emmanuel.fellouzis@tzinsurance.com,,Canton,"United States",2/20/2017,,learner,,"TZ Insurance Solutions",TZINSURANCE_MANAGER,"Moo Med Supp",20000995,Success
essence.mcclure@tzinsurance.com,Essence,McClure,essence.mcclure@tzinsurance.com,,Charlotte,"United States",2/27/2017,,learner,,"TZ Insurance Solutions",TZINSURANCE_MANAGER,"MOO Agents CLT",20000996,Success
Imani.williams@tzinsurance.com,Imani,Williams,Imani.williams@tzinsurance.com,,Charlotte,"United States",2/27/2017,,learner,,"TZ Insurance Solutions",TZINSURANCE_MANAGER,"MOO Agents CLT",20000997,Success
jacqueline.rivera@tzinsurance.com,Jackeline,Rivera,jacqueline.rivera@tzinsurance.com,,Tampa,"United States",5/27/2014,,learner,,"TZ Insurance Solutions",TZINSURANCE_MANAGER,"Quality Assurance",20000998,Success
Jaclyn.Andronici@tranzact.net,"Jaclyn M.",Andronici,Jaclyn.Andronici@tranzact.net,,"Fort Lee","United States",2/27/2017,,learner,,TRANZACT,TRANZACT_MANAGER,"Tranzact Corporate",20000999,Success
jacob.turbeville@tzinsurance.com,"Jacob A",Turbeville,jacob.turbeville@tzinsurance.com,,Canton,"United States",2/20/2017,,learner,,"TZ Insurance Solutions",TZINSURANCE_MANAGER,"Moo Med Supp",20001000,Success
James.Cunningham@tzinsurance.com,"James Peter",Cunningham,James.Cunningham@tzinsurance.com,,"Fort Myers","United States",3/6/2017,,learner,,"TZ Insurance Solutions",TZINSURANCE_MANAGER,"MOO Agents FTM",20001001,Success
Jarrett.Fessler@tzinsurance.com,"Jarrett Daniel",Fessler,Jarrett.Fessler@tzinsurance.com,,Tampa,"United States",3/6/2017,,learner,,"TZ Insurance Solutions",TZINSURANCE_MANAGER,"CCR Agents TPA",20001002,Success
Jasmine.Crosland@tzinsurance.com,Jasmine,Crosland,Jasmine.Crosland@tzinsurance.com,,Tampa,"United States",3/6/2017,,learner,,"TZ Insurance Solutions",TZINSURANCE_MANAGER,"CCR Agents TPA",20001003,Success
Jasmine.Favata@tzinsurance.com,Jasmine,Favata,Jasmine.Favata@tzinsurance.com,,Tampa,"United States",3/6/2017,,learner,,"TZ Insurance Solutions",TZINSURANCE_MANAGER,"CCR Agents TPA",20001004,Success
Jesus.Garcia@tzinsurance.com,"Jesus Angel",Garcia,Jesus.Garcia@tzinsurance.com,,"Fort Myers","United States",3/6/2017,,learner,,"TZ Insurance Solutions",TZINSURANCE_MANAGER,"MOO Agents FTM",20001005,Success
Jose.Delacruz@tzinsurance.com,"Jose Antonio","De La Cruz",Jose.Delacruz@tzinsurance.com,,Tampa,"United States",3/6/2017,,learner,,"TZ Insurance Solutions",TZINSURANCE_MANAGER,"CCR Agents TPA",20001006,Success
kassandra.jaffe@tzinsurance.com,"Kassandra B",Jaffe,kassandra.jaffe@tzinsurance.com,,Canton,"United States",2/20/2017,,learner,,"TZ Insurance Solutions",TZINSURANCE_MANAGER,"Moo Med Supp",20001007,Success
kaylie.pettis@tzinsurance.com,"Kaylie Brianne",Pettis,kaylie.pettis@tzinsurance.com,,Canton,"United States",3/14/2017,,learner,,"TZ Insurance Solutions",TZINSURANCE_MANAGER,"Moo Med Supp",20001008,Success
kelley.wrenn@tzinsurance.com,"Kelley Jane",Wrenn,kelley.wrenn@tzinsurance.com,,Canton,"United States",3/13/2017,,learner,,"TZ Insurance Solutions",TZINSURANCE_MANAGER,"Moo Med Supp",20001009,Success
kelton.lowry@tzinsurance.com,Kelton,Lowry,kelton.lowry@tzinsurance.com,,Charlotte,"United States",2/27/2017,,learner,,"TZ Insurance Solutions",TZINSURANCE_MANAGER,"MOO Agents CLT",20001010,Success
Lauretha.Price@tzinsurance.com,Lauretha,Price,Lauretha.Price@tzinsurance.com,,Charlotte,"United States",2/27/2017,,learner,,"TZ Insurance Solutions",TZINSURANCE_MANAGER,"MOO Agents CLT",20001011,Success
Laverne.Arnold@tzinsurance.com,Laverne,Hyneman-Arnold,Laverne.Arnold@tzinsurance.com,,Charlotte,"United States",10/8/2012,,learner,,"TZ Insurance Solutions",TZINSURANCE_MANAGER,"MOO Sups CLT",20001012,Success
Lawrence.Delaney@tzinsurance.com,"Lawrence William",Delaney,Lawrence.Delaney@tzinsurance.com,,Tampa,"United States",3/6/2017,,learner,,"TZ Insurance Solutions",TZINSURANCE_MANAGER,"CCR Agents TPA",20001013,Success
liza.colson@tzinsurance.com,"Liza Crystal",Colson,liza.colson@tzinsurance.com,,Canton,"United States",2/20/2017,,learner,,"TZ Insurance Solutions",TZINSURANCE_MANAGER,"Moo Med Supp",20001014,Success
Luis.Marmanillo@cignium.com,Luis,Marmanillo,Luis.Marmanillo@cignium.com,,"Fort Lee","United States",3/1/2017,,learner,,"Cignium Technologies",CIGNIUM_MANAGER,"Corporate Administration",20001015,Success
loucas.deberry@tzinsurance.com,Malik,Deberry,loucas.deberry@tzinsurance.com,,Charlotte,"United States",1/9/2013,,learner,,"TZ Insurance Solutions",TZINSURANCE_MANAGER,"Walmart - P&C",20001016,Success
marissa.guilmette@tzinsurance.com,"Marissa Belle",Guilmette,marissa.guilmette@tzinsurance.com,,Canton,"United States",3/13/2017,,learner,,"TZ Insurance Solutions",TZINSURANCE_MANAGER,"Moo Med Supp",20001017,Success
marrisha.trompeter@tzinsurance.com,"Marrisha R",Trompeter,marrisha.trompeter@tzinsurance.com,,Canton,"United States",9/17/2012,,learner,,"TZ Insurance Solutions",TZINSURANCE_MANAGER,Compliance,20001018,Success
Melaysia.Knight@tzinsurance.com,Melaysia,Knight,Melaysia.Knight@tzinsurance.com,,Charlotte,"United States",2/27/2017,,learner,,"TZ Insurance Solutions",TZINSURANCE_MANAGER,"MOO Agents CLT",20001019,Success
melissa.victorin@tzinsurance.com,Melissa,Victorin,melissa.victorin@tzinsurance.com,,Charlotte,"United States",6/27/2016,,learner,,"TZ Insurance Solutions",TZINSURANCE_MANAGER,"Humana MA Agents CLT",20001020,Success
michelle.mcrae@tzinsurance.com,Michelle,McRae,michelle.mcrae@tzinsurance.com,,Charlotte,"United States",2/27/2017,,learner,,"TZ Insurance Solutions",TZINSURANCE_MANAGER,"MOO Agents CLT",20001021,Success
Richard.Benedict@tzinsurance.com,Richard,Benedict,Richard.Benedict@tzinsurance.com,,Tampa,"United States",3/6/2017,,learner,,"TZ Insurance Solutions",TZINSURANCE_MANAGER,"CCR Agents TPA",20001022,Success
Robert.McCann@tzinsurance.com,Robert,McCann,Robert.McCann@tzinsurance.com,,Tampa,"United States",3/6/2017,,learner,,"TZ Insurance Solutions",TZINSURANCE_MANAGER,"CCR Agents TPA",20001023,Success
selinda.boyd@tzinsurance.com,Selinda,Boyd,selinda.boyd@tzinsurance.com,,Charlotte,"United States",2/27/2017,,learner,,"TZ Insurance Solutions",TZINSURANCE_MANAGER,"MOO Agents CLT",20001024,Success
Shawn.Francis@tzinsurance.com,Shawn,Francis,Shawn.Francis@tzinsurance.com,,Tampa,"United States",3/6/2017,,learner,,"TZ Insurance Solutions",TZINSURANCE_MANAGER,"CCR Agents TPA",20001025,Success
stephanie.solis@tzinsurance.com,"Stephanie Ann",Solis,stephanie.solis@tzinsurance.com,,"Fort Myers","United States",7/13/2015,,learner,,"TZ Insurance Solutions",TZINSURANCE_MANAGER,"MOO Life Agents FTM",20001026,Success
Talina.Collins@tzinsurance.com,Talina,Collins,Talina.Collins@tzinsurance.com,,Tampa,"United States",3/6/2017,,learner,,"TZ Insurance Solutions",TZINSURANCE_MANAGER,"CCR Agents TPA",20001027,Success
terrance.smith@tzinsurance.com,Terrance,Smith,terrance.smith@tzinsurance.com,,"Fort Myers","United States",8/12/2013,,learner,,"TZ Insurance Solutions",TZINSURANCE_MANAGER,"MOO Agents FTM",20001028,Success
vasthi.whitely@tzinsurance.com,"Vashti J",Whitely,vasthi.whitely@tzinsurance.com,,Tampa,"United States",6/27/2016,,learner,,"TZ Insurance Solutions",TZINSURANCE_MANAGER,"Aetna Med Supp Agents TPA",20001029,Success
Vincent.haskell@tzinsurance.com,"Vincent Eugene",Haskell,Vincent.haskell@tzinsurance.com,,"Fort Myers","United States",3/6/2017,,learner,,"TZ Insurance Solutions",TZINSURANCE_MANAGER,"MOO Agents FTM",20001030,Success
