Username*,"First Name*","Last Name*",Email*,Phone,City,Country,"Date of Birth",Description,Role*,"Can be Instructor",Department*,"Department Manager*",Team,"User Identifier",Status
Alberto.Arroyo@cignium.com,Alberto,Arroyo,Alberto.Arroyo@cignium.com,"(201) 651-5476",,"United States",9/1/2016,,Learner,0,"Cignium Technologies",manager_cignium,,20001031,Success
Alonso.Calle@cignium.com,Alonso,Calle,Alonso.Calle@cignium.com,,,"United States",6/20/2016,,Learner,0,"Cignium Technologies",manager_cignium,,20001032,Success
Angelo.Leva@cignium.com,Angelo,Leva,Angelo.Leva@cignium.com,201-651-5463,,"United States",1/10/2017,,Learner,0,"Cignium Technologies",manager_cignium,,20001033,Success
Ashanti.Gordon@tzinsurance.com,"Ashanti Tashe'",Gordon,Ashanti.Gordon@tzinsurance.com,,Tampa,"United States",3/27/2017,,Learner,0,"TZ Insurance Solutions",manager_tzinsurance,,20001034,Success
Brian.Kasday@Tranzact.net,Brian,Kasday,Brian.Kasday@Tranzact.net,,"Fort Lee","United States",11/8/2016,,Learner,0,TRANZACT,manager_tranzact,,20001035,Success
Carlos.Gavidia@cignium.com,Carlos,Gavidia,Carlos.Gavidia@cignium.com,"(201) 651-5012",,"United States",7/14/2014,,Learner,0,"Cignium Technologies",manager_cignium,,20001036,Success
Carlos.Pesantes@cignium.com,Carlos,Pesantes,Carlos.Pesantes@cignium.com,"(201) 651-5425",,"United States",10/25/2012,,Learner,0,"Cignium Technologies",manager_cignium,,20001037,Success
Cesar.Huerta@cignium.com,Cesar,Huerta,Cesar.Huerta@cignium.com,"(201) 651-5430",,"United States",12/9/2013,,Learner,0,"Cignium Technologies",manager_cignium,,20001038,Success
Cesar.Lopez@cignium.com,Cesar,Lopez,Cesar.Lopez@cignium.com,,,"United States",8/22/2016,,Learner,0,"Cignium Technologies",manager_cignium,,20001039,Success
Claire.Warren@tzinsurance.com,Claire,Warren,Claire.Warren@tzinsurance.com,,Tampa,"United States",3/27/2017,,Learner,0,"TZ Insurance Solutions",manager_tzinsurance,,20001040,Success
Claudia.Mechan@cignium.com,Claudia,Mechan,Claudia.Mechan@cignium.com,"(201) 651-5467",,"United States",3/21/2016,,Learner,0,"Cignium Technologies",manager_cignium,,20001041,Success
Craig.Dierking@tzinsurance.com,"Craig M.",Dierking,Craig.Dierking@tzinsurance.com,,Tampa,"United States",3/27/2017,,Learner,0,"TZ Insurance Solutions",manager_tzinsurance,,20001042,Success
Cristian.Leon@cignium.com,Cristian,Leon,Cristian.Leon@cignium.com,"(201) 651-5477",,"United States",9/12/2016,,Learner,0,"Cignium Technologies",manager_cignium,,20001043,Success
Cynthia.Cornejo@cignium.com,Cynthia,Cornejo,Cynthia.Cornejo@cignium.com,"(201) 651-5479",,"United States",9/12/2016,,Learner,0,"Cignium Technologies",manager_cignium,,20001044,Success
Damonte.Greene@tzinsurance.com,Damonte,Greene,Damonte.Greene@tzinsurance.com,,Tampa,"United States",3/27/2017,,Learner,0,"TZ Insurance Solutions",manager_tzinsurance,,20001045,Success
Daniel.Perez@cignium.com,Daniel,Perez,Daniel.Perez@cignium.com,,,"United States",2/6/2017,,Learner,0,"Cignium Technologies",manager_cignium,,20001046,Success
Dante.Peralta@cignium.com,Dante,Peralta,Dante.Peralta@cignium.com,201-651-5457,,"United States",1/2/2017,,Learner,0,"Cignium Technologies",manager_cignium,,20001047,Success
Darilis.Zambrana@tzinsurance.com,"Darilis Marie",Zambrana,Darilis.Zambrana@tzinsurance.com,,Tampa,"United States",3/27/2017,,Learner,0,"TZ Insurance Solutions",manager_tzinsurance,,20001048,Success
David.Robinette@tzinsurance.com,David,Robinette,David.Robinette@tzinsurance.com,,Tampa,"United States",3/27/2017,,Learner,0,"TZ Insurance Solutions",manager_tzinsurance,,20001049,Success
David.Merino@cignium.com,David,Merino,David.Merino@cignium.com,"(201) 651-5442",,"United States",9/1/2015,,Learner,0,"Cignium Technologies",manager_cignium,,20001050,Success
Diego.Torres@cignium.com,Diego,Torres,Diego.Torres@cignium.com,"(201) 651-5413",,"United States",7/1/2013,,Learner,0,"Cignium Technologies",manager_cignium,,20001051,Success
Edgar.Cordova@cignium.com,Edgar,Cordova,Edgar.Cordova@cignium.com,"(201) 651-5426",,"United States",11/2/2012,,Learner,0,"Cignium Technologies",manager_cignium,,20001052,Success
edson.flores@cignium.com,Edson,Flores,edson.flores@cignium.com,201-651-5483,,"United States",2/27/2017,,Learner,0,"Cignium Technologies",manager_cignium,,20001053,Success
Edwin.Rojas@cignium.com,Edwin,Rojas,Edwin.Rojas@cignium.com,"(201) 651-5473",,"United States",8/15/2016,,Learner,0,"Cignium Technologies",manager_cignium,,20001054,Success
Emerson.Toledo@cignium.com,Emerson,Toledo,Emerson.Toledo@cignium.com,"(201) 651-5452",,"United States",6/9/2014,,Learner,0,"Cignium Technologies",manager_cignium,,20001055,Success
LuisEnrique.Zea@cignium.com,Enrique,Zea,LuisEnrique.Zea@cignium.com,,"Fort Lee","United States",1/2/2017,,Learner,0,"Cignium Technologies",manager_cignium,,20001056,Success
Fernando.Romani@cignium.com,Fernando,Romani,Fernando.Romani@cignium.com,"(201) 651-5436",,"United States",3/11/2013,,Learner,0,"Cignium Technologies",manager_cignium,,20001057,Success
flavio.florentini@cignium.com,Flavio,Florentini,flavio.florentini@cignium.com,"(201) 651-5410",,"United States",5/11/2015,,Learner,0,"Cignium Technologies",manager_cignium,,20001058,Success
Giancarlo.Meza@cignium.com,Giancarlo,Meza,Giancarlo.Meza@cignium.com,201-651-5461,,"United States",1/2/2017,,Learner,0,"Cignium Technologies",manager_cignium,,20001059,Success
Guillermo.Azurdia@cignium.com,Guillermo,Azurdia,Guillermo.Azurdia@cignium.com,,"Fort Lee","United States",1/2/2017,,Learner,0,"Cignium Technologies",manager_cignium,,20001060,Success
hanna.drushal@tzinsurance.com,"Hanna Eva",Drushal,hanna.drushal@tzinsurance.com,,Canton,"United States",4/10/2017,,Learner,0,"TZ Insurance Solutions",manager_tzinsurance,,20001061,Success
Henry.Fuentes@cignium.com,Henry,Fuentes,Henry.Fuentes@cignium.com,"(201) 651-5454",,"United States",12/8/2014,,Learner,0,"Cignium Technologies",manager_cignium,,20001062,Success
Howard.Yeaton@tranzact.net,Howard,Yeaton,Howard.Yeaton@tranzact.net,,"Fort Lee","United States",3/31/2017,,Learner,0,TRANZACT,manager_tranzact,,20001063,Success
Hugo.Castro@cignium.com,Hugo,Castro,Hugo.Castro@cignium.com,"(201) 651-5459",,"United States",5/18/2015,,Learner,0,"Cignium Technologies",manager_cignium,,20001064,Success
Jean.Flores@cignium.com,Jean,Flores,Jean.Flores@cignium.com,201-651-5474,,"United States",8/15/2016,,Learner,0,"Cignium Technologies",manager_cignium,,20001065,Success
Jefferson.Mendoza@cignium.com,Jefferson,Mendoza,Jefferson.Mendoza@cignium.com,"(201) 651-5414",,"United States",5/19/2014,,Learner,0,"Cignium Technologies",manager_cignium,,20001066,Success
Jeff.Harris@tzinsurance.com,"Jeffery Bruce",Harris,Jeff.Harris@tzinsurance.com,201-242-3787,Dublin,"United States",4/3/2017,,Learner,0,"TZ Insurance Solutions",manager_tzinsurance,,20001067,Success
Jennifer.Ryle@tzinsurance.com,Jennifer,Ryle,Jennifer.Ryle@tzinsurance.com,,Tampa,"United States",3/27/2017,,Learner,0,"TZ Insurance Solutions",manager_tzinsurance,,20001068,Success
Jerry.Sanchez@cignium.com,Jerry,Sanchez,Jerry.Sanchez@cignium.com,"(201) 651-5437",,"United States",1/13/2014,,Learner,0,"Cignium Technologies",manager_cignium,,20001069,Success
Jessica.Cordova@cignium.com,Jessica,Cordova,Jessica.Cordova@cignium.com,"(201) 651-5427",,"United States",6/19/2013,,Learner,0,"Cignium Technologies",manager_cignium,,20001070,Success
Jesus.Rodriguez@cignium.com,Jesus,Rodriguez,Jesus.Rodriguez@cignium.com,"(201) 651-5419",,"United States",6/3/2013,,Learner,0,"Cignium Technologies",manager_cignium,,20001071,Success
Jo.Yep@Cignium.com,Jo,Yep,Jo.Yep@Cignium.com,201-651-5475,,"United States",4/24/2017,,Learner,0,"Cignium Technologies",manager_cignium,,20001072,Success
John.Reynolds@Tranzact.net,John,Reynolds,John.Reynolds@Tranzact.net,201-242-3785,"Fort Lee","United States",4/4/2017,,Learner,0,TRANZACT,manager_tranzact,,20001073,Success
Jorge.Riva@cignium.com,Jorge,Riva,Jorge.Riva@cignium.com,"(201) 651-5432",,"United States",10/28/2013,,Learner,0,"Cignium Technologies",manager_cignium,,20001074,Success
Jose.Gutierrez@cignium.com,Jose,Gutierrez,Jose.Gutierrez@cignium.com,"(201) 651-5455",,"United States",1/15/2015,,Learner,0,"Cignium Technologies",manager_cignium,,20001075,Success
Jose.Ponce@cignium.com,Jose,Ponce,Jose.Ponce@cignium.com,"(201) 651-5480",,"United States",10/10/2016,,Learner,0,"Cignium Technologies",manager_cignium,,20001076,Success
Joshua.Taylor@tzinsurance.com,Joshua,Taylor,Joshua.Taylor@tzinsurance.com,,Tampa,"United States",3/27/2017,,Learner,0,"TZ Insurance Solutions",manager_tzinsurance,,20001077,Success
Juan.Alvarez@cignium.com,Juan,Alvarez,Juan.Alvarez@cignium.com,,,"United States",1/2/2017,,Learner,0,"Cignium Technologies",manager_cignium,,20001078,Success
JuanJose.Fuchs@cignium.com,Juan,Fuchs,JuanJose.Fuchs@cignium.com,"(201) 651-5422",,"United States",10/23/2012,,Learner,0,"Cignium Technologies",manager_cignium,,20001079,Success
Juan.Peralta@cignium.com,Juan,Peralta,Juan.Peralta@cignium.com,"(201) 651-5446",,"United States",3/6/2014,,Learner,0,"Cignium Technologies",manager_cignium,,20001080,Success
Juan.Romaina@cignium.com,Juan,Romaina,Juan.Romaina@cignium.com,"(201) 651-5435",,"United States",2/18/2013,,Learner,0,"Cignium Technologies",manager_cignium,,20001081,Success
Juan.Sosa@cignium.com,Juan,Sosa,Juan.Sosa@cignium.com,,,"United States",1/21/2013,,Learner,0,"Cignium Technologies",manager_cignium,,20001082,Success
Karen.Goytizolo@cignium.com,Karen,Goytizolo,Karen.Goytizolo@cignium.com,"(201) 651-5439",,"United States",2/5/2014,,Learner,0,"Cignium Technologies",manager_cignium,,20001083,Success
Katia.Meneses@cignium.com,Katia,Meneses,Katia.Meneses@cignium.com,"(201) 651-5418",,"United States",6/3/2013,,Learner,0,"Cignium Technologies",manager_cignium,,20001084,Success
Katya.Flores@cignium.com,Katya,Flores,Katya.Flores@cignium.com,201-651-5468,,"United States",11/15/2016,,Learner,0,"Cignium Technologies",manager_cignium,,20001085,Success
Laura.Jimenez@cignium.com,Laura,Jimenez,Laura.Jimenez@cignium.com,,"Fort Lee","United States",1/2/2017,,Learner,0,"Cignium Technologies",manager_cignium,,20001086,Success
Luis.Arpasi@cignium.com,Luis,Arpasi,Luis.Arpasi@cignium.com,"(201) 651-5423",,"United States",10/23/2012,,Learner,0,"Cignium Technologies",manager_cignium,,20001087,Success
Luis.Barzola@Cignium.com,Luis,Barzola,Luis.Barzola@Cignium.com,201-651-5434,,"United States",4/17/2017,,Learner,0,"Cignium Technologies",manager_cignium,,20001088,Success
Luis.Berrocal@cignium.com,Luis,Berrocal,Luis.Berrocal@cignium.com,"(201) 651-5456",,"United States",4/13/2015,,Learner,0,"Cignium Technologies",manager_cignium,,20001089,Success
luis.espinoza@cignium.com,Luis,Espinoza,luis.espinoza@cignium.com,"(201) 651-5416",,"United States",4/22/2016,,Learner,0,"Cignium Technologies",manager_cignium,,20001090,Success
Manuel.Sanchez@cignium.com,Manuel,Sanchez,Manuel.Sanchez@cignium.com,201-651-5478,,"United States",12/5/2016,,Learner,0,"Cignium Technologies",manager_cignium,,20001091,Success
Maria.Guzman@cignium.com,Maria,Guzman,Maria.Guzman@cignium.com,,,"United States",10/26/2015,,Learner,0,"Cignium Technologies",manager_cignium,,20001092,Success
Mario.Castillo@cignium.com,Mario,Castillo,Mario.Castillo@cignium.com,"(201) 651-5440",,"United States",2/24/2014,,Learner,0,"Cignium Technologies",manager_cignium,,20001094,Success
Melisa.Barrios@cignium.com,Melisa,Barrios,Melisa.Barrios@cignium.com,"(201) 651-5453",,"United States",6/23/2014,,Learner,0,"Cignium Technologies",manager_cignium,,20001095,Success
Miguel.Mora@Tranzact.net,Miguel,Mora,Miguel.Mora@Tranzact.net,201-242-3748,Raleigh,"United States",3/31/2017,,Learner,0,TRANZACT,manager_tranzact,,20001096,Success
Morgan.Osorio@cignium.com,Morgan,Osorio,Morgan.Osorio@cignium.com,"(201) 651-5411",,"United States",11/4/2013,,Learner,0,"Cignium Technologies",manager_cignium,,20001097,Success
Oscar.Ramos@cignium.com,Oscar,Ramos,Oscar.Ramos@cignium.com,"(201) 651-5403",,"United States",5/6/2015,,Learner,0,"Cignium Technologies",manager_cignium,,20001098,Success
Oskar.Crisostomo@cignium.com,Oskar,Crisostomo,Oskar.Crisostomo@cignium.com,"(201) 651-5407",,"United States",5/12/2014,,Learner,0,"Cignium Technologies",manager_cignium,,20001099,Success
paul.diaz@cignium.com,Paul,Diaz,paul.diaz@cignium.com,,,"United States",2/8/2016,,Learner,0,"Cignium Technologies",manager_cignium,,20001100,Success
Ramyaa.Selvaraju@cigniumk.com,Ramyaa,Selvaraju,Ramyaa.Selvaraju@cigniumk.com,201-242-3537,"Fort Lee","United States",1/2/2017,,Learner,0,"Cignium Technologies",manager_cignium,,20001101,Success
Randy.Hall@tzinsurance.com,"Randy J",Hall,Randy.Hall@tzinsurance.com,,Tampa,"United States",3/27/2017,,Learner,0,"TZ Insurance Solutions",manager_tzinsurance,,20001102,Success
Raul.Grey@cignium.com,Raul,Grey,Raul.Grey@cignium.com,5466,,"United States",3/28/2016,,Learner,0,"Cignium Technologies",manager_cignium,,20001103,Success
Raul.Naupari@cignium.com,Raul,Naupari,Raul.Naupari@cignium.com,"(201) 651-5433",,"United States",1/21/2013,,Learner,0,"Cignium Technologies",manager_cignium,,20001104,Success
Rene@cignium.com,Rene,Cum,Rene@cignium.com,,"Fort Lee","United States",1/2/2017,,Learner,0,"Cignium Technologies",manager_cignium,,20001105,Success
Renzo.Robles@cignium.com,Renzo,Robles,Renzo.Robles@cignium.com,"(201) 651-5472",,"United States",6/20/2016,,Learner,0,"Cignium Technologies",manager_cignium,,20001106,Success
ricardo.corbera@cignium.com,Ricardo,Corbera,ricardo.corbera@cignium.com,5014,,"United States",2/23/2016,,Learner,0,"Cignium Technologies",manager_cignium,,20001107,Success
Robert.Frye@tzinsurance.com,"Robert P.","Frye JR",Robert.Frye@tzinsurance.com,,Tampa,"United States",3/27/2017,,Learner,0,"TZ Insurance Solutions",manager_tzinsurance,,20001108,Success
Roberto.Honores@cignium.com,Roberto,Honores,Roberto.Honores@cignium.com,5443,,"United States",3/23/2016,,Learner,0,"Cignium Technologies",manager_cignium,,20001109,Success
Romina.Chahar@cignium.com,Romina,Chahar,Romina.Chahar@cignium.com,"(201) 651-5441",,"United States",3/3/2014,,Learner,0,"Cignium Technologies",manager_cignium,,20001110,Success
Ronald.Ameri@cignium.com,Ronald,"Ameri Casas",Ronald.Ameri@cignium.com,"(201) 651-5412",,"United States",8/5/2013,,Learner,0,"Cignium Technologies",manager_cignium,,20001111,Success
Ronald.Marrou@cignium.com,Ronald,Marrou,Ronald.Marrou@cignium.com,"(201) 651-5470",,"United States",5/16/2016,,Learner,0,"Cignium Technologies",manager_cignium,,20001112,Success
roy.delgado@cignium.com,Roy,Delgado,roy.delgado@cignium.com,5421,,"United States",12/17/2015,,Learner,0,"Cignium Technologies",manager_cignium,,20001113,Success
Santiago.Talavera@cignium.com,Santiago,Talavera,Santiago.Talavera@cignium.com,"(201) 651-5469",,"United States",5/9/2016,,Learner,0,"Cignium Technologies",manager_cignium,,20001114,Success
Scharly.Ochoa@cignium.com,Scharly,Ochoa,Scharly.Ochoa@cignium.com,5429,,"United States",2/1/2016,,Learner,0,"Cignium Technologies",manager_cignium,,20001115,Success
Seth.Lytton@Tranzact.net,Seth,Lytton,Seth.Lytton@Tranzact.net,201-242-3540,Raleigh,"United States",4/3/2017,,Learner,0,TRANZACT,manager_tranzact,,20001116,Success
Sierra.Brown@tzinsurance.com,Sierra,Brown,Sierra.Brown@tzinsurance.com,,Tampa,"United States",3/27/2017,,Learner,0,"TZ Insurance Solutions",manager_tzinsurance,,20001117,Success
storm.biehl@tzinsurance.com,"Storm Thomas",Biehl,storm.biehl@tzinsurance.com,,Canton,"United States",4/10/2017,,Learner,0,"TZ Insurance Solutions",manager_tzinsurance,,20001118,Success
Tom.Ryan@cignium.com,Tom,Ryan,Tom.Ryan@cignium.com,201-242-3549,"Fort Lee","United States",4/11/2017,,Learner,0,"Cignium Technologies",manager_cignium,,20001119,Success
Tomas.Lazo@cignium.com,Tomas,Lazo,Tomas.Lazo@cignium.com,"(201) 651-5438",,"United States",1/20/2014,,Learner,0,"Cignium Technologies",manager_cignium,,20001120,Success
Wendy.Ibarra@cignium.com,Wendy,Ibarra,Wendy.Ibarra@cignium.com,,,"United States",10/5/2015,,Learner,0,"Cignium Technologies",manager_cignium,,20001121,Success
wendy.wilder@tzinsurance.com,"Wendy Gee",Wilder,wendy.wilder@tzinsurance.com,,Canton,"United States",4/10/2017,,Learner,0,"TZ Insurance Solutions",manager_tzinsurance,,20001122,Success
William.Luna@cignium.com,William,Luna,William.Luna@cignium.com,"(201) 651-5447",,"United States",9/22/2014,,Learner,0,"Cignium Technologies",manager_cignium,,20001123,Success
Wilmer.Delaguila@cignium.com,Wilmer,"Del Aguila",Wilmer.Delaguila@cignium.com,,,"United States",8/8/2016,,Learner,0,"Cignium Technologies",manager_cignium,,20001124,Success
Yiseli.Sairitupa@cignium.com,Yiseli,Sairitupa,Yiseli.Sairitupa@cignium.com,"(201) 651-5458",,"United States",4/13/2015,,Learner,0,"Cignium Technologies",manager_cignium,,20001125,Success
