Username*,"First Name*","Last Name*",Email*,Phone,City,Country,"Date of Birth",Description,Role*,"Can be Instructor",Department*,"Department Manager*",Team,"User Identifier",Status
amanda.fuller@tzinsurance.com,Amanda,Fuller,amanda.fuller@tzinsurance.com,,Tampa,"United States",1/6/17,,Learner,1,"TZ Insurance Solutions","TZINSURANCE MANAGER",,,"Error: Department Manager does not exists;"
sheryl.beneduce@tzinsurance.com,Sheryk,Beneduce,sheryl.beneduce@tzinsurance.com,,Tampa,"United States",1/6/17,,learner,1,"TZ Insurance Solutions","TZINSURANCE MANAGER",,,"Error: Department Manager does not exists;"
alinda.mitchell@tzinsurance.com,Alinda,Mitchell,alinda.mitchell@tzinsurance.com,,Tampa,"United States",1/6/17,,Learner,1,"TZ Insurance Solutions","TZINSURANCE MANAGER",,,"Error: Department Manager does not exists;"
