Username*,"Enrollment End Date(MM/DD/YYYY)",Status
adam.borchardt@tzinsurance.com,10/13/2017,"Enrollment date updated"
adam.weeks@tzinsurance.com,10/13/2017,"Enrollment date updated"
adriane.mcnamee@tzinsurance.com,10/13/2017,"Enrollment date updated"
adrienne.powell@tzinsurance.com,10/13/2017,"Enrollment date updated"
ajmal.talukder@cignium.com,10/13/2017,"Enrollment date updated"
akeva.mckeaver@tzinsurance.com,10/13/2017,"Enrollment date updated"
alaina.schock@tzinsurance.com,10/13/2017,"Enrollment date updated"
alberto.arroyo@cignium.com,10/13/2017,"Enrollment date updated"
Aleksandr.Danilevich@cignium.com,10/13/2017,"Enrollment date updated"
alesandra.paz@tzinsurance.com,10/13/2017,"Enrollment date updated"
alessandro.vella@tzinsurance.com,10/13/2017,"Enrollment date updated"
alex.malyava@cignium.com,10/13/2017,"Enrollment date updated"
alexander.devus@tzinsurance.com,10/13/2017,"Enrollment date updated"
alexis.drurey@tzinsurance.com,10/13/2017,"Enrollment date updated"
Alexis.Marteli@tzinsurance.com,10/13/2017,"Enrollment date updated"
alfonso.barrett@cignium.com,10/13/2017,"Enrollment date updated"
Alicia.Butler@tzinsurance.com,10/13/2017,"Enrollment date updated"
alinda.mitchell@tzinsurance.com,10/13/2017,"Enrollment date updated"
alisha.crowder@tzinsurance.com,10/13/2017,"Enrollment date updated"
alisha.mccray@tzinsurance.com,10/13/2017,"Enrollment date updated"
Alisha.Treadway@tzinsurance.com,10/13/2017,"Enrollment date updated"
allicia.calhoun@tzinsurance.com,10/13/2017,"Enrollment date updated"
allison.king@tzinsurance.com,10/13/2017,"Enrollment date updated"
allison.bastone@cignium.com,10/13/2017,"Enrollment date updated"
allison.pollard@tzinsurance.com,10/13/2017,"Enrollment date updated"
allison.taylor@tzinsurance.com,10/13/2017,"Enrollment date updated"
alpesh.trambadiya@cignium.com,10/13/2017,"Enrollment date updated"
amanda.martin@tzinsurance.com,10/13/2017,"Enrollment date updated"
amanda.grzechowiak@tzinsurance.com,10/13/2017,"Enrollment date updated"
amanda.overholt@tzinsurance.com,10/13/2017,"Enrollment date updated"
amber.ingraham@tzinsurance.com,10/13/2017,"Enrollment date updated"
amber.majewski@tzinsurance.com,10/13/2017,"Enrollment date updated"
amy.ariano@tranzact.net,10/13/2017,"Enrollment date updated"
amy.fuertes@tzinsurance.com,10/13/2017,"Enrollment date updated"
amy.stemple@tzinsurance.com,10/13/2017,"Enrollment date updated"
amy.erdely@tzinsurance.com,10/13/2017,"Enrollment date updated"
andre.dussan@tzinsurance.com,10/13/2017,"Enrollment date updated"
andre.rosado@tzinsurance.com,10/13/2017,"Enrollment date updated"
andrea.farinacci@tranzact.net,10/13/2017,"Enrollment date updated"
andrea.miller@tzinsurance.com,10/13/2017,"Enrollment date updated"
andrea.beardman@tzinsurance.com,10/13/2017,"Enrollment date updated"
andres.urquieta@cignium.com,10/13/2017,"Enrollment date updated"
andy.nelson@tranzact.net,10/13/2017,"Enrollment date updated"
andrew.czyzewski@tranzact.net,10/13/2017,"Enrollment date updated"
andrew.sacco@cignium.com,10/13/2017,"Enrollment date updated"
andrew.vargo@tzinsurance.com,10/13/2017,"Enrollment date updated"
andrew.ream@tzinsurance.com,10/13/2017,"Enrollment date updated"
andrew.straus@tranzact.net,10/13/2017,"Enrollment date updated"
andromada.deberry@tzinsurance.com,10/13/2017,"Enrollment date updated"
andy.heymann@tranzact.net,10/13/2017,"Enrollment date updated"
angel.chovanec@tzinsurance.com,10/13/2017,"Enrollment date updated"
angel.beronda@tzinsurance.com,10/13/2017,"Enrollment date updated"
angel.owen@tzinsurance.com,10/13/2017,"Enrollment date updated"
angela.richardson@tzinsurance.com,10/13/2017,"Enrollment date updated"
angela.pearson@tzinsurance.com,10/13/2017,"Enrollment date updated"
angelo.leva@cignium.com,10/13/2017,"Enrollment date updated"
Anita.Wilburn@tzinsurance.com,10/13/2017,"Enrollment date updated"
anita.wingler@tzinsurance.com,10/13/2017,"Enrollment date updated"
anita.maciarz@tzinsurance.com,10/13/2017,"Enrollment date updated"
anita.sailors@tzinsurance.com,10/13/2017,"Enrollment date updated"
ann.bryson@tzinsurance.com,10/13/2017,"Enrollment date updated"
AnnMarie.Stock@tzinsurance.com,10/13/2017,"Enrollment date updated"
Anna.Sitkowska@tzinsurance.com,10/13/2017,"Enrollment date updated"
Anna.Foster@tzinsurance.com,10/13/2017,"Enrollment date updated"
Anna.Dixon-Birdr@tzinsurance.com,10/13/2017,"Enrollment date updated"
Anna.Dixon-Bird@tzinsurance.com,10/13/2017,"Enrollment date updated"
annetta.egler@tzinsurance.com,10/13/2017,"Enrollment date updated"
anntwanette.riley@tzinsurance.com,10/13/2017,"Enrollment date updated"
tony.yezza@cignium.com,10/13/2017,"Enrollment date updated"
Anthony.DeMaria@tzinsurance.com,10/13/2017,"Enrollment date updated"
anthony.johnson@tzinsurance.com,10/13/2017,"Enrollment date updated"
anthony.golino@tranzact.net,10/13/2017,"Enrollment date updated"
anthony.lencsak@tzinsurance.com,10/13/2017,"Enrollment date updated"
anthony.malfitano@cignium.com,10/13/2017,"Enrollment date updated"
antonio.brown@tzinsurance.com,10/13/2017,"Enrollment date updated"
anupma.bhatia@cignium.com,10/13/2017,"Enrollment date updated"
anyssa.robertson@tzinsurance.com,10/13/2017,"Enrollment date updated"
ariana.howe@tzinsurance.com,10/13/2017,"Enrollment date updated"
arianna.gadaleta@tzinsurance.com,10/13/2017,"Enrollment date updated"
Arlene.Rodriguez@tzinsurance.com,10/13/2017,"Enrollment date updated"
arnold.wolfe@cignium.com,10/13/2017,"Enrollment date updated"
art.burnette@tzinsurance.com,10/13/2017,"Enrollment date updated"
Arthur.Arias@tzinsurance.com,10/13/2017,"Enrollment date updated"
arya.sourav@cignium.com,10/13/2017,"Enrollment date updated"
Ashanti.Gordon@tzinsurance.com,10/13/2017,"Enrollment date updated"
ashley.rocha@tranzact.net,10/13/2017,"Enrollment date updated"
ashley.moore@tzinsurance.com,10/13/2017,"Enrollment date updated"
ashley.carrelli@tzinsurance.com,10/13/2017,"Enrollment date updated"
ashley.ezerski@tzinsurance.com,10/13/2017,"Enrollment date updated"
ashley.faulk@tzinsurance.com,10/13/2017,"Enrollment date updated"
Ashley.Kaleta@tzinsurance.com,10/13/2017,"Enrollment date updated"
ashley.mckinney@tzinsurance.com,10/13/2017,"Enrollment date updated"
ashton.crooks@tzinsurance.com,10/13/2017,"Enrollment date updated"
aubrey.lamanna@tzinsurance.com,10/13/2017,"Enrollment date updated"
audrey.brunson@tzinsurance.com,10/13/2017,"Enrollment date updated"
autumn.wills@tzinsurance.com,10/13/2017,"Enrollment date updated"
axel.wassington@cignium.com,10/13/2017,"Enrollment date updated"
zeke.bush@tzinsurance.com,10/13/2017,"Enrollment date updated"
Badria.Mohamed@Cignium.com,10/13/2017,"Enrollment date updated"
barbara.brennan@tzinsurance.com,10/13/2017,"Enrollment date updated"
barbara.milam@tzinsurance.com,10/13/2017,"Enrollment date updated"
barbara.middendorf@tzinsurance.com,10/13/2017,"Enrollment date updated"
Barbara.Holbrook@tzinsurance.com,10/13/2017,"Enrollment date updated"
barb.stanton@tzinsurance.com,10/13/2017,"Enrollment date updated"
barry.mcintosh@tzinsurance.com,10/13/2017,"Enrollment date updated"
barry.zuta@tzinsurance.com,10/13/2017,"Enrollment date updated"
barry.landwert@tzinsurance.com,10/13/2017,"Enrollment date updated"
Bathsheba.Stewart@tzinsurance.com,10/13/2017,"Enrollment date updated"
becky.jackson@tzinsurance.com,10/13/2017,"Enrollment date updated"
Ben.Ferch@cignium.com,10/13/2017,"Enrollment date updated"
benito.perez@tzinsurance.com,10/13/2017,"Enrollment date updated"
ben.carson@tranzact.net,10/13/2017,"Enrollment date updated"
benjamin.warnick@tzinsurance.com,10/13/2017,"Enrollment date updated"
bernard.thomas@tzinsurance.com,10/13/2017,"Enrollment date updated"
beth.morgan@tzinsurance.com,10/13/2017,"Enrollment date updated"
Betsy.Cardama@Cignium.com,10/13/2017,"Enrollment date updated"
Bhavin.Desai@cignium.com,10/13/2017,"Enrollment date updated"
biju.paul@tranzact.net,10/13/2017,"Enrollment date updated"
das.joshi@cignium.com,10/13/2017,"Enrollment date updated"
blaire.johnson@tzinsurance.com,10/13/2017,"Enrollment date updated"
blake.carpenter@tzinsurance.com,10/13/2017,"Enrollment date updated"
boris.donsky@tranzact.net,10/13/2017,"Enrollment date updated"
bradley.heavilin@tzinsurance.com,10/13/2017,"Enrollment date updated"
brandi.perkins@tzinsurance.com,10/13/2017,"Enrollment date updated"
brandon.allison@tzinsurance.com,10/13/2017,"Enrollment date updated"
brandy.dillon@tzinsurance.com,10/13/2017,"Enrollment date updated"
brent.heimer@cignium.com,10/13/2017,"Enrollment date updated"
bwackerly@trubridgeinc.com,10/13/2017,"Enrollment date updated"
brett.phillippi@tzinsurance.com,10/13/2017,"Enrollment date updated"
brian.felter@cignium.com,10/13/2017,"Enrollment date updated"
brian.lusk@tranzact.net,10/13/2017,"Enrollment date updated"
brian.berry@tzinsurance.com,10/13/2017,"Enrollment date updated"
brian.szuch@tzinsurance.com,10/13/2017,"Enrollment date updated"
brian.axberg@tzinsurance.com,10/13/2017,"Enrollment date updated"
brian.radford@tzinsurance.com,10/13/2017,"Enrollment date updated"
Brian.Cassista@tzinsurance.com,10/13/2017,"Enrollment date updated"
brian.hicks@tzinsurance.com,10/13/2017,"Enrollment date updated"
brian.kasday@tranzact.net,10/13/2017,"Enrollment date updated"
brian.williamson@tzinsurance.com,10/13/2017,"Enrollment date updated"
brien.sullivan@tzinsurance.com,10/13/2017,"Enrollment date updated"
brittany.ashby@tzinsurance.com,10/13/2017,"Enrollment date updated"
Brittney.Robinson@tzinsurance.com,10/13/2017,"Enrollment date updated"
bryan.twidwell@tzinsurance.com,10/13/2017,"Enrollment date updated"
bryan.shaffer@tzinsurance.com,10/13/2017,"Enrollment date updated"
Bryan.Allen@Tranzact.net,10/13/2017,"Enrollment date updated"
bryant.brim@tzinsurance.com,10/13/2017,"Enrollment date updated"
caitlin.barrett@tranzact.net,10/13/2017,"Enrollment date updated"
caitlyn.oconnell@tzinsurance.com,10/13/2017,"Enrollment date updated"
candice.washington@tzinsurance.com,10/13/2017,"Enrollment date updated"
careen.cashman@tzinsurance.com,10/13/2017,"Enrollment date updated"
carinjoy.bonetti@tzinsurance.com,10/13/2017,"Enrollment date updated"
Carla.Hendrix@tzinsurance.com,10/13/2017,"Enrollment date updated"
carla.proudfoot@tzinsurance.com,10/13/2017,"Enrollment date updated"
carla.rhine@tzinsurance.com,10/13/2017,"Enrollment date updated"
carlos.gavidia@cignium.com,10/13/2017,"Enrollment date updated"
carlos.pesantes@cignium.com,10/13/2017,"Enrollment date updated"
carlos.vela@cignium.com,10/13/2017,"Enrollment date updated"
Carmen.Valdez@Cignium.com,10/13/2017,"Enrollment date updated"
caroline.ferris@tranzact.net,10/13/2017,"Enrollment date updated"
carolyn.english@tzinsurance.com,10/13/2017,"Enrollment date updated"
carolyn.kelly@tzinsurance.com,10/13/2017,"Enrollment date updated"
carolyn.furman@tzinsurance.com,10/13/2017,"Enrollment date updated"
Carolyn.Edwards@tzinsurance.com,10/13/2017,"Enrollment date updated"
cayman.day@tzinsurance.com,10/13/2017,"Enrollment date updated"
cecilia.house@tzinsurance.com,10/13/2017,"Enrollment date updated"
cesar.huerta@cignium.com,10/13/2017,"Enrollment date updated"
cesar.zavaleta@cignium.com,10/13/2017,"Enrollment date updated"
cesar.vanderpool@tzinsurance.com,10/13/2017,"Enrollment date updated"
chad.bracken@tzinsurance.com,10/13/2017,"Enrollment date updated"
chad.tenge@tzinsurance.com,10/13/2017,"Enrollment date updated"
chandra.robinson@tzinsurance.com,10/13/2017,"Enrollment date updated"
charlene.rumph@tzinsurance.com,10/13/2017,"Enrollment date updated"
charles.mogensen@tranzact.net,10/13/2017,"Enrollment date updated"
mike.jerles@tzinsurance.com,10/13/2017,"Enrollment date updated"
chuck.horner@tzinsurance.com,10/13/2017,"Enrollment date updated"
charles.mason@tzinsurance.com,10/13/2017,"Enrollment date updated"
charles.inboden@tzinsurance.com,10/13/2017,"Enrollment date updated"
Charlotte.Lanier@tzinsurance.com,10/13/2017,"Enrollment date updated"
chauncey.smith@tzinsurance.com,10/13/2017,"Enrollment date updated"
chelsa.wesley@tzinsurance.com,10/13/2017,"Enrollment date updated"
cherran.evans@tzinsurance.com,10/13/2017,"Enrollment date updated"
cheryl.harlow@tzinsurance.com,10/13/2017,"Enrollment date updated"
chester.sutherland@tzinsurance.com,10/13/2017,"Enrollment date updated"
cheyenne.schrader@tzinsurance.com,10/13/2017,"Enrollment date updated"
chintana.phonthipsavath@tzinsurance.com,10/13/2017,"Enrollment date updated"
chris.clay@tzinsurance.com,10/13/2017,"Enrollment date updated"
chris.collins@tzinsurance.com,10/13/2017,"Enrollment date updated"
christian.day@tzinsurance.com,10/13/2017,"Enrollment date updated"
christian.worstell@tranzact.net,10/13/2017,"Enrollment date updated"
christianna.lee@tranzact.net,10/13/2017,"Enrollment date updated"
christie.foley@cignium.com,10/13/2017,"Enrollment date updated"
Christina.Liggett@tzinsurance.com,10/13/2017,"Enrollment date updated"
christina.stewart@tzinsurance.com,10/13/2017,"Enrollment date updated"
christina.thomas@tzinsurance.com,10/13/2017,"Enrollment date updated"
christine.martin@tranzact.net,10/13/2017,"Enrollment date updated"
christine.dilport@tzinsurance.com,10/13/2017,"Enrollment date updated"
Chris.Mercurio@tzinsurance.com,10/13/2017,"Enrollment date updated"
christine.thompson@tzinsurance.com,10/13/2017,"Enrollment date updated"
christopher.mcmichael@tzinsurance.com,10/13/2017,"Enrollment date updated"
christopher.butcher@tzinsurance.com,10/13/2017,"Enrollment date updated"
chris.banks@tzinsurance.com,10/13/2017,"Enrollment date updated"
jayson.bond@tzinsurance.com,10/13/2017,"Enrollment date updated"
chris.shinn@cignium.com,10/13/2017,"Enrollment date updated"
christopher.pizzedaz@tranzact.net,10/13/2017,"Enrollment date updated"
christopher.gibson@tzinsurance.com,10/13/2017,"Enrollment date updated"
christopher.ferreris@tzinsurance.com,10/13/2017,"Enrollment date updated"
Christopher.Griffith@tzinsurance.com,10/13/2017,"Enrollment date updated"
christopher.booker@cigna-insurance.com,10/13/2017,"Enrollment date updated"
Christopher.Booker@tzinsurance.com,10/13/2017,"Enrollment date updated"
Christopher.Russo@tzinsurance.com,10/13/2017,"Enrollment date updated"
cindy.smith@tzinsurance.com,10/13/2017,"Enrollment date updated"
clair.waucaush@tzinsurance.com,10/13/2017,"Enrollment date updated"
claire.warren@tzinsurance.com,10/13/2017,"Enrollment date updated"
claudia.mechan@cignium.com,10/13/2017,"Enrollment date updated"
Colleen.Jahn@Tranzact.net,10/13/2017,"Enrollment date updated"
connie.senatore@tranzact.net,10/13/2017,"Enrollment date updated"
conette.zammit@cignium.com,10/13/2017,"Enrollment date updated"
connie.burke@tzinsurance.com,10/13/2017,"Enrollment date updated"
corinthia.miller@tzinsurance.com,10/13/2017,"Enrollment date updated"
corkisha.pledgure@tzinsurance.com,10/13/2017,"Enrollment date updated"
cornell.agent@tzinsurance.com,10/13/2017,"Enrollment date updated"
corrinn.diefenderfer@tzinsurance.com,10/13/2017,"Enrollment date updated"
courtney.farnell@tzinsurance.com,10/13/2017,"Enrollment date updated"
Courtney.Thompson@tzinsurance.com,10/13/2017,"Enrollment date updated"
courtney.shaw@tzinsurance.com,10/13/2017,"Enrollment date updated"
courtney.baskin@tzinsurance.com,10/13/2017,"Enrollment date updated"
Courtney.McAdoo@tzinsurance.com,10/13/2017,"Enrollment date updated"
courtney.huff@tzinsurance.com,10/13/2017,"Enrollment date updated"
courtney.miner@cigna-insurance.com,10/13/2017,"Enrollment date updated"
Courtney.Miner@tzinsurance.com,10/13/2017,"Enrollment date updated"
craig.dierking@tzinsurance.com,10/13/2017,"Enrollment date updated"
Cristian.Guillen@cignium.com,10/13/2017,"Enrollment date updated"
cristian.leon@cignium.com,10/13/2017,"Enrollment date updated"
crystal.tanner@tzinsurance.com,10/13/2017,"Enrollment date updated"
Crystal.Wade@tzinsurance.com,10/13/2017,"Enrollment date updated"
crystal.jacobs@tzinsurance.com,10/13/2017,"Enrollment date updated"
curtis.foster@cignium.com,10/13/2017,"Enrollment date updated"
curtis.malone@tzinsurance.com,10/13/2017,"Enrollment date updated"
cyndi.qualls@tzinsurance.com,10/13/2017,"Enrollment date updated"
cynthia.rogers@cignium.com,10/13/2017,"Enrollment date updated"
Cindy.Brady@tzinsurance.com,10/13/2017,"Enrollment date updated"
cynthia.miller@tzinsurance.com,10/13/2017,"Enrollment date updated"
cynthia.cornejo@cignium.com,10/13/2017,"Enrollment date updated"
cynthia.mcnair@tzinsurance.com,10/13/2017,"Enrollment date updated"
cynthia.rogers@tranzact.net,10/13/2017,"Already completed course"
Tim.Hill@tzinsurance.com,10/13/2017,"Enrollment date updated"
daemon.hayes@tzinsurance.com,10/13/2017,"Enrollment date updated"
daja.roselle@tzinsurance.com,10/13/2017,"Enrollment date updated"
dale.liggett@tzinsurance.com,10/13/2017,"Enrollment date updated"
dale.clark@tzinsurance.com,10/13/2017,"Enrollment date updated"
damon.lagala@cignium.com,10/13/2017,"Enrollment date updated"
Damonte.Greene@tzinsurance.com,10/13/2017,"Enrollment date updated"
dana.blackmon@tzinsurance.com,10/13/2017,"Enrollment date updated"
Dandrila.Green@tzinsurance.com,10/13/2017,"Enrollment date updated"
danette.richards@tzinsurance.com,10/13/2017,"Enrollment date updated"
daniel.esposito@tzinsurance.com,10/13/2017,"Enrollment date updated"
dan.griffin@tzinsurance.com,10/13/2017,"Enrollment date updated"
daniel.pascazio@tzinsurance.com,10/13/2017,"Enrollment date updated"
daniel.davis@tzinsurance.com,10/13/2017,"Enrollment date updated"
daniel.core@tzinsurance.com,10/13/2017,"Enrollment date updated"
daniel.perez@cignium.com,10/13/2017,"Enrollment date updated"
daniel.hancock@tzinsurance.com,10/13/2017,"Enrollment date updated"
danielle.wilson@tzinsurance.com,10/13/2017,"Enrollment date updated"
Danielle.Harvey@tzinsurance.com,10/13/2017,"Enrollment date updated"
danielle.amidon@tzinsurance.com,10/13/2017,"Enrollment date updated"
danielle.brady@tzinsurance.com,10/13/2017,"Enrollment date updated"
danielle.dupler@tzinsurance.com,10/13/2017,"Enrollment date updated"
danny.williams@tzinsurance.com,10/13/2017,"Enrollment date updated"
dante.peralta@cignium.com,10/13/2017,"Enrollment date updated"
Darilis.Zambrana@tzinsurance.com,10/13/2017,"Enrollment date updated"
darren.white@tranzact.net,10/13/2017,"Enrollment date updated"
Dave.Kumia@cignium.com,10/13/2017,"Enrollment date updated"
Davian.Montgomery@tzinsurance.com,10/13/2017,"Enrollment date updated"
david.byron@cignium.com,10/13/2017,"Enrollment date updated"
david.graf@tranzact.net,10/13/2017,"Enrollment date updated"
david.merino@cignium.com,10/13/2017,"Enrollment date updated"
David.Volkert@tzinsurance.com,10/13/2017,"Enrollment date updated"
david.treshnik@tzinsurance.com,10/13/2017,"Enrollment date updated"
david.morales@tzinsurance.com,10/13/2017,"Enrollment date updated"
david.destrooper@tzinsurance.com,10/13/2017,"Enrollment date updated"
David.Panting@tzinsurance.com,10/13/2017,"Enrollment date updated"
david.guerrero@tzinsurance.com,10/13/2017,"Enrollment date updated"
david.moberley@tzinsurance.com,10/13/2017,"Enrollment date updated"
david.young@tzinsurance.com,10/13/2017,"Enrollment date updated"
david.hare@tranzact.net,10/13/2017,"Enrollment date updated"
David.Hamoui@Tranzact.net,10/13/2017,"Enrollment date updated"
daylin.brea@tzinsurance.com,10/13/2017,"Enrollment date updated"
dean.meinert@tzinsurance.com,10/13/2017,"Enrollment date updated"
Debbie.Rossiter@tzinsurance.com,10/13/2017,"Enrollment date updated"
deborah.cohen@tranzact.net,10/13/2017,"Enrollment date updated"
deborah.glasser@tranzact.net,10/13/2017,"Enrollment date updated"
deborah.herbert@tzinsurance.com,10/13/2017,"Enrollment date updated"
Deborah.Carr@tzinsurance.com,10/13/2017,"Enrollment date updated"
deborah.king@tzinsurance.com,10/13/2017,"Enrollment date updated"
debra.bolds@tzinsurance.com,10/13/2017,"Enrollment date updated"
degan.purvis@tzinsurance.com,10/13/2017,"Enrollment date updated"
deme.gibson@tzinsurance.com,10/13/2017,"Enrollment date updated"
Demi.Leonard@tzinsurance.com,10/13/2017,"Enrollment date updated"
Dennis.Dutkevitch@cignium.com,10/13/2017,"Enrollment date updated"
dennis.greene@tzinsurance.com,10/13/2017,"Enrollment date updated"
denys.ivanov@cignium.com,10/13/2017,"Enrollment date updated"
destani.winn@tzinsurance.com,10/13/2017,"Enrollment date updated"
diane.irick@tzinsurance.com,10/13/2017,"Enrollment date updated"
diego.torres@cignium.com,10/13/2017,"Enrollment date updated"
dina.demetro@tzinsurance.com,10/13/2017,"Enrollment date updated"
donald.wilcox@tzinsurance.com,10/13/2017,"Enrollment date updated"
donna.capuano@tzinsurance.com,10/13/2017,"Enrollment date updated"
donna.jackson@tzinsurance.com,10/13/2017,"Enrollment date updated"
donna.bartley@tzinsurance.com,10/13/2017,"Enrollment date updated"
donte.johnson@tzinsurance.com,10/13/2017,"Enrollment date updated"
Dorette.Banyog@tzinsurance.com,10/13/2017,"Enrollment date updated"
doris.moseley@tzinsurance.com,10/13/2017,"Enrollment date updated"
doris.hardy@tzinsurance.com,10/13/2017,"Enrollment date updated"
dorothy.poteete@tzinsurance.com,10/13/2017,"Enrollment date updated"
doug.vanderbrink@cignium.com,10/13/2017,"Enrollment date updated"
douglas.cooper@tzinsurance.com,10/13/2017,"Enrollment date updated"
douglas.harding@tzinsurance.com,10/13/2017,"Enrollment date updated"
doug.urban@tzinsurance.com,10/13/2017,"Enrollment date updated"
dustin.nolen@tzinsurance.com,10/13/2017,"Enrollment date updated"
ebony.stewart@tzinsurance.com,10/13/2017,"Enrollment date updated"
edgar.cordova@cignium.com,10/13/2017,"Enrollment date updated"
edson.flores@cignium.com,10/13/2017,"Enrollment date updated"
eduardo.uscuvilca@cignium.com,10/13/2017,"Enrollment date updated"
Eduardo.Mora@tzinsurance.com,10/13/2017,"Enrollment date updated"
edward.bobbitt@tzinsurance.com,10/13/2017,"Enrollment date updated"
edwin.rojas@cignium.com,10/13/2017,"Enrollment date updated"
Eileen.Dillon@tzinsurance.com,10/13/2017,"Enrollment date updated"
elexis.porter@tzinsurance.com,10/13/2017,"Enrollment date updated"
elizabeth.pisino@tzinsurance.com,10/13/2017,"Enrollment date updated"
Emanuel.Roker@tzinsurance.com,10/13/2017,"Enrollment date updated"
emerson.toledo@cignium.com,10/13/2017,"Enrollment date updated"
emily.goodwin@tranzact.net,10/13/2017,"Enrollment date updated"
emily.lopp@tzinsurance.com,10/13/2017,"Enrollment date updated"
emily.swing@tzinsurance.com,10/13/2017,"Enrollment date updated"
etremmel@tzinsurance.com,10/13/2017,"Enrollment date updated"
emma.player@tzinsurance.com,10/13/2017,"Enrollment date updated"
emmanuel.fellouzis@tzinsurance.com,10/13/2017,"Enrollment date updated"
LuisEnrique.Zea@Cignium.com,10/13/2017,"Enrollment date updated"
eric.krannich@tzinsurance.com,10/13/2017,"Enrollment date updated"
erica.powers@tranzact.net,10/13/2017,"Enrollment date updated"
erica.wheeler@tzinsurance.com,10/13/2017,"Enrollment date updated"
Erika.Scherer@tzinsurance.com,10/13/2017,"Enrollment date updated"
erin.corbett@tzinsurance.com,10/13/2017,"Enrollment date updated"
ernie.parsons@tzinsurance.com,10/13/2017,"Enrollment date updated"
Essence.McClure@tzinsurance.com,10/13/2017,"Enrollment date updated"
eunide.pierre@tzinsurance.com,10/13/2017,"Enrollment date updated"
eva.crabtree@tzinsurance.com,10/13/2017,"Enrollment date updated"
evelyn.morrison@tzinsurance.com,10/13/2017,"Enrollment date updated"
flavio.florentini@cignium.com,10/13/2017,"Enrollment date updated"
frank.molina@tzinsurance.com,10/13/2017,"Enrollment date updated"
frank.licitra@tzinsurance.com,10/13/2017,"Enrollment date updated"
frank.marchese@tzinsurance.com,10/13/2017,"Enrollment date updated"
freddie.gibson@tzinsurance.com,10/13/2017,"Enrollment date updated"
fred.wright@tzinsurance.com,10/13/2017,"Enrollment date updated"
fred.vinson@tzinsurance.com,10/13/2017,"Enrollment date updated"
fgoldin@tzinsurance.com,10/13/2017,"Enrollment date updated"
fritz.maxi@tzinsurance.com,10/13/2017,"Enrollment date updated"
gabrielle.beam@tzinsurance.com,10/13/2017,"Enrollment date updated"
galina.ashapatov@cignium.com,10/13/2017,"Enrollment date updated"
galina.rossovsky@cignium.com,10/13/2017,"Enrollment date updated"
gareth.morgan@cignium.com,10/13/2017,"Enrollment date updated"
gary.henschel@tzinsurance.com,10/13/2017,"Enrollment date updated"
gary.johnson@tzinsurance.com,10/13/2017,"Enrollment date updated"
gene.naroditsky@cignium.com,10/13/2017,"Enrollment date updated"
george.milnes@tzinsurance.com,10/13/2017,"Enrollment date updated"
george.rentos@tzinsurance.com,10/13/2017,"Enrollment date updated"
george.haskin@tzinsurance.com,10/13/2017,"Enrollment date updated"
gerald.simpson@tzinsurance.com,10/13/2017,"Enrollment date updated"
gerard.kachor@tzinsurance.com,10/13/2017,"Enrollment date updated"
giancarlo.meza@cignium.com,10/13/2017,"Enrollment date updated"
Gianella.Hernandez@Cignium.com,10/13/2017,"Enrollment date updated"
Gina.Diaz@tzinsurance.com,10/13/2017,"Enrollment date updated"
giovanni.marban@tzinsurance.com,10/13/2017,"Enrollment date updated"
Glen.Vanderwalker@tzinsurance.com,10/13/2017,"Enrollment date updated"
glenn.storm@tranzact.net,10/13/2017,"Enrollment date updated"
gunn.mccoy@tzinsurance.com,10/13/2017,"Enrollment date updated"
Gopi.Palamadai@Tranzact.net,10/13/2017,"Enrollment date updated"
Grant.Gwinn@tzinsurance.com,10/13/2017,"Enrollment date updated"
greg.smucker@tranzact.net,10/13/2017,"Enrollment date updated"
greg.fitzpatrick@tzinsurance.com,10/13/2017,"Enrollment date updated"
gregory.prosser@tzinsurance.com,10/13/2017,"Enrollment date updated"
Gregory.Geiger@tzinsurance.com,10/13/2017,"Enrollment date updated"
Guillermo.Azurdia@cignium.com,10/13/2017,"Enrollment date updated"
Gwendolyn.Hensley@tzinsurance.com,10/13/2017,"Enrollment date updated"
gwendolyn.fink@tzinsurance.com,10/13/2017,"Enrollment date updated"
hanora.lapping@tzinsurance.com,10/13/2017,"Enrollment date updated"
Harless.Stover@tzinsurance.com,10/13/2017,"Enrollment date updated"
harper.martel@tzinsurance.com,10/13/2017,"Enrollment date updated"
harpo.marx@tzinsurance.com,10/13/2017,"Enrollment date updated"
Lina.Hart@tzinsurance.com,10/13/2017,"Enrollment date updated"
heather.labounty@tzinsurance.com,10/13/2017,"Enrollment date updated"
heather.koelble@tzinsurance.com,10/13/2017,"Enrollment date updated"
Heather.Costello@tzinsurance.com,10/13/2017,"Enrollment date updated"
hector.fernandez@tzinsurance.com,10/13/2017,"Enrollment date updated"
hector.torres@tranzact.net,10/13/2017,"Enrollment date updated"
henry.trujillo@cignium.com,10/13/2017,"Enrollment date updated"
henry.fuentes@cignium.com,10/13/2017,"Enrollment date updated"
henry.cekan@tzinsurance.com,10/13/2017,"Enrollment date updated"
herman.floyd@tzinsurance.com,10/13/2017,"Enrollment date updated"
holly.stubbins@tzinsurance.com,10/13/2017,"Enrollment date updated"
holly.wills@tzinsurance.com,10/13/2017,"Enrollment date updated"
howard.yeaton@tranzact.net,10/13/2017,"Enrollment date updated"
hugo.castro@cignium.com,10/13/2017,"Enrollment date updated"
ida.lennon@tzinsurance.com,10/13/2017,"Enrollment date updated"
ieisha.higgins@tzinsurance.com,10/13/2017,"Enrollment date updated"
Imani.Williams@tzinsurance.com,10/13/2017,"Enrollment date updated"
irfan.munshi@cignium.com,10/13/2017,"Enrollment date updated"
iris.nelson@tzinsurance.com,10/13/2017,"Enrollment date updated"
ishtiaq.mustafa@cignium.com,10/13/2017,"Enrollment date updated"
ivan.ruiz@tzinsurance.com,10/13/2017,"Enrollment date updated"
jacinto.sosa@cignium.com,10/13/2017,"Enrollment date updated"
jacqueline.rivera@tzinsurance.com,10/13/2017,"Enrollment date updated"
Jaclyn.Andronici@Tranzact.net,10/13/2017,"Enrollment date updated"
jacob.turbeville@tzinsurance.com,10/13/2017,"Enrollment date updated"
jacob.gama@tzinsurance.com,10/13/2017,"Enrollment date updated"
Jackie.Gasparini@tzinsurance.com,10/13/2017,"Enrollment date updated"
jacqueline.nelson@tzinsurance.com,10/13/2017,"Enrollment date updated"
jclausnitzer@tzinsurance.com,10/13/2017,"Enrollment date updated"
jacquie.greathouse@tzinsurance.com,10/13/2017,"Enrollment date updated"
Jade.Correggio@Tranzact.net,10/13/2017,"Enrollment date updated"
jake.robinson@tranzact.net,10/13/2017,"Enrollment date updated"
jalisa.jackson@tzinsurance.com,10/13/2017,"Enrollment date updated"
jamaal.kelly@tzinsurance.com,10/13/2017,"Enrollment date updated"
james.palmer@tranzact.net,10/13/2017,"Enrollment date updated"
jim.oser@cignium.com,10/13/2017,"Enrollment date updated"
james.cordero@tzinsurance.com,10/13/2017,"Enrollment date updated"
james.vallandingham@tzinsurance.com,10/13/2017,"Enrollment date updated"
james.sparks@tzinsurance.com,10/13/2017,"Enrollment date updated"
james.edwards@tzinsurance.com,10/13/2017,"Enrollment date updated"
james.taylor@tzinsurance.com,10/13/2017,"Enrollment date updated"
james.farris@tzinsurance.com,10/13/2017,"Enrollment date updated"
james.burns@tzinsurance.com,10/13/2017,"Enrollment date updated"
jim.volkmor@tzinsurance.com,10/13/2017,"Enrollment date updated"
james.cunningham@tzinsurance.com,10/13/2017,"Enrollment date updated"
james.fernandez@tzinsurance.com,10/13/2017,"Enrollment date updated"
jamie.knatz@tzinsurance.com,10/13/2017,"Enrollment date updated"
jamie.ingold@tzinsurance.com,10/13/2017,"Enrollment date updated"
jamison.margaritis@tranzact.net,10/13/2017,"Enrollment date updated"
janae.mcafee@tzinsurance.com,10/13/2017,"Enrollment date updated"
Janeece.Jones@tzinsurance.com,10/13/2017,"Enrollment date updated"
Janet.Rivera@tzinsurance.com,10/13/2017,"Enrollment date updated"
janice.gotter@tzinsurance.com,10/13/2017,"Enrollment date updated"
janine.davidheiser@tranzact.net,10/13/2017,"Enrollment date updated"
jasmyn.galpert@tzinsurance.com,10/13/2017,"Enrollment date updated"
jason.everist@tzinsurance.com,10/13/2017,"Enrollment date updated"
jason.amaral@tranzact.net,10/13/2017,"Enrollment date updated"
jason.jones@tzinsurance.com,10/13/2017,"Enrollment date updated"
jason.hochman@tzinsurance.com,10/13/2017,"Enrollment date updated"
jason.wilcox@tzinsurance.com,10/13/2017,"Enrollment date updated"
javier.bringas@tzinsurance.com,10/13/2017,"Enrollment date updated"
javika.legette@tzinsurance.com,10/13/2017,"Enrollment date updated"
jay.pierce@tzinsurance.com,10/13/2017,"Enrollment date updated"
jaymee.mason@tzinsurance.com,10/13/2017,"Enrollment date updated"
jean.flores@cignium.com,10/13/2017,"Enrollment date updated"
jeff.gjoen@tzinsurance.com,10/13/2017,"Enrollment date updated"
Jeff.Miller@tzinsurance.com,10/13/2017,"Enrollment date updated"
jefferson.mendoza@cignium.com,10/13/2017,"Enrollment date updated"
Jeff.Harris@tzinsurance.com,10/13/2017,"Enrollment date updated"
jeffery.miller@tzinsurance.com,10/13/2017,"Enrollment date updated"
jeffrey.storm@tranzact.net,10/13/2017,"Enrollment date updated"
jeffrey.lemcke@tzinsurance.com,10/13/2017,"Enrollment date updated"
jenelle.ferguson@tzinsurance.com,10/13/2017,"Enrollment date updated"
jennie.rodriguez@tranzact.net,10/13/2017,"Enrollment date updated"
jennifer.harbert@tranzact.net,10/13/2017,"Enrollment date updated"
Jennifer.Sears@tzinsurance.com,10/13/2017,"Enrollment date updated"
jennifer.wharton@tzinsurance.com,10/13/2017,"Enrollment date updated"
jennifer.boggs@tzinsurance.com,10/13/2017,"Enrollment date updated"
jennifer.mears@tzinsurance.com,10/13/2017,"Enrollment date updated"
jennifer.snyder@tzinsurance.com,10/13/2017,"Enrollment date updated"
jennifer.orlowski@tzinsurance.com,10/13/2017,"Enrollment date updated"
jeremy.schulte@tzinsurance.com,10/13/2017,"Enrollment date updated"
jeremy.dacko@tzinsurance.com,10/13/2017,"Enrollment date updated"
jeremy.gibson@tzinsurance.com,10/13/2017,"Enrollment date updated"
jeriz.markham@tzinsurance.com,10/13/2017,"Enrollment date updated"
jerold.lee@tzinsurance.com,10/13/2017,"Enrollment date updated"
jerome.wallace@tzinsurance.com,10/13/2017,"Enrollment date updated"
jerome.jones@tzinsurance.com,10/13/2017,"Enrollment date updated"
jerry.sanchez@cignium.com,10/13/2017,"Enrollment date updated"
jerry.harris@tzinsurance.com,10/13/2017,"Enrollment date updated"
Jesse.Thompson@tzinsurance.com,10/13/2017,"Enrollment date updated"
jessica.fajardo@tranzact.net,10/13/2017,"Enrollment date updated"
jessica.cordova@cignium.com,10/13/2017,"Enrollment date updated"
jessica.rogers@tzinsurance.com,10/13/2017,"Enrollment date updated"
jessica.wise@tzinsurance.com,10/13/2017,"Enrollment date updated"
jessica.newton@tzinsurance.com,10/13/2017,"Enrollment date updated"
jessica.hicks@tzinsurance.com,10/13/2017,"Enrollment date updated"
jessie.flowers@tzinsurance.com,10/13/2017,"Enrollment date updated"
jesus.rodriguez@cignium.com,10/13/2017,"Enrollment date updated"
jesus.garcia@tzinsurance.com,10/13/2017,"Enrollment date updated"
jignesh.patel@cignium.com,10/13/2017,"Enrollment date updated"
jitzel.long@tzinsurance.com,10/13/2017,"Enrollment date updated"
Jo.Yep@Cignium.com,10/13/2017,"Enrollment date updated"
joanne.graf@tranzact.net,10/13/2017,"Enrollment date updated"
jocelyn.suarez@tzinsurance.com,10/13/2017,"Enrollment date updated"
joel.calabrese@tzinsurance.com,10/13/2017,"Enrollment date updated"
Joel.Reyes@tzinsurance.com,10/13/2017,"Enrollment date updated"
john.bosi@tranzact.net,10/13/2017,"Enrollment date updated"
John.Savelli@tzinsurance.com,10/13/2017,"Enrollment date updated"
john.staunton@tzinsurance.com,10/13/2017,"Enrollment date updated"
john.hyland@tzinsurance.com,10/13/2017,"Enrollment date updated"
john.jordan@tzinsurance.com,10/13/2017,"Enrollment date updated"
john.krahnert@tranzact.net,10/13/2017,"Enrollment date updated"
John.Reynolds@Tranzact.net,10/13/2017,"Enrollment date updated"
John.Haskell@tzinsurance.com,10/13/2017,"Enrollment date updated"
jon.detrow@tzinsurance.com,10/13/2017,"Enrollment date updated"
jonathan.mcclanahan@tzinsurance.com,10/13/2017,"Enrollment date updated"
jonathan.roberts@tzinsurance.com,10/13/2017,"Enrollment date updated"
jonathan.lawley@tzinsurance.com,10/13/2017,"Enrollment date updated"
jonita.floyd@cignium.com,10/13/2017,"Enrollment date updated"
jordan.williams@tzinsurance.com,10/13/2017,"Enrollment date updated"
jorge.riva@cignium.com,10/13/2017,"Enrollment date updated"
jose.gutierrez@cignium.com,10/13/2017,"Enrollment date updated"
jose.garcia@tzinsurance.com,10/13/2017,"Enrollment date updated"
jose.delacruz@tzinsurance.com,10/13/2017,"Enrollment date updated"
jose.ponce@cignium.com,10/13/2017,"Enrollment date updated"
joseph.politz@tranzact.net,10/13/2017,"Enrollment date updated"
joseph.ramirez@tzinsurance.com,10/13/2017,"Enrollment date updated"
joseph.howdyshell@tzinsurance.com,10/13/2017,"Enrollment date updated"
joe.wheeler@tranzact.net,10/13/2017,"Enrollment date updated"
joseph.carbone@tzinsurance.com,10/13/2017,"Enrollment date updated"
joseph.robinson@tranzact.net,10/13/2017,"Enrollment date updated"
Joseph.Sorisi@Tranzact.net,10/13/2017,"Enrollment date updated"
joe.grosko@tranzact.net,10/13/2017,"Enrollment date updated"
joe.grosko@tzinsurance.com,10/13/2017,"Enrollment date updated"
josie.clay@tzinsurance.com,10/13/2017,"Enrollment date updated"
joshua.laninga@tzinsurance.com,10/13/2017,"Enrollment date updated"
joshua.menghini@tzinsurance.com,10/13/2017,"Enrollment date updated"
juan.peralta@cignium.com,10/13/2017,"Enrollment date updated"
juan.romaina@cignium.com,10/13/2017,"Enrollment date updated"
juanjose.fuchs@cignium.com,10/13/2017,"Enrollment date updated"
juan.elias@tzinsurance.com,10/13/2017,"Enrollment date updated"
juan.cruz@tzinsurance.com,10/13/2017,"Enrollment date updated"
Juan.Alvarez@cignium.com,10/13/2017,"Enrollment date updated"
Juan.Sosa@cignium.com,10/13/2017,"Enrollment date updated"
jubilee.bales@tzinsurance.com,10/13/2017,"Enrollment date updated"
judeen.sutherland@tzinsurance.com,10/13/2017,"Enrollment date updated"
Judith.Ernest@tzinsurance.com,10/13/2017,"Enrollment date updated"
burke.stjohn@tranzact.net,10/13/2017,"Enrollment date updated"
judy.stevens@tzinsurance.com,10/13/2017,"Enrollment date updated"
judy.byers@tzinsurance.com,10/13/2017,"Enrollment date updated"
judy.day@tzinsurance.com,10/13/2017,"Enrollment date updated"
julian.lee@tzinsurance.com,10/13/2017,"Enrollment date updated"
julie.mignone@tzinsurance.com,10/13/2017,"Enrollment date updated"
julie.schwenk@tzinsurance.com,10/13/2017,"Enrollment date updated"
julie.sherman@tzinsurance.com,10/13/2017,"Enrollment date updated"
justin.cole@tzinsurance.com,10/13/2017,"Enrollment date updated"
justin.cope@tzinsurance.com,10/13/2017,"Enrollment date updated"
justin.adsit@tranzact.net,10/13/2017,"Enrollment date updated"
justina.lidderdale@tzinsurance.com,10/13/2017,"Enrollment date updated"
kale.difloure@tzinsurance.com,10/13/2017,"Enrollment date updated"
Kalyan.Prime@tzinsurance.com,10/13/2017,"Enrollment date updated"
karel.vegazo@cignium.com,10/13/2017,"Enrollment date updated"
karen.goytizolo@cignium.com,10/13/2017,"Enrollment date updated"
karen.ficken@tranzact.net,10/13/2017,"Enrollment date updated"
karen.diggs@tzinsurance.com,10/13/2017,"Enrollment date updated"
Karen.Frazier@tzinsurance.com,10/13/2017,"Enrollment date updated"
karla.rivera@tzinsurance.com,10/13/2017,"Enrollment date updated"
Kartik.Shrivastava@Tranzact.net,10/13/2017,"Enrollment date updated"
kassandra.jaffe@tzinsurance.com,10/13/2017,"Enrollment date updated"
katelyn.haren@tzinsurance.com,10/13/2017,"Enrollment date updated"
katherine.stewart@tzinsurance.com,10/13/2017,"Enrollment date updated"
katie.hayhurst@tzinsurance.com,10/13/2017,"Enrollment date updated"
kat.stehno@tranzact.net,10/13/2017,"Enrollment date updated"
katherine.kehoe@tranzact.net,10/13/2017,"Enrollment date updated"
kathleen.johnson@tzinsurance.com,10/13/2017,"Enrollment date updated"
kathleen.franks@tzinsurance.com,10/13/2017,"Enrollment date updated"
kathryn.sloop@tranzact.net,10/13/2017,"Enrollment date updated"
katia.meneses@cignium.com,10/13/2017,"Enrollment date updated"
katya.flores@cignium.com,10/13/2017,"Enrollment date updated"
Kayla.Riley@tzinsurance.com,10/13/2017,"Enrollment date updated"
kaylie.pettis@tzinsurance.com,10/13/2017,"Enrollment date updated"
kaysi.donadio@tzinsurance.com,10/13/2017,"Enrollment date updated"
kaytlin.loy@tzinsurance.com,10/13/2017,"Enrollment date updated"
Keith.Marchese@cignium.com,10/13/2017,"Enrollment date updated"
keith.ayars@tzinsurance.com,10/13/2017,"Enrollment date updated"
kelley.wrenn@tzinsurance.com,10/13/2017,"Enrollment date updated"
kellie.wriston@tzinsurance.com,10/13/2017,"Enrollment date updated"
kelly.wallace@tzinsurance.com,10/13/2017,"Enrollment date updated"
kellyclark@tzinsurance.com,10/13/2017,"Enrollment date updated"
kelly.velez@tzinsurance.com,10/13/2017,"Enrollment date updated"
Kelsey.Cook@tranzact.net,10/13/2017,"Enrollment date updated"
ken.bickers@tzinsurance.com,10/13/2017,"Enrollment date updated"
kenneth.kerr@tzinsurance.com,10/13/2017,"Enrollment date updated"
kenneth.mclaughlin@tzinsurance.com,10/13/2017,"Enrollment date updated"
Ken.Suarez@tzinsurance.com,10/13/2017,"Enrollment date updated"
kenneth.wilmoth@tzinsurance.com,10/13/2017,"Enrollment date updated"
keona.thomas@tzinsurance.com,10/13/2017,"Enrollment date updated"
kevin.waldman@cignium.com,10/13/2017,"Enrollment date updated"
kevin.staszak@tzinsurance.com,10/13/2017,"Enrollment date updated"
kevin.rivas@tzinsurance.com,10/13/2017,"Enrollment date updated"
keyanna.hood@tzinsurance.com,10/13/2017,"Enrollment date updated"
khadijia.ervin@tzinsurance.com,10/13/2017,"Enrollment date updated"
Kiana.Zimmerman@tzinsurance.com,10/13/2017,"Enrollment date updated"
kim.rieveley@tzinsurance.com,10/13/2017,"Enrollment date updated"
kimberly.dotson@tzinsurance.com,10/13/2017,"Enrollment date updated"
Kirsten.Mullin@tzinsurance.com,10/13/2017,"Enrollment date updated"
kiyra.smith@tzinsurance.com,10/13/2017,"Enrollment date updated"
kristen.reineke@tranzact.net,10/13/2017,"Enrollment date updated"
kristen.kobyluck@tzinsurance.com,10/13/2017,"Enrollment date updated"
kristi.baudone@tranzact.net,10/13/2017,"Enrollment date updated"
kristina.payton@tzinsurance.com,10/13/2017,"Enrollment date updated"
kristina.jordan@tzinsurance.com,10/13/2017,"Enrollment date updated"
kristine.carranza@tzinsurance.com,10/13/2017,"Enrollment date updated"
kristine.engels@tzinsurance.com,10/13/2017,"Enrollment date updated"
Lachelle.Barber@tzinsurance.com,10/13/2017,"Enrollment date updated"
lane.frye@tzinsurance.com,10/13/2017,"Enrollment date updated"
Laquarra.Audrey@tzinsurance.com,10/13/2017,"Enrollment date updated"
Laquecia.Dublin@tzinsurance.com,10/13/2017,"Enrollment date updated"
laquita.taylor@tzinsurance.com,10/13/2017,"Enrollment date updated"
laren.burick@tzinsurance.com,10/13/2017,"Enrollment date updated"
rhonda.burnette@tzinsurance.com,10/13/2017,"Enrollment date updated"
lasttina.baker@tzinsurance.com,10/13/2017,"Enrollment date updated"
latoya.washington@tzinsurance.com,10/13/2017,"Enrollment date updated"
Laura.Jimenez@cignium.com,10/13/2017,"Enrollment date updated"
laura.corellis@tzinsurance.com,10/13/2017,"Enrollment date updated"
laura.birmingham@tzinsurance.com,10/13/2017,"Enrollment date updated"
laura.meyer@tzinsurance.com,10/13/2017,"Enrollment date updated"
lauren.schwenk@tranzact.net,10/13/2017,"Enrollment date updated"
lauretha.price@tzinsurance.com,10/13/2017,"Enrollment date updated"
laurie.poulos@tranzact.net,10/13/2017,"Enrollment date updated"
larry.lundgren@tranzact.net,10/13/2017,"Enrollment date updated"
Leah.Pierce@tzinsurance.com,10/13/2017,"Enrollment date updated"
lee.frankstone@tranzact.net,10/13/2017,"Enrollment date updated"
lelia.moore@tzinsurance.com,10/13/2017,"Enrollment date updated"
leslie.hughes@tzinsurance.com,10/13/2017,"Enrollment date updated"
leslie.fischer@tzinsurance.com,10/13/2017,"Enrollment date updated"
lillian.villard@tzinsurance.com,10/13/2017,"Enrollment date updated"
linda.ghalieh@tzinsurance.com,10/13/2017,"Enrollment date updated"
linda.greene@tzinsurance.com,10/13/2017,"Enrollment date updated"
linda.bryant@tzinsurance.com,10/13/2017,"Enrollment date updated"
lindsey.gardner@tzinsurance.com,10/13/2017,"Enrollment date updated"
lindsie.smith@tzinsurance.com,10/13/2017,"Enrollment date updated"
Lisa.Bennett@tzinsurance.com,10/13/2017,"Enrollment date updated"
Liza.Perez@tzinsurance.com,10/13/2017,"Enrollment date updated"
liza.colson@tzinsurance.com,10/13/2017,"Enrollment date updated"
lonn.klapper@tzinsurance.com,10/13/2017,"Enrollment date updated"
lorella.rohrer@tzinsurance.com,10/13/2017,"Enrollment date updated"
loren.starnes@tzinsurance.com,10/13/2017,"Enrollment date updated"
lorraine.daramola@tzinsurance.com,10/13/2017,"Enrollment date updated"
lucien.hornbach@tzinsurance.com,10/13/2017,"Enrollment date updated"
luis.arpasi@cignium.com,10/13/2017,"Enrollment date updated"
luis.berrocal@cignium.com,10/13/2017,"Enrollment date updated"
luis.espinoza@cignium.com,10/13/2017,"Enrollment date updated"
luis.bombino@tzinsurance.com,10/13/2017,"Enrollment date updated"
Luis.Marmanillo@Cignium.com,10/13/2017,"Enrollment date updated"
Luis.Barzola@Cignium.com,10/13/2017,"Enrollment date updated"
luther.lewis@tzinsurance.com,10/13/2017,"Enrollment date updated"
luzclarivel.herrera@tzinsurance.com,10/13/2017,"Enrollment date updated"
lynn.dukette@tranzact.net,10/13/2017,"Enrollment date updated"
madison.griffiths@tzinsurance.com,10/13/2017,"Enrollment date updated"
Mahbub.Kamal@cignium.com,10/13/2017,"Enrollment date updated"
Mahendran.Rajasingham@Tranzact.net,10/13/2017,"Enrollment date updated"
maksym.mitin@cignium.com,10/13/2017,"Enrollment date updated"
malick.ead@tzinsurance.com,10/13/2017,"Enrollment date updated"
loucas.deberry@tzinsurance.com,10/13/2017,"Enrollment date updated"
mamta.pandya@cignium.com,10/13/2017,"Enrollment date updated"
manish.sharath@tranzact.net,10/13/2017,"Enrollment date updated"
manuel.sanchez@cignium.com,10/13/2017,"Enrollment date updated"
Marcus.Graham@tzinsurance.com,10/13/2017,"Enrollment date updated"
margaret.barie@cignium.com,10/13/2017,"Enrollment date updated"
margo.bair@tzinsurance.com,10/13/2017,"Enrollment date updated"
maria.villalobos@tranzact.net,10/13/2017,"Enrollment date updated"
maria.stewart@tranzact.net,10/13/2017,"Enrollment date updated"
Inez.Guzman@cignium.com,10/13/2017,"Enrollment date updated"
Maricle.Marshall@tzinsurance.com,10/13/2017,"Enrollment date updated"
marie.russell@tzinsurance.com,10/13/2017,"Enrollment date updated"
marilyn.lamelas@tzinsurance.com,10/13/2017,"Enrollment date updated"
mario.castillo@cignium.com,10/13/2017,"Enrollment date updated"
mario.rico@tranzact.net,10/13/2017,"Enrollment date updated"
Marissa.Williamson@tzinsurance.com,10/13/2017,"Enrollment date updated"
mstocker@tzinsurance.com,10/13/2017,"Enrollment date updated"
mark.hiney@tzinsurance.com,10/13/2017,"Enrollment date updated"
mark.robinson@tzinsurance.com,10/13/2017,"Enrollment date updated"
mark.tice@tzinsurance.com,10/13/2017,"Enrollment date updated"
mark.goodnight@tzinsurance.com,10/13/2017,"Enrollment date updated"
marlea.gwathney@tzinsurance.com,10/13/2017,"Enrollment date updated"
maroof.adnan@cignium.com,10/13/2017,"Enrollment date updated"
marques.mcnair@tzinsurance.com,10/13/2017,"Enrollment date updated"
marquita.drayton@tzinsurance.com,10/13/2017,"Enrollment date updated"
marrisha.trompeter@tzinsurance.com,10/13/2017,"Enrollment date updated"
marshal.vines@tzinsurance.com,10/13/2017,"Enrollment date updated"
mary.burden@tzinsurance.com,10/13/2017,"Enrollment date updated"
lynn.bass@cignium.com,10/13/2017,"Enrollment date updated"
rebekah.bumgardner@tzinsurance.com,10/13/2017,"Enrollment date updated"
koranna.spurgeon@tzinsurance.com,10/13/2017,"Enrollment date updated"
mashelle.barker@tzinsurance.com,10/13/2017,"Enrollment date updated"
Mataia.Ross@tzinsurance.com,10/13/2017,"Enrollment date updated"
matora.robinson@tzinsurance.com,10/13/2017,"Enrollment date updated"
matt.fosdick@tzinsurance.com,10/13/2017,"Enrollment date updated"
matthew.park@cignium.com,10/13/2017,"Enrollment date updated"
matt.clements@tranzact.net,10/13/2017,"Enrollment date updated"
matt.conlon@tzinsurance.com,10/13/2017,"Enrollment date updated"
matthew.barkie@tzinsurance.com,10/13/2017,"Enrollment date updated"
Matthew.Strickland@tzinsurance.com,10/13/2017,"Enrollment date updated"
mattie.brandal@tzinsurance.com,10/13/2017,"Enrollment date updated"
maxx.romba@tranzact.net,10/13/2017,"Enrollment date updated"
meagan.stilwell@tzinsurance.com,10/13/2017,"Enrollment date updated"
meghan.chambers@tzinsurance.com,10/13/2017,"Enrollment date updated"
meghan.robinson@tzinsurance.com,10/13/2017,"Enrollment date updated"
Melaysia.Knight@tzinsurance.com,10/13/2017,"Enrollment date updated"
melba.williams@tzinsurance.com,10/13/2017,"Enrollment date updated"
melinda.rogers@tzinsurance.com,10/13/2017,"Enrollment date updated"
melisa.barrios@cignium.com,10/13/2017,"Enrollment date updated"
melissa.brice@tzinsurance.com,10/13/2017,"Enrollment date updated"
melissa.victorin@tzinsurance.com,10/13/2017,"Enrollment date updated"
Melissa.Birmingham@tzinsurance.com,10/13/2017,"Enrollment date updated"
melissa.runions@tzinsurance.com,10/13/2017,"Enrollment date updated"
melody.clemmer@tzinsurance.com,10/13/2017,"Enrollment date updated"
melody.brown@tzinsurance.com,10/13/2017,"Enrollment date updated"
Mercedes.Straubel@tzinsurance.com,10/13/2017,"Enrollment date updated"
mercia.hill@tzinsurance.com,10/13/2017,"Enrollment date updated"
mia.seymore@tzinsurance.com,10/13/2017,"Enrollment date updated"
micah.drake@tzinsurance.com,10/13/2017,"Enrollment date updated"
michael.paich@tranzact.net,10/13/2017,"Enrollment date updated"
michael.john@tzinsurance.com,10/13/2017,"Enrollment date updated"
mike.mcgimpsey@tzinsurance.com,10/13/2017,"Enrollment date updated"
michael.maas@tzinsurance.com,10/13/2017,"Enrollment date updated"
Michael.Wolkonowski@tzinsurance.com,10/13/2017,"Enrollment date updated"
michael.quemp@tzinsurance.com,10/13/2017,"Enrollment date updated"
michael.alexander@tzinsurance.com,10/13/2017,"Enrollment date updated"
michael.doherty@tzinsurance.com,10/13/2017,"Enrollment date updated"
michael.fosdick@tzinsurance.com,10/13/2017,"Enrollment date updated"
michael.fulkerson@tzinsurance.com,10/13/2017,"Enrollment date updated"
michael.molligi@tranzact.net,10/13/2017,"Enrollment date updated"
michael.martling@tzinsurance.com,10/13/2017,"Enrollment date updated"
michael.montgomery@tzinsurance.com,10/13/2017,"Enrollment date updated"
michael.parsons@tzinsurance.com,10/13/2017,"Enrollment date updated"
mike.odom@cignium.com,10/13/2017,"Enrollment date updated"
michael.hopper@tzinsurance.com,10/13/2017,"Enrollment date updated"
mike.mayle@tzinsurance.com,10/13/2017,"Enrollment date updated"
Michael.Torchia@Tranzact.net,10/13/2017,"Enrollment date updated"
Michael.Miller@tzinsurance.com,10/13/2017,"Enrollment date updated"
michaela.allen@tzinsurance.com,10/13/2017,"Enrollment date updated"
michele.garcia@tranzact.net,10/13/2017,"Enrollment date updated"
Michele.Leasure@tzinsurance.com,10/13/2017,"Enrollment date updated"
michelle.hoover@tzinsurance.com,10/13/2017,"Enrollment date updated"
michelle.megown@tzinsurance.com,10/13/2017,"Enrollment date updated"
michelle.trujillo-calix@tranzact.net,10/13/2017,"Enrollment date updated"
michelle.may@tzinsurance.com,10/13/2017,"Enrollment date updated"
michelle.ridgeway@tzinsurance.com,10/13/2017,"Enrollment date updated"
michelle.twidwell@tzinsurance.com,10/13/2017,"Enrollment date updated"
mihir.parikh@cignium.com,10/13/2017,"Enrollment date updated"
mili.skikic@cignium.com,10/13/2017,"Enrollment date updated"
mindy.oberlin@tzinsurance.com,10/13/2017,"Enrollment date updated"
mitchell.ginzburg@tranzact.net,10/13/2017,"Enrollment date updated"
mona.wong@tzinsurance.com,10/13/2017,"Enrollment date updated"
monise.sineus@tzinsurance.com,10/13/2017,"Enrollment date updated"
morgan.osorio@cignium.com,10/13/2017,"Enrollment date updated"
morgan.millender@tzinsurance.com,10/13/2017,"Enrollment date updated"
myron.dace@tzinsurance.com,10/13/2017,"Enrollment date updated"
nallely.rivas@tzinsurance.com,10/13/2017,"Enrollment date updated"
nancy.masucci@tzinsurance.com,10/13/2017,"Enrollment date updated"
nancy.jennings@tzinsurance.com,10/13/2017,"Enrollment date updated"
Naren.Guntupalli@Tranzact.net,10/13/2017,"Enrollment date updated"
natalya.konopleva@cignium.com,10/13/2017,"Enrollment date updated"
natalya.sorokin@tranzact.net,10/13/2017,"Enrollment date updated"
natalya.antonova@cignium.com,10/13/2017,"Enrollment date updated"
natasha.smith@tzinsurance.com,10/13/2017,"Enrollment date updated"
nicholas.perillo@tzinsurance.com,10/13/2017,"Enrollment date updated"
nicholas.dangelo@tzinsurance.com,10/13/2017,"Enrollment date updated"
nichole.carter@tzinsurance.com,10/13/2017,"Enrollment date updated"
nick.weber@cignium.com,10/13/2017,"Enrollment date updated"
nicole.tynan@tzinsurance.com,10/13/2017,"Enrollment date updated"
nicole.booth@tzinsurance.com,10/13/2017,"Enrollment date updated"
nicole.bradley@tzinsurance.com,10/13/2017,"Enrollment date updated"
Nicole.Gates@tzinsurance.com,10/13/2017,"Enrollment date updated"
nina.toombs@tzinsurance.com,10/13/2017,"Enrollment date updated"
noel.duran@tzinsurance.com,10/13/2017,"Enrollment date updated"
norman.velarde@cignium.com,10/13/2017,"Enrollment date updated"
octavia.burch@tzinsurance.com,10/13/2017,"Enrollment date updated"
olexiy.romanov@cignium.com,10/13/2017,"Enrollment date updated"
olivia.lynch@tzinsurance.com,10/13/2017,"Enrollment date updated"
omar.perez@tzinsurance.com,10/13/2017,"Enrollment date updated"
omar.lewis@tzinsurance.com,10/13/2017,"Enrollment date updated"
omolade.kolawole@tzinsurance.com,10/13/2017,"Enrollment date updated"
oneykka.mcaffee@tzinsurance.com,10/13/2017,"Enrollment date updated"
ora.richards@tzinsurance.com,10/13/2017,"Enrollment date updated"
orlando.shropshire@tzinsurance.com,10/13/2017,"Enrollment date updated"
oscar.ramos@cignium.com,10/13/2017,"Enrollment date updated"
oscar.benitez@tzinsurance.com,10/13/2017,"Enrollment date updated"
oskar.crisostomo@cignium.com,10/13/2017,"Enrollment date updated"
paige.soltano@tranzact.net,10/13/2017,"Enrollment date updated"
Patrice.Shanks@tzinsurance.com,10/13/2017,"Enrollment date updated"
patricia.donaldson@tzinsurance.com,10/13/2017,"Enrollment date updated"
patricia.williams@tzinsurance.com,10/13/2017,"Enrollment date updated"
Patricia.Outing@tzinsurance.com,10/13/2017,"Enrollment date updated"
Patricia.Loukoumis@tzinsurance.com,10/13/2017,"Enrollment date updated"
patricia.doll@tzinsurance.com,10/13/2017,"Enrollment date updated"
patricia.mann@tzinsurance.com,10/13/2017,"Enrollment date updated"
patty.ledonne@cignium.com,10/13/2017,"Enrollment date updated"
patty.rufener@tzinsurance.com,10/13/2017,"Enrollment date updated"
paul.johnson@cignium.com,10/13/2017,"Enrollment date updated"
paul.diaz@cignium.com,10/13/2017,"Enrollment date updated"
paul.greenstein@tzinsurance.com,10/13/2017,"Enrollment date updated"
paul.kortz@tzinsurance.com,10/13/2017,"Enrollment date updated"
paula.sneed@tzinsurance.com,10/13/2017,"Enrollment date updated"
paula.stewart@tzinsurance.com,10/13/2017,"Enrollment date updated"
Paula.Baumgarten@tzinsurance.com,10/13/2017,"Enrollment date updated"
pawnee.holland@tzinsurance.com,10/13/2017,"Enrollment date updated"
Pedro.MendezChacon@cignium.com,10/13/2017,"Enrollment date updated"
peggy.jensen@tranzact.net,10/13/2017,"Enrollment date updated"
peter.nannas@tranzact.net,10/13/2017,"Enrollment date updated"
peter.grunstra@tzinsurance.com,10/13/2017,"Enrollment date updated"
philip.vanalmen@tzinsurance.com,10/13/2017,"Enrollment date updated"
pierre.houde@tzinsurance.com,10/13/2017,"Enrollment date updated"
pompeo.gatto@tzinsurance.com,10/13/2017,"Enrollment date updated"
pratik.patel@cignium.com,10/13/2017,"Enrollment date updated"
quinn.pompilus@tzinsurance.com,10/13/2017,"Enrollment date updated"
rachel.truhon@tranzact.net,10/13/2017,"Enrollment date updated"
rachel.zattosky@tranzact.net,10/13/2017,"Enrollment date updated"
rachel.mcdonald@tzinsurance.com,10/13/2017,"Enrollment date updated"
Rachel.Williams@tranzact.net,10/13/2017,"Enrollment date updated"
rachel.neely@tzinsurance.com,10/13/2017,"Enrollment date updated"
raisa.zeltser@tranzact.net,10/13/2017,"Enrollment date updated"
ramiro.herrera@tzinsurance.com,10/13/2017,"Enrollment date updated"
randall.thomas@tzinsurance.com,10/13/2017,"Enrollment date updated"
randy.shore@tzinsurance.com,10/13/2017,"Enrollment date updated"
randy.eilert@tzinsurance.com,10/13/2017,"Enrollment date updated"
randy.hall@tzinsurance.com,10/13/2017,"Enrollment date updated"
raoul.turner@tzinsurance.com,10/13/2017,"Enrollment date updated"
rashawn.brown@tzinsurance.com,10/13/2017,"Enrollment date updated"
raul.naupari@cignium.com,10/13/2017,"Enrollment date updated"
raul.grey@cignium.com,10/13/2017,"Enrollment date updated"
raven.reagon@tzinsurance.com,10/13/2017,"Enrollment date updated"
Rayelle.Robertson@tzinsurance.com,10/13/2017,"Enrollment date updated"
raymel.santiesteban@tzinsurance.com,10/13/2017,"Enrollment date updated"
rebecca.davis@tranzact.net,10/13/2017,"Enrollment date updated"
rebecca.dickerson@tzinsurance.com,10/13/2017,"Enrollment date updated"
rebekah.coleman@tranzact.net,10/13/2017,"Enrollment date updated"
Reed.Adelsperger@tzinsurance.com,10/13/2017,"Enrollment date updated"
regina.whittenburg@tzinsurance.com,10/13/2017,"Enrollment date updated"
regina.clark@tzinsurance.com,10/13/2017,"Enrollment date updated"
rene.norsworthy@tranzact.net,10/13/2017,"Enrollment date updated"
Rene@Cignium.com,10/13/2017,"Enrollment date updated"
renzo.robles@cignium.com,10/13/2017,"Enrollment date updated"
Renzo.Marchena@cignium.com,10/13/2017,"Enrollment date updated"
rhea.doblar@tzinsurance.com,10/13/2017,"Enrollment date updated"
rhonda.davis@tzinsurance.com,10/13/2017,"Enrollment date updated"
rhonda.jackson@tzinsurance.com,10/13/2017,"Enrollment date updated"
Rhonda.Kozlowski@tzinsurance.com,10/13/2017,"Enrollment date updated"
rich.akin@tzinsurance.com,10/13/2017,"Enrollment date updated"
richard.bravo@tzinsurance.com,10/13/2017,"Enrollment date updated"
richard.hunter@tzinsurance.com,10/13/2017,"Enrollment date updated"
rpapay@tzinsurance.com,10/13/2017,"Enrollment date updated"
robert.weil@tranzact.net,10/13/2017,"Enrollment date updated"
robert.allen@tzinsurance.com,10/13/2017,"Enrollment date updated"
robert.rakes@tzinsurance.com,10/13/2017,"Enrollment date updated"
robert.doerr@tzinsurance.com,10/13/2017,"Enrollment date updated"
robert.butler@tzinsurance.com,10/13/2017,"Enrollment date updated"
robert.mccarter@tzinsurance.com,10/13/2017,"Enrollment date updated"
robert.chatham@tzinsurance.com,10/13/2017,"Enrollment date updated"
robert.wilson@tzinsurance.com,10/13/2017,"Enrollment date updated"
rob.schreiner@cignium.com,10/13/2017,"Enrollment date updated"
Robert.Taylor@tzinsurance.com,10/13/2017,"Enrollment date updated"
Robert.Monte@tzinsurance.com,10/13/2017,"Enrollment date updated"
roberta.legg@tzinsurance.com,10/13/2017,"Enrollment date updated"
roberto.honores@cignium.com,10/13/2017,"Enrollment date updated"
robin.brand@tzinsurance.com,10/13/2017,"Enrollment date updated"
robin.lepak@tzinsurance.com,10/13/2017,"Enrollment date updated"
Robin.Nicholls@tzinsurance.com,10/13/2017,"Enrollment date updated"
robyn.caster@tranzact.net,10/13/2017,"Enrollment date updated"
roman.pearah@tranzact.net,10/13/2017,"Enrollment date updated"
romina.chahar@cignium.com,10/13/2017,"Enrollment date updated"
rommie.swade@tzinsurance.com,10/13/2017,"Enrollment date updated"
ronald.ameri@cignium.com,10/13/2017,"Enrollment date updated"
ronald.marrou@cignium.com,10/13/2017,"Enrollment date updated"
ron.murrey@tzinsurance.com,10/13/2017,"Enrollment date updated"
ron.wells@cignium.com,10/13/2017,"Enrollment date updated"
ronald.williams@tzinsurance.com,10/13/2017,"Enrollment date updated"
Roopa.Puli@cignium.com,10/13/2017,"Enrollment date updated"
roosevelt.lynch@tzinsurance.com,10/13/2017,"Enrollment date updated"
elizabeth.katzman@tranzact.net,10/13/2017,"Enrollment date updated"
rosa.singleton@tzinsurance.com,10/13/2017,"Enrollment date updated"
Rosanna.Barrientos@tzinsurance.com,10/13/2017,"Enrollment date updated"
roxanne.landry@tzinsurance.com,10/13/2017,"Enrollment date updated"
roy.delgado@cignium.com,10/13/2017,"Enrollment date updated"
ruben.ryan@tzinsurance.com,10/13/2017,"Enrollment date updated"
ruth.euell@tzinsurance.com,10/13/2017,"Enrollment date updated"
ryan.mcquillan@tzinsurance.com,10/13/2017,"Enrollment date updated"
ryan.carlson@tzinsurance.com,10/13/2017,"Enrollment date updated"
ryan.sanford@tranzact.net,10/13/2017,"Enrollment date updated"
ryan.simmerman@tzinsurance.com,10/13/2017,"Enrollment date updated"
ryan.kelly@cignium.com,10/13/2017,"Enrollment date updated"
ryan.thompson@tzinsurance.com,10/13/2017,"Enrollment date updated"
ryan.shevin@tranzact.net,10/13/2017,"Enrollment date updated"
rytorin.gary@tzinsurance.com,10/13/2017,"Enrollment date updated"
Saila.Kath@tranzact.net,10/13/2017,"Enrollment date updated"
Sajjad.Ahmed@cignium.com,10/13/2017,"Enrollment date updated"
sakoria.osborne@tzinsurance.com,10/13/2017,"Enrollment date updated"
sally.aarons@tzinsurance.com,10/13/2017,"Enrollment date updated"
samantha.rodriguez@tzinsurance.com,10/13/2017,"Enrollment date updated"
samantha.terrell@tzinsurance.com,10/13/2017,"Enrollment date updated"
samantha.kaufman@tranzact.net,10/13/2017,"Enrollment date updated"
sandra.harris@tzinsurance.com,10/13/2017,"Enrollment date updated"
sandra.merritt@tzinsurance.com,10/13/2017,"Enrollment date updated"
sandra.abraham@tzinsurance.com,10/13/2017,"Enrollment date updated"
sandy.segura@cignium.com,10/13/2017,"Enrollment date updated"
sanjeev.rangaiah@cignium.com,10/13/2017,"Enrollment date updated"
santiago.talavera@cignium.com,10/13/2017,"Enrollment date updated"
sarah.lawes@tzinsurance.com,10/13/2017,"Enrollment date updated"
sarah.burns@tzinsurance.com,10/13/2017,"Enrollment date updated"
sarah.smith@tzinsurance.com,10/13/2017,"Enrollment date updated"
Sariann.Funderburk@tzinsurance.com,10/13/2017,"Enrollment date updated"
sateia.watson@tzinsurance.com,10/13/2017,"Enrollment date updated"
saulo.tsuchida@cignium.com,10/13/2017,"Enrollment date updated"
scharly.ochoa@cignium.com,10/13/2017,"Enrollment date updated"
scot.ruddock@tzinsurance.com,10/13/2017,"Enrollment date updated"
scott.schneider@cignium.com,10/13/2017,"Enrollment date updated"
scott.parente@tranzact.net,10/13/2017,"Enrollment date updated"
scott.stamm@tzinsurance.com,10/13/2017,"Enrollment date updated"
sean.akers@tzinsurance.com,10/13/2017,"Enrollment date updated"
serena.pratt@tzinsurance.com,10/13/2017,"Enrollment date updated"
serra.kerrigan@tzinsurance.com,10/13/2017,"Enrollment date updated"
seth.johnson@tzinsurance.com,10/13/2017,"Enrollment date updated"
Seth.Lytton@Tranzact.net,10/13/2017,"Enrollment date updated"
shalleen.melland@tzinsurance.com,10/13/2017,"Enrollment date updated"
shamara.sledge@tzinsurance.com,10/13/2017,"Enrollment date updated"
Shanice.Hyde-Ballen@tzinsurance.com,10/13/2017,"Enrollment date updated"
shannon.koch@tzinsurance.com,10/13/2017,"Enrollment date updated"
Shannon.Davis@tzinsurance.com,10/13/2017,"Enrollment date updated"
shardae.ruffin@tzinsurance.com,10/13/2017,"Enrollment date updated"
shari.rose@tzinsurance.com,10/13/2017,"Enrollment date updated"
sharon.horn@tzinsurance.com,10/13/2017,"Enrollment date updated"
Sharon.Drnek@tzinsurance.com,10/13/2017,"Enrollment date updated"
shawn.waite@tzinsurance.com,10/13/2017,"Enrollment date updated"
Shawna.Lilly@tzinsurance.com,10/13/2017,"Enrollment date updated"
shefali.chaurasia@cignium.com,10/13/2017,"Enrollment date updated"
shelia.lewis@tzinsurance.com,10/13/2017,"Enrollment date updated"
sheri.myrick@tzinsurance.com,10/13/2017,"Enrollment date updated"
sherri.mack@tzinsurance.com,10/13/2017,"Enrollment date updated"
sherry.dandison@tzinsurance.com,10/13/2017,"Enrollment date updated"
sherry.schmidt@tzinsurance.com,10/13/2017,"Enrollment date updated"
sheryl.beneduce@tzinsurance.com,10/13/2017,"Enrollment date updated"
shirley.vargo@tzinsurance.com,10/13/2017,"Enrollment date updated"
Shonda.Lafavore@tzinsurance.com,10/13/2017,"Enrollment date updated"
Shonee.Ferguson@tzinsurance.com,10/13/2017,"Enrollment date updated"
shurdell.wright@tzinsurance.com,10/13/2017,"Enrollment date updated"
Sierra.Brown@tzinsurance.com,10/13/2017,"Enrollment date updated"
sierra.brown@cigna-insurance.com,10/13/2017,"Enrollment date updated"
siobhan.householder@tzinsurance.com,10/13/2017,"Enrollment date updated"
Sofia.Tejada@Cignium.com,10/13/2017,"Enrollment date updated"
spencer.humphrey@tzinsurance.com,10/13/2017,"Enrollment date updated"
Sreepathy.Nagarajan@cignium.com,10/13/2017,"Enrollment date updated"
stacey.lechner@tranzact.net,10/13/2017,"Enrollment date updated"
stacy.harper@tzinsurance.com,10/13/2017,"Enrollment date updated"
stephanie.byers@tzinsurance.com,10/13/2017,"Enrollment date updated"
stephanie.naylor@tzinsurance.com,10/13/2017,"Enrollment date updated"
stephanie.nelson@tzinsurance.com,10/13/2017,"Enrollment date updated"
stephanie.solis@tzinsurance.com,10/13/2017,"Enrollment date updated"
Stephanie.Bogue@Tranzact.net,10/13/2017,"Enrollment date updated"
stephen.barnes@tzinsurance.com,10/13/2017,"Enrollment date updated"
steve.rankin@tzinsurance.com,10/13/2017,"Enrollment date updated"
steve.dexter@tranzact.net,10/13/2017,"Enrollment date updated"
steven.schulman@tranzact.net,10/13/2017,"Enrollment date updated"
steven.john@tzinsurance.com,10/13/2017,"Enrollment date updated"
sstout@trubridgeinc.com,10/13/2017,"Enrollment date updated"
steve.hardy@tzinsurance.com,10/13/2017,"Enrollment date updated"
Steven.Levy@tzinsurance.com,10/13/2017,"Enrollment date updated"
steven.norris@tzinsurance.com,10/13/2017,"Enrollment date updated"
sumeet.manchanda@cignium.com,10/13/2017,"Enrollment date updated"
susan.alessi@tzinsurance.com,10/13/2017,"Enrollment date updated"
suzanne.walden@tzinsurance.com,10/13/2017,"Enrollment date updated"
suzanne.lewis@tzinsurance.com,10/13/2017,"Enrollment date updated"
Syed.Sajjad@cignium.com,10/13/2017,"Enrollment date updated"
sylvia.swaby@tzinsurance.com,10/13/2017,"Enrollment date updated"
tamyra.stevens@tzinsurance.com,10/13/2017,"Enrollment date updated"
tammy.carrico@tzinsurance.com,10/13/2017,"Enrollment date updated"
tanya.burney@tzinsurance.com,10/13/2017,"Enrollment date updated"
tanya.stout@tzinsurance.com,10/13/2017,"Enrollment date updated"
tara.davis@tzinsurance.com,10/13/2017,"Enrollment date updated"
tatsiana.pisarenka@tranzact.net,10/13/2017,"Enrollment date updated"
taurean.watkins@tzinsurance.com,10/13/2017,"Enrollment date updated"
taylor.hobbs@tzinsurance.com,10/13/2017,"Enrollment date updated"
taylor.funk@tzinsurance.com,10/13/2017,"Enrollment date updated"
teresa.lioce@tzinsurance.com,10/13/2017,"Enrollment date updated"
Terrance.Smith@tzinsurance.com,10/13/2017,"Enrollment date updated"
terrance.brady@tzinsurance.com,10/13/2017,"Enrollment date updated"
Terrence.Rodway@tzinsurance.com,10/13/2017,"Enrollment date updated"
terry.zornes@tzinsurance.com,10/13/2017,"Enrollment date updated"
tessa.feit@tzinsurance.com,10/13/2017,"Enrollment date updated"
theresa.ruhl@tzinsurance.com,10/13/2017,"Enrollment date updated"
Thomas.Lange@tzinsurance.com,10/13/2017,"Enrollment date updated"
thomas.jones@tzinsurance.com,10/13/2017,"Enrollment date updated"
thomas.hunt@tzinsurance.com,10/13/2017,"Enrollment date updated"
thomas.lange@cignium.com,10/13/2017,"Enrollment date updated"
Thomas.Koerper@tzinsurance.com,10/13/2017,"Enrollment date updated"
tianna.peoples@tzinsurance.com,10/13/2017,"Enrollment date updated"
tiffany.hol@tzinsurance.com,10/13/2017,"Enrollment date updated"
tiffany.huff@tranzact.net,10/13/2017,"Enrollment date updated"
tiffene.magazine@tzinsurance.com,10/13/2017,"Enrollment date updated"
tim.lairson@tranzact.net,10/13/2017,"Enrollment date updated"
thim.hatcher@tzinsurance.com,10/13/2017,"Enrollment date updated"
Tina.Jannelli@tzinsurance.com,10/13/2017,"Enrollment date updated"
todd.alexander@tranzact.net,10/13/2017,"Enrollment date updated"
tomas.lazo@cignium.com,10/13/2017,"Enrollment date updated"
Tonya.Hudson@tzinsurance.com,10/13/2017,"Enrollment date updated"
tracey.leary@tzinsurance.com,10/13/2017,"Enrollment date updated"
tracey.smith@tzinsurance.com,10/13/2017,"Enrollment date updated"
tracy.mattison@tzinsurance.com,10/13/2017,"Enrollment date updated"
TRANZACT_MANAGER,10/13/2017,"Enrollment date updated"
Travis.Jones@tzinsurance.com,10/13/2017,"Enrollment date updated"
trina.syner@tzinsurance.com,10/13/2017,"Enrollment date updated"
tristan.davis@tzinsurance.com,10/13/2017,"Enrollment date updated"
troy.dunner@tzinsurance.com,10/13/2017,"Enrollment date updated"
sewnarine.sharma@tzinsurance.com,10/13/2017,"Enrollment date updated"
valerie.miller@tzinsurance.com,10/13/2017,"Enrollment date updated"
valerie.johnson@tzinsurance.com,10/13/2017,"Enrollment date updated"
vanessa.banner@tzinsurance.com,10/13/2017,"Enrollment date updated"
vanessa.jackson@tzinsurance.com,10/13/2017,"Enrollment date updated"
vanteena.scott@tzinsurance.com,10/13/2017,"Enrollment date updated"
vasthi.whitely@tzinsurance.com,10/13/2017,"Enrollment date updated"
Vickie.Hill@tzinsurance.com,10/13/2017,"Enrollment date updated"
victoria.loukoumis@tzinsurance.com,10/13/2017,"Enrollment date updated"
victoria.underdue@tzinsurance.com,10/13/2017,"Enrollment date updated"
victoria.neal@tzinsurance.com,10/13/2017,"Enrollment date updated"
vincent.haskell@tzinsurance.com,10/13/2017,"Enrollment date updated"
walter.perez@tzinsurance.com,10/13/2017,"Enrollment date updated"
wendy.miller@tzinsurance.com,10/13/2017,"Enrollment date updated"
Wendy.Cannella@tzinsurance.com,10/13/2017,"Enrollment date updated"
Wendy.Ibarra@cignium.com,10/13/2017,"Enrollment date updated"
whitely.murphy@tzinsurance.com,10/13/2017,"Enrollment date updated"
whitley.murphy@tzinsurance.com,10/13/2017,"Enrollment date updated"
wilberto.benitez@tranzact.net,10/13/2017,"Enrollment date updated"
william.luna@cignium.com,10/13/2017,"Enrollment date updated"
william.shockley@tzinsurance.com,10/13/2017,"Enrollment date updated"
william.player@tzinsurance.com,10/13/2017,"Enrollment date updated"
william.allen@tzinsurance.com,10/13/2017,"Enrollment date updated"
william.gray@tzinsurance.com,10/13/2017,"Enrollment date updated"
wilmer.delaguila@cignium.com,10/13/2017,"Enrollment date updated"
winsome.jackson@tzinsurance.com,10/13/2017,"Enrollment date updated"
Yaima.Torres@tzinsurance.com,10/13/2017,"Enrollment date updated"
Yiseli.Sairitupa@cignium.com,10/13/2017,"Enrollment date updated"
yuri.kaminsky@cignium.com,10/13/2017,"Enrollment date updated"
zach.clayton@tranzact.net,10/13/2017,"Enrollment date updated"
zuhaib.hasan@cignium.com,10/13/2017,"Enrollment date updated"
