Username*,"Enrollment End Date(MM/DD/YYYY)",Status
Ajmal.Talukder@cignium.com,10/21/2017,"Enrollment date updated"
akeva.mckeaver@tzinsurance.com,10/21/2017,"Enrollment date updated"
Alexis.Marteli@cigna-insurance.com,10/21/2017,"Enrollment date updated"
Alicia.Butler@cigna-insurance.com,10/21/2017,"Enrollment date updated"
Alinda.Mitchell@tzinsurance.com,10/21/2017,"Enrollment date updated"
Amanda.Martin@tzinsurance.com,10/21/2017,"Enrollment date updated"
amber.majewski@tzinsurance.com,10/21/2017,"Enrollment date updated"
Amy.Ariano@tranzact.net,10/21/2017,"Enrollment date updated"
Andy.Nelson@tranzact.net,10/21/2017,"Enrollment date updated"
Andromada.Deberry@tzinsurance.com,10/21/2017,"Enrollment date updated"
Andy.Heymann@tranzact.net,10/21/2017,"Enrollment date updated"
angela.pearson@tzinsurance.com,10/21/2017,"Enrollment date updated"
ann.bryson@tzinsurance.com,10/21/2017,"Enrollment date updated"
Anna.Sitkowska@cigna-insurance.com,10/21/2017,"Enrollment date updated"
anntwanette.riley@tzinsurance.com,10/21/2017,"Enrollment date updated"
Anthony.DeMaria@tzinsurance.com,10/21/2017,"Enrollment date updated"
tony.yezza@cignium.com,10/21/2017,"Enrollment date updated"
Arya.Sourav@Cignium.com,10/21/2017,"Enrollment date updated"
Ashanti.Gordon@cigna-insurance.com,10/21/2017,"Enrollment date updated"
Ashley.Kaleta@tzinsurance.com,10/21/2017,"Enrollment date updated"
ashley.mckinney@tzinsurance.com,10/21/2017,"Enrollment date updated"
Ashley.Moore@tzinsurance.com,10/21/2017,"Enrollment date updated"
Axel.Wassington@Cignium.com,10/21/2017,"Enrollment date updated"
Barbara.Brennan@tzinsurance.com,10/21/2017,"Enrollment date updated"
Bathsheba.Stewart@cigna-insurance.com,10/21/2017,"Enrollment date updated"
Becky.Jackson@tzinsurance.com,10/21/2017,"Enrollment date updated"
Ben.Ferch@cignium.com,10/21/2017,"Enrollment date updated"
Ben.Carson@tranzact.net,10/21/2017,"Enrollment date updated"
bernard.thomas@tzinsurance.com,10/21/2017,"Enrollment date updated"
Blaire.Johnson@tzinsurance.com,10/21/2017,"Enrollment date updated"
Boris.Donsky@tranzact.net,10/21/2017,"Enrollment date updated"
brandon.allison@tzinsurance.com,10/21/2017,"Enrollment date updated"
bwackerly@trubridgeinc.com,10/21/2017,"Enrollment date updated"
Brian.Axberg@tzinsurance.com,10/21/2017,"Enrollment date updated"
Brian.Cassista@cigna-insurance.com,10/21/2017,"Enrollment date updated"
brian.kasday@tranzact.net,10/21/2017,"Enrollment date updated"
Brian.Lusk@tranzact.net,10/21/2017,"Enrollment date updated"
Brittney.Robinson@tzinsurance.com,10/21/2017,"Enrollment date updated"
Bryan.Allen@Tranzact.net,10/21/2017,"Enrollment date updated"
candice.washington@tzinsurance.com,10/21/2017,"Enrollment date updated"
CarinJoy.Bonetti@tzinsurance.com,10/21/2017,"Enrollment date updated"
Carla.Hendrix@tzinsurance.com,10/21/2017,"Enrollment date updated"
carlos.pesantes@cignium.com,10/21/2017,"Enrollment date updated"
Carmen.Valdez@Cignium.com,10/21/2017,"Enrollment date updated"
Carolyn.Kelly@tzinsurance.com,10/21/2017,"Enrollment date updated"
Cecilia.House@tzinsurance.com,10/21/2017,"Enrollment date updated"
cesar.vanderpool@tzinsurance.com,10/21/2017,"Enrollment date updated"
Chuck.Horner@tzinsurance.com,10/21/2017,"Enrollment date updated"
Mike.Jerles@tzinsurance.com,10/21/2017,"Enrollment date updated"
Charlotte.Lanier@tzinsurance.com,10/21/2017,"Enrollment date updated"
Chauncey.Smith@tzinsurance.com,10/21/2017,"Enrollment date updated"
chelsa.wesley@tzinsurance.com,10/21/2017,"Enrollment date updated"
chris.collins@tzinsurance.com,10/21/2017,"Enrollment date updated"
Christian.Day@tzinsurance.com,10/21/2017,"Enrollment date updated"
Christina.Stewart@tzinsurance.com,10/21/2017,"Enrollment date updated"
christopher.ferreris@tzinsurance.com,10/21/2017,"Enrollment date updated"
Christopher.Griffith@cigna-insurance.com,10/21/2017,"Enrollment date updated"
Christopher.McMichael@tzinsurance.com,10/21/2017,"Enrollment date updated"
christopher.pizzedaz@tranzact.net,10/21/2017,"Enrollment date updated"
Christopher.Russo@cigna-insurance.com,10/21/2017,"Enrollment date updated"
Clair.Waucaush@tzinsurance.com,10/21/2017,"Enrollment date updated"
Corinthia.Miller@tzinsurance.com,10/21/2017,"Enrollment date updated"
Cornell.Agent@tzinsurance.com,10/21/2017,"Enrollment date updated"
Corrinn.Diefenderfer@tzinsurance.com,10/21/2017,"Enrollment date updated"
Courtney.Miner@tzinsurance.com,10/21/2017,"Enrollment date updated"
Crystal.Tanner@tzinsurance.com,10/21/2017,"Enrollment date updated"
Crystal.Wade@tzinsurance.com,10/21/2017,"Enrollment date updated"
Cynthia.Cornejo@cignium.com,10/21/2017,"Enrollment date updated"
Dale.Clark@tzinsurance.com,10/21/2017,"Enrollment date updated"
Damonte.Greene@cigna-insurance.com,10/21/2017,"Enrollment date updated"
Dana.Blackmon@tzinsurance.com,10/21/2017,"Enrollment date updated"
Daniel.Pascazio@tzinsurance.com,10/21/2017,"Enrollment date updated"
Daniel.Perez@cignium.com,10/21/2017,"Enrollment date updated"
Danielle.Amidon@tzinsurance.com,10/21/2017,"Enrollment date updated"
Danielle.Wilson@tzinsurance.com,10/21/2017,"Enrollment date updated"
Danny.Williams@tzinsurance.com,10/21/2017,"Enrollment date updated"
Dante.Peralta@cignium.com,10/21/2017,"Enrollment date updated"
Darilis.Zambrana@cigna-insurance.com,10/21/2017,"Enrollment date updated"
Dave.Kumia@cignium.com,10/21/2017,"Enrollment date updated"
David.Graf@tranzact.net,10/21/2017,"Enrollment date updated"
David.Hare@tranzact.net,10/21/2017,"Enrollment date updated"
David.Morales@tzinsurance.com,10/21/2017,"Enrollment date updated"
David.Volkert@tzinsurance.com,10/21/2017,"Enrollment date updated"
David.Young@tzinsurance.com,10/21/2017,"Enrollment date updated"
Debbie.Rossiter@cigna-insurance.com,10/21/2017,"Enrollment date updated"
Deborah.Glasser@tranzact.net,10/21/2017,"Enrollment date updated"
Deborah.Herbert@tzinsurance.com,10/21/2017,"Enrollment date updated"
Degan.Purvis@tzinsurance.com,10/21/2017,"Enrollment date updated"
Demi.Leonard@cigna-insurance.com,10/21/2017,"Enrollment date updated"
Denys.Ivanov@cignium.com,10/21/2017,"Enrollment date updated"
Donna.Bartley@tzinsurance.com,10/21/2017,"Enrollment date updated"
Donna.Jackson@cigna-insurance.com,10/21/2017,"Enrollment date updated"
Doris.Moseley@tzinsurance.com,10/21/2017,"Enrollment date updated"
Ebony.Stewart@tzinsurance.com,10/21/2017,"Enrollment date updated"
Eduardo.Mora@tzinsurance.com,10/21/2017,"Enrollment date updated"
Edward.Bobbitt@tzinsurance.com,10/21/2017,"Enrollment date updated"
Edwin.Rojas@cignium.com,10/21/2017,"Enrollment date updated"
Eileen.Dillon@cigna-insurance.com,10/21/2017,"Enrollment date updated"
Emanuel.Roker@tzinsurance.com,10/21/2017,"Enrollment date updated"
etremmel@tzinsurance.com,10/21/2017,"Enrollment date updated"
Emma.Player@tzinsurance.com,10/21/2017,"Enrollment date updated"
emmanuel.fellouzis@tzinsurance.com,10/21/2017,"Enrollment date updated"
Erica.Powers@Tranzact.net,10/21/2017,"Enrollment date updated"
Erin.Corbett@tzinsurance.com,10/21/2017,"Enrollment date updated"
Eunide.Pierre@tzinsurance.com,10/21/2017,"Enrollment date updated"
Evelyn.Morrison@tzinsurance.com,10/21/2017,"Enrollment date updated"
Flavio.Florentini@cignium.com,10/21/2017,"Enrollment date updated"
Frank.Molina@tzinsurance.com,10/21/2017,"Enrollment date updated"
Frank.Licitra@tzinsurance.com,10/21/2017,"Enrollment date updated"
fgoldin@tzinsurance.com,10/21/2017,"Enrollment date updated"
Fritz.Maxi@tzinsurance.com,10/21/2017,"Enrollment date updated"
gary.henschel@tzinsurance.com,10/21/2017,"Enrollment date updated"
Gerard.Kachor@tzinsurance.com,10/21/2017,"Enrollment date updated"
Giancarlo.Meza@cignium.com,10/21/2017,"Enrollment date updated"
Gianella.Hernandez@Cignium.com,10/21/2017,"Enrollment date updated"
Gina.Diaz@tzinsurance.com,10/21/2017,"Enrollment date updated"
Gunn.McCoy@tzinsurance.com,10/21/2017,"Enrollment date updated"
Gopi.Palamadai@Tranzact.net,10/21/2017,"Enrollment date updated"
Greg.Smucker@tranzact.net,10/21/2017,"Enrollment date updated"
Guillermo.Azurdia@cignium.com,10/21/2017,"Enrollment date updated"
Gwendolyn.Hensley@tzinsurance.com,10/21/2017,"Enrollment date updated"
Harless.Stover@tzinsurance.com,10/21/2017,"Enrollment date updated"
Hector.Fernandez@tzinsurance.com,10/21/2017,"Enrollment date updated"
Hector.Torres@tranzact.net,10/21/2017,"Enrollment date updated"
Irfan.Munshi@cignium.com,10/21/2017,"Enrollment date updated"
Ishtiaq.Mustafa@cignium.com,10/21/2017,"Enrollment date updated"
Jackie.Gasparini@tzinsurance.com,10/21/2017,"Enrollment date updated"
Jacqueline.Nelson@tzinsurance.com,10/21/2017,"Enrollment date updated"
jacquie.greathouse@tzinsurance.com,10/21/2017,"Enrollment date updated"
Jake.Robinson@tranzact.net,10/21/2017,"Enrollment date updated"
Jalisa.Jackson@tzinsurance.com,10/21/2017,"Enrollment date updated"
James.Cordero@tzinsurance.com,10/21/2017,"Enrollment date updated"
James.fernandez@tzinsurance.com,10/21/2017,"Enrollment date updated"
James.Palmer@tranzact.net,10/21/2017,"Enrollment date updated"
James.Taylor@tzinsurance.com,10/21/2017,"Enrollment date updated"
Jamie.Knatz@tzinsurance.com,10/21/2017,"Enrollment date updated"
Janeece.Jones@tzinsurance.com,10/21/2017,"Enrollment date updated"
Janet.Rivera@tzinsurance.com,10/21/2017,"Enrollment date updated"
Jason.Amaral@tranzact.net,10/21/2017,"Enrollment date updated"
Jason.Everist@tzinsurance.com,10/21/2017,"Enrollment date updated"
Javier.Bringas@tzinsurance.com,10/21/2017,"Enrollment date updated"
Jay.Pierce@tzinsurance.com,10/21/2017,"Enrollment date updated"
Jaymee.Mason@tzinsurance.com,10/21/2017,"Enrollment date updated"
Jeff.Miller@tzinsurance.com,10/21/2017,"Enrollment date updated"
jeffery.miller@tzinsurance.com,10/21/2017,"Enrollment date updated"
Jeffrey.Lemcke@tzinsurance.com,10/21/2017,"Enrollment date updated"
Jeffrey.Storm@tranzact.net,10/21/2017,"Enrollment date updated"
jenelle.ferguson@tzinsurance.com,10/21/2017,"Enrollment date updated"
Jennie.Rodriguez@Tranzact.net,10/21/2017,"Enrollment date updated"
Jennifer.Harbert@tranzact.net,10/21/2017,"Enrollment date updated"
jennifer.mears@tzinsurance.com,10/21/2017,"Enrollment date updated"
Jeriz.Markham@tzinsurance.com,10/21/2017,"Enrollment date updated"
Jesus.Garcia@tzinsurance.com,10/21/2017,"Enrollment date updated"
Jesus.Rodriguez@cignium.com,10/21/2017,"Enrollment date updated"
Joel.Calabrese@tzinsurance.com,10/21/2017,"Enrollment date updated"
Joel.Reyes@cigna-insurance.com,10/21/2017,"Enrollment date updated"
John.Bosi@tranzact.net,10/21/2017,"Enrollment date updated"
John.Hyland@tzinsurance.com,10/21/2017,"Enrollment date updated"
john.jordan@tzinsurance.com,10/21/2017,"Enrollment date updated"
John.Reynolds@Tranzact.net,10/21/2017,"Enrollment date updated"
Jonathan.Roberts@tzinsurance.com,10/21/2017,"Enrollment date updated"
Jonita.Floyd@Cignium.com,10/21/2017,"Enrollment date updated"
Jorge.Riva@Cignium.com,10/21/2017,"Enrollment date updated"
jose.delacruz@tzinsurance.com,10/21/2017,"Enrollment date updated"
Jose.Garcia@tzinsurance.com,10/21/2017,"Enrollment date updated"
joe.grosko@tranzact.net,10/21/2017,"Enrollment date updated"
Joseph.Robinson@Tranzact.net,10/21/2017,"Enrollment date updated"
joe.wheeler@tranzact.net,10/21/2017,"Enrollment date updated"
joe.grosko@tzinsurance.com,10/21/2017,"Enrollment date updated"
Juan.Alvarez@cignium.com,10/21/2017,"Enrollment date updated"
Juan.Elias@tzinsurance.com,10/21/2017,"Enrollment date updated"
JuanJose.Fuchs@cignium.com,10/21/2017,"Enrollment date updated"
Juan.Peralta@cignium.com,10/21/2017,"Enrollment date updated"
Juan.Sosa@cignium.com,10/21/2017,"Enrollment date updated"
jubilee.bales@tzinsurance.com,10/21/2017,"Enrollment date updated"
Judeen.Sutherland@tzinsurance.com,10/21/2017,"Enrollment date updated"
Judy.Day@tzinsurance.com,10/21/2017,"Enrollment date updated"
justin.adsit@tranzact.net,10/21/2017,"Enrollment date updated"
Kalyan.Prime@cigna-insurance.com,10/21/2017,"Enrollment date updated"
Karen.Goytizolo@cignium.com,10/21/2017,"Enrollment date updated"
Kartik.Shrivastava@Tranzact.net,10/21/2017,"Enrollment date updated"
katelyn.haren@tzinsurance.com,10/21/2017,"Enrollment date updated"
Kat.Stehno@tranzact.net,10/21/2017,"Enrollment date updated"
Katherine.Stewart@tzinsurance.com,10/21/2017,"Enrollment date updated"
kathleen.franks@tzinsurance.com,10/21/2017,"Enrollment date updated"
Katia.Meneses@cignium.com,10/21/2017,"Enrollment date updated"
Katya.Flores@cignium.com,10/21/2017,"Enrollment date updated"
kaylie.pettis@tzinsurance.com,10/21/2017,"Enrollment date updated"
keith.ayars@tzinsurance.com,10/21/2017,"Enrollment date updated"
kellyclark@tzinsurance.com,10/21/2017,"Enrollment date updated"
Ken.Bickers@tzinsurance.com,10/21/2017,"Enrollment date updated"
Kenneth.McLaughlin@tzinsurance.com,10/21/2017,"Enrollment date updated"
Ken.Suarez@cigna-insurance.com,10/21/2017,"Enrollment date updated"
Keona.Thomas@tzinsurance.com,10/21/2017,"Enrollment date updated"
Kevin.Rivas@tzinsurance.com,10/21/2017,"Enrollment date updated"
Kevin.Waldman@cignium.com,10/21/2017,"Enrollment date updated"
Khadijia.Ervin@tzinsurance.com,10/21/2017,"Enrollment date updated"
Kirsten.Mullin@tzinsurance.com,10/21/2017,"Enrollment date updated"
Kristen.Reineke@tranzact.net,10/21/2017,"Enrollment date updated"
Kristina.Payton@tzinsurance.com,10/21/2017,"Enrollment date updated"
Laquarra.Audrey@tzinsurance.com,10/21/2017,"Enrollment date updated"
Laquecia.Dublin@tzinsurance.com,10/21/2017,"Enrollment date updated"
laren.burick@tzinsurance.com,10/21/2017,"Enrollment date updated"
Laura.Birmingham@tzinsurance.com,10/21/2017,"Enrollment date updated"
Laura.Jimenez@cignium.com,10/21/2017,"Enrollment date updated"
Laura.Meyer@tzinsurance.com,10/21/2017,"Enrollment date updated"
lauretha.price@tzinsurance.com,10/21/2017,"Enrollment date updated"
Linda.Ghalieh@tzinsurance.com,10/21/2017,"Enrollment date updated"
Lindsey.Gardner@tzinsurance.com,10/21/2017,"Enrollment date updated"
lindsie.smith@tzinsurance.com,10/21/2017,"Enrollment date updated"
Liza.Perez@tzinsurance.com,10/21/2017,"Enrollment date updated"
Lorraine.Daramola@tzinsurance.com,10/21/2017,"Enrollment date updated"
Lucien.Hornbach@tzinsurance.com,10/21/2017,"Enrollment date updated"
Luis.Berrocal@cignium.com,10/21/2017,"Enrollment date updated"
Luis.Bombino@tzinsurance.com,10/21/2017,"Enrollment date updated"
Luis.Marmanillo@Cignium.com,10/21/2017,"Enrollment date updated"
Luther.Lewis@tzinsurance.com,10/21/2017,"Enrollment date updated"
Luzclarivel.Herrera@tzinsurance.com,10/21/2017,"Enrollment date updated"
Loucas.Deberry@tzinsurance.com,10/21/2017,"Enrollment date updated"
Inez.Guzman@cignium.com,10/21/2017,"Enrollment date updated"
Maria.Villalobos@tranzact.net,10/21/2017,"Enrollment date updated"
maricle.marshall@cigna-insurance.com,10/21/2017,"Enrollment date updated"
Mario.Castillo@cignium.com,10/21/2017,"Enrollment date updated"
Mario.Rico@tranzact.net,10/21/2017,"Enrollment date updated"
Marissa.Williamson@cigna-insurance.com,10/21/2017,"Enrollment date updated"
mstocker@tzinsurance.com,10/21/2017,"Enrollment date updated"
Maroof.Adnan@Cignium.com,10/21/2017,"Enrollment date updated"
Marques.McNair@tzinsurance.com,10/21/2017,"Enrollment date updated"
Marshal.Vines@tzinsurance.com,10/21/2017,"Enrollment date updated"
Mataia.Ross@tzinsurance.com,10/21/2017,"Enrollment date updated"
Matt.Fosdick@tzinsurance.com,10/21/2017,"Enrollment date updated"
Matthew.park@cignium.com,10/21/2017,"Enrollment date updated"
Matthew.Strickland@cigna-insurance.com,10/21/2017,"Enrollment date updated"
Meagan.Stilwell@tzinsurance.com,10/21/2017,"Enrollment date updated"
Melissa.Birmingham@cigna-insurance.com,10/21/2017,"Enrollment date updated"
Melissa.Brice@tzinsurance.com,10/21/2017,"Enrollment date updated"
Melody.Clemmer@tzinsurance.com,10/21/2017,"Enrollment date updated"
Mercedes.Straubel@tzinsurance.com,10/21/2017,"Enrollment date updated"
Michael.Alexander@tzinsurance.com,10/21/2017,"Enrollment date updated"
Michael.Fosdick@tzinsurance.com,10/21/2017,"Enrollment date updated"
Michael.Fulkerson@tzinsurance.com,10/21/2017,"Enrollment date updated"
Michael.John@tzinsurance.com,10/21/2017,"Enrollment date updated"
Michael.Maas@tzinsurance.com,10/21/2017,"Enrollment date updated"
Mike.McGimpsey@tzinsurance.com,10/21/2017,"Enrollment date updated"
Michael.Paich@tranzact.net,10/21/2017,"Enrollment date updated"
Michele.Garcia@tranzact.net,10/21/2017,"Enrollment date updated"
Michelle.Trujillo-Calix@tranzact.net,10/21/2017,"Enrollment date updated"
Mili.Skikic@cignium.com,10/21/2017,"Enrollment date updated"
Morgan.Osorio@Cignium.com,10/21/2017,"Enrollment date updated"
morgan.millender@tzinsurance.com,10/21/2017,"Enrollment date updated"
Nallely.Rivas@tzinsurance.com,10/21/2017,"Enrollment date updated"
Nancy.Masucci@tzinsurance.com,10/21/2017,"Enrollment date updated"
Naren.Guntupalli@Tranzact.net,10/21/2017,"Enrollment date updated"
Nicholas.DAngelo@tzinsurance.com,10/21/2017,"Enrollment date updated"
nicole.bradley@tzinsurance.com,10/21/2017,"Enrollment date updated"
Nicole.Tynan@tzinsurance.com,10/21/2017,"Enrollment date updated"
Noel.Duran@tzinsurance.com,10/21/2017,"Enrollment date updated"
norman.velarde@cignium.com,10/21/2017,"Enrollment date updated"
octavia.burch@tzinsurance.com,10/21/2017,"Enrollment date updated"
omar.lewis@tzinsurance.com,10/21/2017,"Enrollment date updated"
Oneykka.Mcaffee@tzinsurance.com,10/21/2017,"Enrollment date updated"
orlando.shropshire@tzinsurance.com,10/21/2017,"Enrollment date updated"
Oscar.Benitez@tzinsurance.com,10/21/2017,"Enrollment date updated"
Oskar.Crisostomo@Cignium.com,10/21/2017,"Enrollment date updated"
Patrice.Shanks@tzinsurance.com,10/21/2017,"Enrollment date updated"
Patricia.Doll@tzinsurance.com,10/21/2017,"Enrollment date updated"
Patricia.Donaldson@tzinsurance.com,10/21/2017,"Enrollment date updated"
Patricia.Outing@tzinsurance.com,10/21/2017,"Enrollment date updated"
Patty.LeDonne@cignium.com,10/21/2017,"Enrollment date updated"
Philip.VanAlmen@tzinsurance.com,10/21/2017,"Enrollment date updated"
Pierre.Houde@tzinsurance.com,10/21/2017,"Enrollment date updated"
pratik.patel@cignium.com,10/21/2017,"Enrollment date updated"
quinn.pompilus@tzinsurance.com,10/21/2017,"Enrollment date updated"
raisa.zeltser@tranzact.net,10/21/2017,"Enrollment date updated"
Randall.Thomas@tzinsurance.com,10/21/2017,"Enrollment date updated"
Raoul.Turner@cigna-insurance.com,10/21/2017,"Enrollment date updated"
Rashawn.Brown@tzinsurance.com,10/21/2017,"Enrollment date updated"
Raul.Naupari@Cignium.com,10/21/2017,"Enrollment date updated"
Raymel.Santiesteban@tzinsurance.com,10/21/2017,"Enrollment date updated"
rebecca.dickerson@tzinsurance.com,10/21/2017,"Enrollment date updated"
rich.akin@tzinsurance.com,10/21/2017,"Enrollment date updated"
Richard.Bravo@tzinsurance.com,10/21/2017,"Enrollment date updated"
rpapay@tzinsurance.com,10/21/2017,"Enrollment date updated"
Robert.Allen@tzinsurance.com,10/21/2017,"Enrollment date updated"
Robert.Butler@tzinsurance.com,10/21/2017,"Enrollment date updated"
Robert.Doerr@tzinsurance.com,10/21/2017,"Enrollment date updated"
Robert.Monte@cigna-insurance.com,10/21/2017,"Enrollment date updated"
Robert.Rakes@tzinsurance.com,10/21/2017,"Enrollment date updated"
Robert.Weil@tranzact.net,10/21/2017,"Enrollment date updated"
Robyn.Caster@tranzact.net,10/21/2017,"Enrollment date updated"
Rommie.Swade@tzinsurance.com,10/21/2017,"Enrollment date updated"
Ronald.Ameri@cignium.com,10/21/2017,"Enrollment date updated"
ron.wells@cignium.com,10/21/2017,"Enrollment date updated"
Ronald.Williams@tzinsurance.com,10/21/2017,"Enrollment date updated"
Roopa.Puli@cignium.com,10/21/2017,"Enrollment date updated"
Ruth.Euell@tzinsurance.com,10/21/2017,"Enrollment date updated"
Ryan.McQuillan@tzinsurance.com,10/21/2017,"Enrollment date updated"
ryan.thompson@tzinsurance.com,10/21/2017,"Enrollment date updated"
Rytorin.Gary@tzinsurance.com,10/21/2017,"Enrollment date updated"
Saila.Kath@tranzact.net,10/21/2017,"Enrollment date updated"
Sajjad.Ahmed@cignium.com,10/21/2017,"Enrollment date updated"
Samantha.Rodriguez@tzinsurance.com,10/21/2017,"Enrollment date updated"
Sanjeev.Rangaiah@cignium.com,10/21/2017,"Enrollment date updated"
Santiago.Talavera@cignium.com,10/21/2017,"Enrollment date updated"
Sateia.Watson@tzinsurance.com,10/21/2017,"Enrollment date updated"
Seth.Lytton@Tranzact.net,10/21/2017,"Enrollment date updated"
Shanice.Hyde-Ballen@tzinsurance.com,10/21/2017,"Enrollment date updated"
Shannon.Koch@tzinsurance.com,10/21/2017,"Enrollment date updated"
Sharon.Horn@tzinsurance.com,10/21/2017,"Enrollment date updated"
Shawn.Waite@tzinsurance.com,10/21/2017,"Enrollment date updated"
Shefali.Chaurasia@cignium.com,10/21/2017,"Enrollment date updated"
Shelia.Lewis@tzinsurance.com,10/21/2017,"Enrollment date updated"
Sheryl.Beneduce@tzinsurance.com,10/21/2017,"Enrollment date updated"
Shonda.Lafavore@tzinsurance.com,10/21/2017,"Enrollment date updated"
Shonee.Ferguson@tzinsurance.com,10/21/2017,"Enrollment date updated"
Shurdell.Wright@tzinsurance.com,10/21/2017,"Enrollment date updated"
siobhan.householder@tzinsurance.com,10/21/2017,"Enrollment date updated"
Spencer.Humphrey@tzinsurance.com,10/21/2017,"Enrollment date updated"
Sreepathy.Nagarajan@cignium.com,10/21/2017,"Enrollment date updated"
Stacey.Lechner@tranzact.net,10/21/2017,"Enrollment date updated"
stacy.harper@tzinsurance.com,10/21/2017,"Enrollment date updated"
Stephanie.Bogue@Tranzact.net,10/21/2017,"Enrollment date updated"
Stephanie.Byers@tzinsurance.com,10/21/2017,"Enrollment date updated"
Stephanie.Solis@tzinsurance.com,10/21/2017,"Enrollment date updated"
Stephen.Barnes@tzinsurance.com,10/21/2017,"Enrollment date updated"
steve.rankin@tzinsurance.com,10/21/2017,"Enrollment date updated"
Steven.Levy@tzinsurance.com,10/21/2017,"Enrollment date updated"
Steven.Schulman@Tranzact.net,10/21/2017,"Enrollment date updated"
sstout@trubridgeinc.com,10/21/2017,"Enrollment date updated"
sumeet.manchanda@cignium.com,10/21/2017,"Enrollment date updated"
Suzanne.Walden@tzinsurance.com,10/21/2017,"Enrollment date updated"
suzanne.lewis@tzinsurance.com,10/21/2017,"Enrollment date updated"
Thomas.Lange@tzinsurance.com,10/21/2017,"Enrollment date updated"
Thomas.Koerper@tzinsurance.com,10/21/2017,"Enrollment date updated"
Tiffene.Magazine@tzinsurance.com,10/21/2017,"Enrollment date updated"
thim.hatcher@tzinsurance.com,10/21/2017,"Enrollment date updated"
Tina.Jannelli@tzinsurance.com,10/21/2017,"Enrollment date updated"
Todd.Alexander@Tranzact.net,10/21/2017,"Enrollment date updated"
Tonya.Hudson@tzinsurance.com,10/21/2017,"Enrollment date updated"
Tracey.Leary@tzinsurance.com,10/21/2017,"Enrollment date updated"
Tracey.Smith@tzinsurance.com,10/21/2017,"Enrollment date updated"
TRANZACT_MANAGER,10/21/2017,"Enrollment date updated"
tristan.davis@tzinsurance.com,10/21/2017,"Enrollment date updated"
valerie.miller@tzinsurance.com,10/21/2017,"Enrollment date updated"
Vanessa.Banner@tzinsurance.com,10/21/2017,"Enrollment date updated"
vanessa.jackson@tzinsurance.com,10/21/2017,"Enrollment date updated"
Walter.Perez@tzinsurance.com,10/21/2017,"Enrollment date updated"
Wendy.Ibarra@cignium.com,10/21/2017,"Enrollment date updated"
Wendy.Miller@tzinsurance.com,10/21/2017,"Enrollment date updated"
William.Allen@tzinsurance.com,10/21/2017,"Enrollment date updated"
William.Luna@cignium.com,10/21/2017,"Enrollment date updated"
William.Player@tzinsurance.com,10/21/2017,"Enrollment date updated"
Yuri.Kaminsky@cignium.com,10/21/2017,"Enrollment date updated"
Zach.Clayton@Tranzact.net,10/21/2017,"Enrollment date updated"
Mia.Seymore@tzinsurance.com,10/21/2017,"Enrollment date updated"
