Username*,"Enrollment End Date(MM/DD/YYYY)",Status
angela.richardson@tzinsurance.com,11/3/2017,"Enrollment date updated"
tamyra.stevens@tzinsurance.com,11/3/2017,"Enrollment date updated"
ashton.crooks@tzinsurance.com,11/3/2017,"Enrollment date updated"
alexander.devus@tzinsurance.com,11/3/2017,"Enrollment date updated"
annetta.egler@tzinsurance.com,11/3/2017,"Enrollment date updated"
jeremy.gibson@tzinsurance.com,11/3/2017,"Enrollment date updated"
courtney.huff@tzinsurance.com,11/3/2017,"Enrollment date updated"
eric.krannich@tzinsurance.com,11/3/2017,"Enrollment date updated"
ashley.mckinney@tzinsurance.com,11/3/2017,"Enrollment date updated"
steve.rankin@tzinsurance.com,11/3/2017,"Enrollment date updated"
harper.martel@tzinsurance.com,11/3/2017,"Enrollment date updated"
antonio.brown@tzinsurance.com,11/3/2017,"Enrollment date updated"
blake.carpenter@tzinsurance.com,11/3/2017,"Enrollment date updated"
james.fernandez@tzinsurance.com,11/3/2017,"Enrollment date updated"
crystal.jacobs@tzinsurance.com,11/3/2017,"Enrollment date updated"
cherran.evans@tzinsurance.com,11/3/2017,"Enrollment date updated"
jitzel.long@tzinsurance.com,11/3/2017,"Enrollment date updated"
