Username*,"Enrollment End Date(MM/DD/YYYY)",Status
allison.taylor@tzinsurance.com,11/11/2017,Enrolled
amarri.jones@tzinsurance.com,11/11/2017,Enrolled
chester.sutherland@tzinsurance.com,11/11/2017,Enrolled
corkisha.pledgure@tzinsurance.com,11/11/2017,Enrolled
danielle.sykes@tzinsurance.com,11/11/2017,Enrolled
deangela.harris@tzinsurance.com,11/11/2017,Enrolled
elton.jones@tzinsurance.com,11/11/2017,Enrolled
Hazel.Piper@tzinsurance.com,11/11/2017,Enrolled
jacquie.greathouse@tzinsurance.com,11/11/2017,Enrolled
janice.brown@tzinsurance.com,11/11/2017,Enrolled
jasmine.nelson@tzinsurance.com,11/11/2017,"Error: User is deactivated."
jeff.harris@tzinsurance.com,11/11/2017,"Error: User is deactivated."
jessica.portee@tzinsurance.com,11/11/2017,Enrolled
jessica.wise@tzinsurance.com,11/11/2017,Enrolled
Jewell.Thompson@tzinsurance.com,11/11/2017,Enrolled
keith.menendez@tzinsurance.com,11/11/2017,Enrolled
marques.lee@tzinsurance.com,11/11/2017,Enrolled
paul.turner@tzinsurance.com,11/11/2017,Enrolled
regina.clark@tzinsurance.com,11/11/2017,Enrolled
reynard.wright@tzinsurance.com,11/11/2017,Enrolled
sonya.yates@tzinsurance.com,11/11/2017,"Error: User is deactivated."
valerie.johnson@tzinsurance.com,11/11/2017,Enrolled
whitley.murphy@tzinsurance.com,11/11/2017,Enrolled
