Username*,Enrollment End Date(MM/DD/YYYY)
adam.borchardt@tzinsurance.com,10/13/2017
adam.weeks@tzinsurance.com,10/13/2017
adriane.mcnamee@tzinsurance.com,10/13/2017
adrienne.powell@tzinsurance.com,10/13/2017
ajmal.talukder@cignium.com,10/13/2017
akeva.mckeaver@tzinsurance.com,10/13/2017
alaina.schock@tzinsurance.com,10/13/2017
alberto.arroyo@cignium.com,10/13/2017
Aleksandr.Danilevich@cignium.com,10/13/2017
alesandra.paz@tzinsurance.com,10/13/2017
alessandro.vella@tzinsurance.com,10/13/2017
alex.malyava@cignium.com,10/13/2017
alexander.devus@tzinsurance.com,10/13/2017
alexis.drurey@tzinsurance.com,10/13/2017
Alexis.Marteli@tzinsurance.com,10/13/2017
alfonso.barrett@cignium.com,10/13/2017
Alicia.Butler@tzinsurance.com,10/13/2017
alinda.mitchell@tzinsurance.com,10/13/2017
alisha.crowder@tzinsurance.com,10/13/2017
alisha.mccray@tzinsurance.com,10/13/2017
Alisha.Treadway@tzinsurance.com,10/13/2017
allicia.calhoun@tzinsurance.com,10/13/2017
allison.king@tzinsurance.com,10/13/2017
allison.bastone@cignium.com,10/13/2017
allison.pollard@tzinsurance.com,10/13/2017
allison.taylor@tzinsurance.com,10/13/2017
alpesh.trambadiya@cignium.com,10/13/2017
amanda.martin@tzinsurance.com,10/13/2017
amanda.grzechowiak@tzinsurance.com,10/13/2017
amanda.overholt@tzinsurance.com,10/13/2017
amber.ingraham@tzinsurance.com,10/13/2017
amber.majewski@tzinsurance.com,10/13/2017
amy.ariano@tranzact.net,10/13/2017
amy.fuertes@tzinsurance.com,10/13/2017
amy.stemple@tzinsurance.com,10/13/2017
amy.erdely@tzinsurance.com,10/13/2017
andre.dussan@tzinsurance.com,10/13/2017
andre.rosado@tzinsurance.com,10/13/2017
andrea.farinacci@tranzact.net,10/13/2017
andrea.miller@tzinsurance.com,10/13/2017
andrea.beardman@tzinsurance.com,10/13/2017
andres.urquieta@cignium.com,10/13/2017
andy.nelson@tranzact.net,10/13/2017
andrew.czyzewski@tranzact.net,10/13/2017
andrew.sacco@cignium.com,10/13/2017
andrew.vargo@tzinsurance.com,10/13/2017
andrew.ream@tzinsurance.com,10/13/2017
andrew.straus@tranzact.net,10/13/2017
andromada.deberry@tzinsurance.com,10/13/2017
andy.heymann@tranzact.net,10/13/2017
angel.chovanec@tzinsurance.com,10/13/2017
angel.beronda@tzinsurance.com,10/13/2017
angel.owen@tzinsurance.com,10/13/2017
angela.richardson@tzinsurance.com,10/13/2017
angela.pearson@tzinsurance.com,10/13/2017
angelo.leva@cignium.com,10/13/2017
Anita.Wilburn@tzinsurance.com,10/13/2017
anita.wingler@tzinsurance.com,10/13/2017
anita.maciarz@tzinsurance.com,10/13/2017
anita.sailors@tzinsurance.com,10/13/2017
ann.bryson@tzinsurance.com,10/13/2017
AnnMarie.Stock@tzinsurance.com,10/13/2017
Anna.Sitkowska@tzinsurance.com,10/13/2017
Anna.Foster@tzinsurance.com,10/13/2017
Anna.Dixon-Birdr@tzinsurance.com,10/13/2017
Anna.Dixon-Bird@tzinsurance.com,10/13/2017
annetta.egler@tzinsurance.com,10/13/2017
anntwanette.riley@tzinsurance.com,10/13/2017
tony.yezza@cignium.com,10/13/2017
Anthony.DeMaria@tzinsurance.com,10/13/2017
anthony.johnson@tzinsurance.com,10/13/2017
anthony.golino@tranzact.net,10/13/2017
anthony.lencsak@tzinsurance.com,10/13/2017
anthony.malfitano@cignium.com,10/13/2017
antonio.brown@tzinsurance.com,10/13/2017
anupma.bhatia@cignium.com,10/13/2017
anyssa.robertson@tzinsurance.com,10/13/2017
ariana.howe@tzinsurance.com,10/13/2017
arianna.gadaleta@tzinsurance.com,10/13/2017
Arlene.Rodriguez@tzinsurance.com,10/13/2017
arnold.wolfe@cignium.com,10/13/2017
art.burnette@tzinsurance.com,10/13/2017
Arthur.Arias@tzinsurance.com,10/13/2017
arya.sourav@cignium.com,10/13/2017
Ashanti.Gordon@tzinsurance.com,10/13/2017
ashley.rocha@tranzact.net,10/13/2017
ashley.moore@tzinsurance.com,10/13/2017
ashley.carrelli@tzinsurance.com,10/13/2017
ashley.ezerski@tzinsurance.com,10/13/2017
ashley.faulk@tzinsurance.com,10/13/2017
Ashley.Kaleta@tzinsurance.com,10/13/2017
ashley.mckinney@tzinsurance.com,10/13/2017
ashton.crooks@tzinsurance.com,10/13/2017
aubrey.lamanna@tzinsurance.com,10/13/2017
audrey.brunson@tzinsurance.com,10/13/2017
autumn.wills@tzinsurance.com,10/13/2017
axel.wassington@cignium.com,10/13/2017
zeke.bush@tzinsurance.com,10/13/2017
Badria.Mohamed@Cignium.com,10/13/2017
barbara.brennan@tzinsurance.com,10/13/2017
barbara.milam@tzinsurance.com,10/13/2017
barbara.middendorf@tzinsurance.com,10/13/2017
Barbara.Holbrook@tzinsurance.com,10/13/2017
barb.stanton@tzinsurance.com,10/13/2017
barry.mcintosh@tzinsurance.com,10/13/2017
barry.zuta@tzinsurance.com,10/13/2017
barry.landwert@tzinsurance.com,10/13/2017
Bathsheba.Stewart@tzinsurance.com,10/13/2017
becky.jackson@tzinsurance.com,10/13/2017
Ben.Ferch@cignium.com,10/13/2017
benito.perez@tzinsurance.com,10/13/2017
ben.carson@tranzact.net,10/13/2017
benjamin.warnick@tzinsurance.com,10/13/2017
bernard.thomas@tzinsurance.com,10/13/2017
beth.morgan@tzinsurance.com,10/13/2017
Betsy.Cardama@Cignium.com,10/13/2017
Bhavin.Desai@cignium.com,10/13/2017
biju.paul@tranzact.net,10/13/2017
das.joshi@cignium.com,10/13/2017
blaire.johnson@tzinsurance.com,10/13/2017
blake.carpenter@tzinsurance.com,10/13/2017
boris.donsky@tranzact.net,10/13/2017
bradley.heavilin@tzinsurance.com,10/13/2017
brandi.perkins@tzinsurance.com,10/13/2017
brandon.allison@tzinsurance.com,10/13/2017
brandy.dillon@tzinsurance.com,10/13/2017
brent.heimer@cignium.com,10/13/2017
bwackerly@trubridgeinc.com,10/13/2017
brett.phillippi@tzinsurance.com,10/13/2017
brian.felter@cignium.com,10/13/2017
brian.lusk@tranzact.net,10/13/2017
brian.berry@tzinsurance.com,10/13/2017
brian.szuch@tzinsurance.com,10/13/2017
brian.axberg@tzinsurance.com,10/13/2017
brian.radford@tzinsurance.com,10/13/2017
Brian.Cassista@tzinsurance.com,10/13/2017
brian.hicks@tzinsurance.com,10/13/2017
brian.kasday@tranzact.net,10/13/2017
brian.williamson@tzinsurance.com,10/13/2017
brien.sullivan@tzinsurance.com,10/13/2017
brittany.ashby@tzinsurance.com,10/13/2017
Brittney.Robinson@tzinsurance.com,10/13/2017
bryan.twidwell@tzinsurance.com,10/13/2017
bryan.shaffer@tzinsurance.com,10/13/2017
Bryan.Allen@Tranzact.net,10/13/2017
bryant.brim@tzinsurance.com,10/13/2017
caitlin.barrett@tranzact.net,10/13/2017
caitlyn.oconnell@tzinsurance.com,10/13/2017
candice.washington@tzinsurance.com,10/13/2017
careen.cashman@tzinsurance.com,10/13/2017
carinjoy.bonetti@tzinsurance.com,10/13/2017
Carla.Hendrix@tzinsurance.com,10/13/2017
carla.proudfoot@tzinsurance.com,10/13/2017
carla.rhine@tzinsurance.com,10/13/2017
carlos.gavidia@cignium.com,10/13/2017
carlos.pesantes@cignium.com,10/13/2017
carlos.vela@cignium.com,10/13/2017
Carmen.Valdez@Cignium.com,10/13/2017
caroline.ferris@tranzact.net,10/13/2017
carolyn.english@tzinsurance.com,10/13/2017
carolyn.kelly@tzinsurance.com,10/13/2017
carolyn.furman@tzinsurance.com,10/13/2017
Carolyn.Edwards@tzinsurance.com,10/13/2017
cayman.day@tzinsurance.com,10/13/2017
cecilia.house@tzinsurance.com,10/13/2017
cesar.huerta@cignium.com,10/13/2017
cesar.zavaleta@cignium.com,10/13/2017
cesar.vanderpool@tzinsurance.com,10/13/2017
chad.bracken@tzinsurance.com,10/13/2017
chad.tenge@tzinsurance.com,10/13/2017
chandra.robinson@tzinsurance.com,10/13/2017
charlene.rumph@tzinsurance.com,10/13/2017
charles.mogensen@tranzact.net,10/13/2017
mike.jerles@tzinsurance.com,10/13/2017
chuck.horner@tzinsurance.com,10/13/2017
charles.mason@tzinsurance.com,10/13/2017
charles.inboden@tzinsurance.com,10/13/2017
Charlotte.Lanier@tzinsurance.com,10/13/2017
chauncey.smith@tzinsurance.com,10/13/2017
chelsa.wesley@tzinsurance.com,10/13/2017
cherran.evans@tzinsurance.com,10/13/2017
cheryl.harlow@tzinsurance.com,10/13/2017
chester.sutherland@tzinsurance.com,10/13/2017
cheyenne.schrader@tzinsurance.com,10/13/2017
chintana.phonthipsavath@tzinsurance.com,10/13/2017
chris.clay@tzinsurance.com,10/13/2017
chris.collins@tzinsurance.com,10/13/2017
christian.day@tzinsurance.com,10/13/2017
christian.worstell@tranzact.net,10/13/2017
christianna.lee@tranzact.net,10/13/2017
christie.foley@cignium.com,10/13/2017
Christina.Liggett@tzinsurance.com,10/13/2017
christina.stewart@tzinsurance.com,10/13/2017
christina.thomas@tzinsurance.com,10/13/2017
christine.martin@tranzact.net,10/13/2017
christine.dilport@tzinsurance.com,10/13/2017
Chris.Mercurio@tzinsurance.com,10/13/2017
christine.thompson@tzinsurance.com,10/13/2017
christopher.mcmichael@tzinsurance.com,10/13/2017
christopher.butcher@tzinsurance.com,10/13/2017
chris.banks@tzinsurance.com,10/13/2017
jayson.bond@tzinsurance.com,10/13/2017
chris.shinn@cignium.com,10/13/2017
christopher.pizzedaz@tranzact.net,10/13/2017
christopher.gibson@tzinsurance.com,10/13/2017
christopher.ferreris@tzinsurance.com,10/13/2017
Christopher.Griffith@tzinsurance.com,10/13/2017
christopher.booker@cigna-insurance.com,10/13/2017
Christopher.Booker@tzinsurance.com,10/13/2017
Christopher.Russo@tzinsurance.com,10/13/2017
cindy.smith@tzinsurance.com,10/13/2017
clair.waucaush@tzinsurance.com,10/13/2017
claire.warren@tzinsurance.com,10/13/2017
claudia.mechan@cignium.com,10/13/2017
Colleen.Jahn@Tranzact.net,10/13/2017
connie.senatore@tranzact.net,10/13/2017
conette.zammit@cignium.com,10/13/2017
connie.burke@tzinsurance.com,10/13/2017
corinthia.miller@tzinsurance.com,10/13/2017
corkisha.pledgure@tzinsurance.com,10/13/2017
cornell.agent@tzinsurance.com,10/13/2017
corrinn.diefenderfer@tzinsurance.com,10/13/2017
courtney.farnell@tzinsurance.com,10/13/2017
Courtney.Thompson@tzinsurance.com,10/13/2017
courtney.shaw@tzinsurance.com,10/13/2017
courtney.baskin@tzinsurance.com,10/13/2017
Courtney.McAdoo@tzinsurance.com,10/13/2017
courtney.huff@tzinsurance.com,10/13/2017
courtney.miner@cigna-insurance.com,10/13/2017
Courtney.Miner@tzinsurance.com,10/13/2017
craig.dierking@tzinsurance.com,10/13/2017
Cristian.Guillen@cignium.com,10/13/2017
cristian.leon@cignium.com,10/13/2017
crystal.tanner@tzinsurance.com,10/13/2017
Crystal.Wade@tzinsurance.com,10/13/2017
crystal.jacobs@tzinsurance.com,10/13/2017
curtis.foster@cignium.com,10/13/2017
curtis.malone@tzinsurance.com,10/13/2017
cyndi.qualls@tzinsurance.com,10/13/2017
cynthia.rogers@cignium.com,10/13/2017
Cindy.Brady@tzinsurance.com,10/13/2017
cynthia.miller@tzinsurance.com,10/13/2017
cynthia.cornejo@cignium.com,10/13/2017
cynthia.mcnair@tzinsurance.com,10/13/2017
cynthia.rogers@tranzact.net,10/13/2017
Tim.Hill@tzinsurance.com,10/13/2017
daemon.hayes@tzinsurance.com,10/13/2017
daja.roselle@tzinsurance.com,10/13/2017
dale.liggett@tzinsurance.com,10/13/2017
dale.clark@tzinsurance.com,10/13/2017
damon.lagala@cignium.com,10/13/2017
Damonte.Greene@tzinsurance.com,10/13/2017
dana.blackmon@tzinsurance.com,10/13/2017
Dandrila.Green@tzinsurance.com,10/13/2017
danette.richards@tzinsurance.com,10/13/2017
daniel.esposito@tzinsurance.com,10/13/2017
dan.griffin@tzinsurance.com,10/13/2017
daniel.pascazio@tzinsurance.com,10/13/2017
daniel.davis@tzinsurance.com,10/13/2017
daniel.core@tzinsurance.com,10/13/2017
daniel.perez@cignium.com,10/13/2017
daniel.hancock@tzinsurance.com,10/13/2017
danielle.wilson@tzinsurance.com,10/13/2017
Danielle.Harvey@tzinsurance.com,10/13/2017
danielle.amidon@tzinsurance.com,10/13/2017
danielle.brady@tzinsurance.com,10/13/2017
danielle.dupler@tzinsurance.com,10/13/2017
danny.williams@tzinsurance.com,10/13/2017
dante.peralta@cignium.com,10/13/2017
Darilis.Zambrana@tzinsurance.com,10/13/2017
darren.white@tranzact.net,10/13/2017
Dave.Kumia@cignium.com,10/13/2017
Davian.Montgomery@tzinsurance.com,10/13/2017
david.byron@cignium.com,10/13/2017
david.graf@tranzact.net,10/13/2017
david.merino@cignium.com,10/13/2017
David.Volkert@tzinsurance.com,10/13/2017
david.treshnik@tzinsurance.com,10/13/2017
david.morales@tzinsurance.com,10/13/2017
david.destrooper@tzinsurance.com,10/13/2017
David.Panting@tzinsurance.com,10/13/2017
david.guerrero@tzinsurance.com,10/13/2017
david.moberley@tzinsurance.com,10/13/2017
david.young@tzinsurance.com,10/13/2017
david.hare@tranzact.net,10/13/2017
David.Hamoui@Tranzact.net,10/13/2017
daylin.brea@tzinsurance.com,10/13/2017
dean.meinert@tzinsurance.com,10/13/2017
Debbie.Rossiter@tzinsurance.com,10/13/2017
deborah.cohen@tranzact.net,10/13/2017
deborah.glasser@tranzact.net,10/13/2017
deborah.herbert@tzinsurance.com,10/13/2017
Deborah.Carr@tzinsurance.com,10/13/2017
deborah.king@tzinsurance.com,10/13/2017
debra.bolds@tzinsurance.com,10/13/2017
degan.purvis@tzinsurance.com,10/13/2017
deme.gibson@tzinsurance.com,10/13/2017
Demi.Leonard@tzinsurance.com,10/13/2017
Dennis.Dutkevitch@cignium.com,10/13/2017
dennis.greene@tzinsurance.com,10/13/2017
denys.ivanov@cignium.com,10/13/2017
destani.winn@tzinsurance.com,10/13/2017
diane.irick@tzinsurance.com,10/13/2017
diego.torres@cignium.com,10/13/2017
dina.demetro@tzinsurance.com,10/13/2017
donald.wilcox@tzinsurance.com,10/13/2017
donna.capuano@tzinsurance.com,10/13/2017
donna.jackson@tzinsurance.com,10/13/2017
donna.bartley@tzinsurance.com,10/13/2017
donte.johnson@tzinsurance.com,10/13/2017
Dorette.Banyog@tzinsurance.com,10/13/2017
doris.moseley@tzinsurance.com,10/13/2017
doris.hardy@tzinsurance.com,10/13/2017
dorothy.poteete@tzinsurance.com,10/13/2017
doug.vanderbrink@cignium.com,10/13/2017
douglas.cooper@tzinsurance.com,10/13/2017
douglas.harding@tzinsurance.com,10/13/2017
doug.urban@tzinsurance.com,10/13/2017
dustin.nolen@tzinsurance.com,10/13/2017
ebony.stewart@tzinsurance.com,10/13/2017
edgar.cordova@cignium.com,10/13/2017
edson.flores@cignium.com,10/13/2017
eduardo.uscuvilca@cignium.com,10/13/2017
Eduardo.Mora@tzinsurance.com,10/13/2017
edward.bobbitt@tzinsurance.com,10/13/2017
edwin.rojas@cignium.com,10/13/2017
Eileen.Dillon@tzinsurance.com,10/13/2017
elexis.porter@tzinsurance.com,10/13/2017
elizabeth.pisino@tzinsurance.com,10/13/2017
Emanuel.Roker@tzinsurance.com,10/13/2017
emerson.toledo@cignium.com,10/13/2017
emily.goodwin@tranzact.net,10/13/2017
emily.lopp@tzinsurance.com,10/13/2017
emily.swing@tzinsurance.com,10/13/2017
etremmel@tzinsurance.com,10/13/2017
emma.player@tzinsurance.com,10/13/2017
emmanuel.fellouzis@tzinsurance.com,10/13/2017
LuisEnrique.Zea@Cignium.com,10/13/2017
eric.krannich@tzinsurance.com,10/13/2017
erica.powers@tranzact.net,10/13/2017
erica.wheeler@tzinsurance.com,10/13/2017
Erika.Scherer@tzinsurance.com,10/13/2017
erin.corbett@tzinsurance.com,10/13/2017
ernie.parsons@tzinsurance.com,10/13/2017
Essence.McClure@tzinsurance.com,10/13/2017
eunide.pierre@tzinsurance.com,10/13/2017
eva.crabtree@tzinsurance.com,10/13/2017
evelyn.morrison@tzinsurance.com,10/13/2017
flavio.florentini@cignium.com,10/13/2017
frank.molina@tzinsurance.com,10/13/2017
frank.licitra@tzinsurance.com,10/13/2017
frank.marchese@tzinsurance.com,10/13/2017
freddie.gibson@tzinsurance.com,10/13/2017
fred.wright@tzinsurance.com,10/13/2017
fred.vinson@tzinsurance.com,10/13/2017
fgoldin@tzinsurance.com,10/13/2017
fritz.maxi@tzinsurance.com,10/13/2017
gabrielle.beam@tzinsurance.com,10/13/2017
galina.ashapatov@cignium.com,10/13/2017
galina.rossovsky@cignium.com,10/13/2017
gareth.morgan@cignium.com,10/13/2017
gary.henschel@tzinsurance.com,10/13/2017
gary.johnson@tzinsurance.com,10/13/2017
gene.naroditsky@cignium.com,10/13/2017
george.milnes@tzinsurance.com,10/13/2017
george.rentos@tzinsurance.com,10/13/2017
george.haskin@tzinsurance.com,10/13/2017
gerald.simpson@tzinsurance.com,10/13/2017
gerard.kachor@tzinsurance.com,10/13/2017
giancarlo.meza@cignium.com,10/13/2017
Gianella.Hernandez@Cignium.com,10/13/2017
Gina.Diaz@tzinsurance.com,10/13/2017
giovanni.marban@tzinsurance.com,10/13/2017
Glen.Vanderwalker@tzinsurance.com,10/13/2017
glenn.storm@tranzact.net,10/13/2017
gunn.mccoy@tzinsurance.com,10/13/2017
Gopi.Palamadai@Tranzact.net,10/13/2017
Grant.Gwinn@tzinsurance.com,10/13/2017
greg.smucker@tranzact.net,10/13/2017
greg.fitzpatrick@tzinsurance.com,10/13/2017
gregory.prosser@tzinsurance.com,10/13/2017
Gregory.Geiger@tzinsurance.com,10/13/2017
Guillermo.Azurdia@cignium.com,10/13/2017
Gwendolyn.Hensley@tzinsurance.com,10/13/2017
gwendolyn.fink@tzinsurance.com,10/13/2017
hanora.lapping@tzinsurance.com,10/13/2017
Harless.Stover@tzinsurance.com,10/13/2017
harper.martel@tzinsurance.com,10/13/2017
harpo.marx@tzinsurance.com,10/13/2017
Lina.Hart@tzinsurance.com,10/13/2017
heather.labounty@tzinsurance.com,10/13/2017
heather.koelble@tzinsurance.com,10/13/2017
Heather.Costello@tzinsurance.com,10/13/2017
hector.fernandez@tzinsurance.com,10/13/2017
hector.torres@tranzact.net,10/13/2017
henry.trujillo@cignium.com,10/13/2017
henry.fuentes@cignium.com,10/13/2017
henry.cekan@tzinsurance.com,10/13/2017
herman.floyd@tzinsurance.com,10/13/2017
holly.stubbins@tzinsurance.com,10/13/2017
holly.wills@tzinsurance.com,10/13/2017
howard.yeaton@tranzact.net,10/13/2017
hugo.castro@cignium.com,10/13/2017
ida.lennon@tzinsurance.com,10/13/2017
ieisha.higgins@tzinsurance.com,10/13/2017
Imani.Williams@tzinsurance.com,10/13/2017
irfan.munshi@cignium.com,10/13/2017
iris.nelson@tzinsurance.com,10/13/2017
ishtiaq.mustafa@cignium.com,10/13/2017
ivan.ruiz@tzinsurance.com,10/13/2017
jacinto.sosa@cignium.com,10/13/2017
jacqueline.rivera@tzinsurance.com,10/13/2017
Jaclyn.Andronici@Tranzact.net,10/13/2017
jacob.turbeville@tzinsurance.com,10/13/2017
jacob.gama@tzinsurance.com,10/13/2017
Jackie.Gasparini@tzinsurance.com,10/13/2017
jacqueline.nelson@tzinsurance.com,10/13/2017
jclausnitzer@tzinsurance.com,10/13/2017
jacquie.greathouse@tzinsurance.com,10/13/2017
Jade.Correggio@Tranzact.net,10/13/2017
jake.robinson@tranzact.net,10/13/2017
jalisa.jackson@tzinsurance.com,10/13/2017
jamaal.kelly@tzinsurance.com,10/13/2017
james.palmer@tranzact.net,10/13/2017
jim.oser@cignium.com,10/13/2017
james.cordero@tzinsurance.com,10/13/2017
james.vallandingham@tzinsurance.com,10/13/2017
james.sparks@tzinsurance.com,10/13/2017
james.edwards@tzinsurance.com,10/13/2017
james.taylor@tzinsurance.com,10/13/2017
james.farris@tzinsurance.com,10/13/2017
james.burns@tzinsurance.com,10/13/2017
jim.volkmor@tzinsurance.com,10/13/2017
james.cunningham@tzinsurance.com,10/13/2017
james.fernandez@tzinsurance.com,10/13/2017
jamie.knatz@tzinsurance.com,10/13/2017
jamie.ingold@tzinsurance.com,10/13/2017
jamison.margaritis@tranzact.net,10/13/2017
janae.mcafee@tzinsurance.com,10/13/2017
Janeece.Jones@tzinsurance.com,10/13/2017
Janet.Rivera@tzinsurance.com,10/13/2017
janice.gotter@tzinsurance.com,10/13/2017
janine.davidheiser@tranzact.net,10/13/2017
jasmyn.galpert@tzinsurance.com,10/13/2017
jason.everist@tzinsurance.com,10/13/2017
jason.amaral@tranzact.net,10/13/2017
jason.jones@tzinsurance.com,10/13/2017
jason.hochman@tzinsurance.com,10/13/2017
jason.wilcox@tzinsurance.com,10/13/2017
javier.bringas@tzinsurance.com,10/13/2017
javika.legette@tzinsurance.com,10/13/2017
jay.pierce@tzinsurance.com,10/13/2017
jaymee.mason@tzinsurance.com,10/13/2017
jean.flores@cignium.com,10/13/2017
jeff.gjoen@tzinsurance.com,10/13/2017
Jeff.Miller@tzinsurance.com,10/13/2017
jefferson.mendoza@cignium.com,10/13/2017
Jeff.Harris@tzinsurance.com,10/13/2017
jeffery.miller@tzinsurance.com,10/13/2017
jeffrey.storm@tranzact.net,10/13/2017
jeffrey.lemcke@tzinsurance.com,10/13/2017
jenelle.ferguson@tzinsurance.com,10/13/2017
jennie.rodriguez@tranzact.net,10/13/2017
jennifer.harbert@tranzact.net,10/13/2017
Jennifer.Sears@tzinsurance.com,10/13/2017
jennifer.wharton@tzinsurance.com,10/13/2017
jennifer.boggs@tzinsurance.com,10/13/2017
jennifer.mears@tzinsurance.com,10/13/2017
jennifer.snyder@tzinsurance.com,10/13/2017
jennifer.orlowski@tzinsurance.com,10/13/2017
jeremy.schulte@tzinsurance.com,10/13/2017
jeremy.dacko@tzinsurance.com,10/13/2017
jeremy.gibson@tzinsurance.com,10/13/2017
jeriz.markham@tzinsurance.com,10/13/2017
jerold.lee@tzinsurance.com,10/13/2017
jerome.wallace@tzinsurance.com,10/13/2017
jerome.jones@tzinsurance.com,10/13/2017
jerry.sanchez@cignium.com,10/13/2017
jerry.harris@tzinsurance.com,10/13/2017
Jesse.Thompson@tzinsurance.com,10/13/2017
jessica.fajardo@tranzact.net,10/13/2017
jessica.cordova@cignium.com,10/13/2017
jessica.rogers@tzinsurance.com,10/13/2017
jessica.wise@tzinsurance.com,10/13/2017
jessica.newton@tzinsurance.com,10/13/2017
jessica.hicks@tzinsurance.com,10/13/2017
jessie.flowers@tzinsurance.com,10/13/2017
jesus.rodriguez@cignium.com,10/13/2017
jesus.garcia@tzinsurance.com,10/13/2017
jignesh.patel@cignium.com,10/13/2017
jitzel.long@tzinsurance.com,10/13/2017
Jo.Yep@Cignium.com,10/13/2017
joanne.graf@tranzact.net,10/13/2017
jocelyn.suarez@tzinsurance.com,10/13/2017
joel.calabrese@tzinsurance.com,10/13/2017
Joel.Reyes@tzinsurance.com,10/13/2017
john.bosi@tranzact.net,10/13/2017
John.Savelli@tzinsurance.com,10/13/2017
john.staunton@tzinsurance.com,10/13/2017
john.hyland@tzinsurance.com,10/13/2017
john.jordan@tzinsurance.com,10/13/2017
john.krahnert@tranzact.net,10/13/2017
John.Reynolds@Tranzact.net,10/13/2017
John.Haskell@tzinsurance.com,10/13/2017
jon.detrow@tzinsurance.com,10/13/2017
jonathan.mcclanahan@tzinsurance.com,10/13/2017
jonathan.roberts@tzinsurance.com,10/13/2017
jonathan.lawley@tzinsurance.com,10/13/2017
jonita.floyd@cignium.com,10/13/2017
jordan.williams@tzinsurance.com,10/13/2017
jorge.riva@cignium.com,10/13/2017
jose.gutierrez@cignium.com,10/13/2017
jose.garcia@tzinsurance.com,10/13/2017
jose.delacruz@tzinsurance.com,10/13/2017
jose.ponce@cignium.com,10/13/2017
joseph.politz@tranzact.net,10/13/2017
joseph.ramirez@tzinsurance.com,10/13/2017
joseph.howdyshell@tzinsurance.com,10/13/2017
joe.wheeler@tranzact.net,10/13/2017
joseph.carbone@tzinsurance.com,10/13/2017
joseph.robinson@tranzact.net,10/13/2017
Joseph.Sorisi@Tranzact.net,10/13/2017
joe.grosko@tranzact.net,10/13/2017
joe.grosko@tzinsurance.com,10/13/2017
josie.clay@tzinsurance.com,10/13/2017
joshua.laninga@tzinsurance.com,10/13/2017
joshua.menghini@tzinsurance.com,10/13/2017
juan.peralta@cignium.com,10/13/2017
juan.romaina@cignium.com,10/13/2017
juanjose.fuchs@cignium.com,10/13/2017
juan.elias@tzinsurance.com,10/13/2017
juan.cruz@tzinsurance.com,10/13/2017
Juan.Alvarez@cignium.com,10/13/2017
Juan.Sosa@cignium.com,10/13/2017
jubilee.bales@tzinsurance.com,10/13/2017
judeen.sutherland@tzinsurance.com,10/13/2017
Judith.Ernest@tzinsurance.com,10/13/2017
burke.stjohn@tranzact.net,10/13/2017
judy.stevens@tzinsurance.com,10/13/2017
judy.byers@tzinsurance.com,10/13/2017
judy.day@tzinsurance.com,10/13/2017
julian.lee@tzinsurance.com,10/13/2017
julie.mignone@tzinsurance.com,10/13/2017
julie.schwenk@tzinsurance.com,10/13/2017
julie.sherman@tzinsurance.com,10/13/2017
justin.cole@tzinsurance.com,10/13/2017
justin.cope@tzinsurance.com,10/13/2017
justin.adsit@tranzact.net,10/13/2017
justina.lidderdale@tzinsurance.com,10/13/2017
kale.difloure@tzinsurance.com,10/13/2017
Kalyan.Prime@tzinsurance.com,10/13/2017
karel.vegazo@cignium.com,10/13/2017
karen.goytizolo@cignium.com,10/13/2017
karen.ficken@tranzact.net,10/13/2017
karen.diggs@tzinsurance.com,10/13/2017
Karen.Frazier@tzinsurance.com,10/13/2017
karla.rivera@tzinsurance.com,10/13/2017
Kartik.Shrivastava@Tranzact.net,10/13/2017
kassandra.jaffe@tzinsurance.com,10/13/2017
katelyn.haren@tzinsurance.com,10/13/2017
katherine.stewart@tzinsurance.com,10/13/2017
katie.hayhurst@tzinsurance.com,10/13/2017
kat.stehno@tranzact.net,10/13/2017
katherine.kehoe@tranzact.net,10/13/2017
kathleen.johnson@tzinsurance.com,10/13/2017
kathleen.franks@tzinsurance.com,10/13/2017
kathryn.sloop@tranzact.net,10/13/2017
katia.meneses@cignium.com,10/13/2017
katya.flores@cignium.com,10/13/2017
Kayla.Riley@tzinsurance.com,10/13/2017
kaylie.pettis@tzinsurance.com,10/13/2017
kaysi.donadio@tzinsurance.com,10/13/2017
kaytlin.loy@tzinsurance.com,10/13/2017
Keith.Marchese@cignium.com,10/13/2017
keith.ayars@tzinsurance.com,10/13/2017
kelley.wrenn@tzinsurance.com,10/13/2017
kellie.wriston@tzinsurance.com,10/13/2017
kelly.wallace@tzinsurance.com,10/13/2017
kellyclark@tzinsurance.com,10/13/2017
kelly.velez@tzinsurance.com,10/13/2017
Kelsey.Cook@tranzact.net,10/13/2017
ken.bickers@tzinsurance.com,10/13/2017
kenneth.kerr@tzinsurance.com,10/13/2017
kenneth.mclaughlin@tzinsurance.com,10/13/2017
Ken.Suarez@tzinsurance.com,10/13/2017
kenneth.wilmoth@tzinsurance.com,10/13/2017
keona.thomas@tzinsurance.com,10/13/2017
kevin.waldman@cignium.com,10/13/2017
kevin.staszak@tzinsurance.com,10/13/2017
kevin.rivas@tzinsurance.com,10/13/2017
keyanna.hood@tzinsurance.com,10/13/2017
khadijia.ervin@tzinsurance.com,10/13/2017
Kiana.Zimmerman@tzinsurance.com,10/13/2017
kim.rieveley@tzinsurance.com,10/13/2017
kimberly.dotson@tzinsurance.com,10/13/2017
Kirsten.Mullin@tzinsurance.com,10/13/2017
kiyra.smith@tzinsurance.com,10/13/2017
kristen.reineke@tranzact.net,10/13/2017
kristen.kobyluck@tzinsurance.com,10/13/2017
kristi.baudone@tranzact.net,10/13/2017
kristina.payton@tzinsurance.com,10/13/2017
kristina.jordan@tzinsurance.com,10/13/2017
kristine.carranza@tzinsurance.com,10/13/2017
kristine.engels@tzinsurance.com,10/13/2017
Lachelle.Barber@tzinsurance.com,10/13/2017
lane.frye@tzinsurance.com,10/13/2017
Laquarra.Audrey@tzinsurance.com,10/13/2017
Laquecia.Dublin@tzinsurance.com,10/13/2017
laquita.taylor@tzinsurance.com,10/13/2017
laren.burick@tzinsurance.com,10/13/2017
rhonda.burnette@tzinsurance.com,10/13/2017
lasttina.baker@tzinsurance.com,10/13/2017
latoya.washington@tzinsurance.com,10/13/2017
Laura.Jimenez@cignium.com,10/13/2017
laura.corellis@tzinsurance.com,10/13/2017
laura.birmingham@tzinsurance.com,10/13/2017
laura.meyer@tzinsurance.com,10/13/2017
lauren.schwenk@tranzact.net,10/13/2017
lauretha.price@tzinsurance.com,10/13/2017
laurie.poulos@tranzact.net,10/13/2017
larry.lundgren@tranzact.net,10/13/2017
Leah.Pierce@tzinsurance.com,10/13/2017
lee.frankstone@tranzact.net,10/13/2017
lelia.moore@tzinsurance.com,10/13/2017
leslie.hughes@tzinsurance.com,10/13/2017
leslie.fischer@tzinsurance.com,10/13/2017
lillian.villard@tzinsurance.com,10/13/2017
linda.ghalieh@tzinsurance.com,10/13/2017
linda.greene@tzinsurance.com,10/13/2017
linda.bryant@tzinsurance.com,10/13/2017
lindsey.gardner@tzinsurance.com,10/13/2017
lindsie.smith@tzinsurance.com,10/13/2017
Lisa.Bennett@tzinsurance.com,10/13/2017
Liza.Perez@tzinsurance.com,10/13/2017
liza.colson@tzinsurance.com,10/13/2017
lonn.klapper@tzinsurance.com,10/13/2017
lorella.rohrer@tzinsurance.com,10/13/2017
loren.starnes@tzinsurance.com,10/13/2017
lorraine.daramola@tzinsurance.com,10/13/2017
lucien.hornbach@tzinsurance.com,10/13/2017
luis.arpasi@cignium.com,10/13/2017
luis.berrocal@cignium.com,10/13/2017
luis.espinoza@cignium.com,10/13/2017
luis.bombino@tzinsurance.com,10/13/2017
Luis.Marmanillo@Cignium.com,10/13/2017
Luis.Barzola@Cignium.com,10/13/2017
luther.lewis@tzinsurance.com,10/13/2017
luzclarivel.herrera@tzinsurance.com,10/13/2017
lynn.dukette@tranzact.net,10/13/2017
madison.griffiths@tzinsurance.com,10/13/2017
Mahbub.Kamal@cignium.com,10/13/2017
Mahendran.Rajasingham@Tranzact.net,10/13/2017
maksym.mitin@cignium.com,10/13/2017
malick.ead@tzinsurance.com,10/13/2017
loucas.deberry@tzinsurance.com,10/13/2017
mamta.pandya@cignium.com,10/13/2017
manish.sharath@tranzact.net,10/13/2017
manuel.sanchez@cignium.com,10/13/2017
Marcus.Graham@tzinsurance.com,10/13/2017
margaret.barie@cignium.com,10/13/2017
margo.bair@tzinsurance.com,10/13/2017
maria.villalobos@tranzact.net,10/13/2017
maria.stewart@tranzact.net,10/13/2017
Inez.Guzman@cignium.com,10/13/2017
Maricle.Marshall@tzinsurance.com,10/13/2017
marie.russell@tzinsurance.com,10/13/2017
marilyn.lamelas@tzinsurance.com,10/13/2017
mario.castillo@cignium.com,10/13/2017
mario.rico@tranzact.net,10/13/2017
Marissa.Williamson@tzinsurance.com,10/13/2017
mstocker@tzinsurance.com,10/13/2017
mark.hiney@tzinsurance.com,10/13/2017
mark.robinson@tzinsurance.com,10/13/2017
mark.tice@tzinsurance.com,10/13/2017
mark.goodnight@tzinsurance.com,10/13/2017
marlea.gwathney@tzinsurance.com,10/13/2017
maroof.adnan@cignium.com,10/13/2017
marques.mcnair@tzinsurance.com,10/13/2017
marquita.drayton@tzinsurance.com,10/13/2017
marrisha.trompeter@tzinsurance.com,10/13/2017
marshal.vines@tzinsurance.com,10/13/2017
mary.burden@tzinsurance.com,10/13/2017
lynn.bass@cignium.com,10/13/2017
rebekah.bumgardner@tzinsurance.com,10/13/2017
koranna.spurgeon@tzinsurance.com,10/13/2017
mashelle.barker@tzinsurance.com,10/13/2017
Mataia.Ross@tzinsurance.com,10/13/2017
matora.robinson@tzinsurance.com,10/13/2017
matt.fosdick@tzinsurance.com,10/13/2017
matthew.park@cignium.com,10/13/2017
matt.clements@tranzact.net,10/13/2017
matt.conlon@tzinsurance.com,10/13/2017
matthew.barkie@tzinsurance.com,10/13/2017
Matthew.Strickland@tzinsurance.com,10/13/2017
mattie.brandal@tzinsurance.com,10/13/2017
maxx.romba@tranzact.net,10/13/2017
meagan.stilwell@tzinsurance.com,10/13/2017
meghan.chambers@tzinsurance.com,10/13/2017
meghan.robinson@tzinsurance.com,10/13/2017
Melaysia.Knight@tzinsurance.com,10/13/2017
melba.williams@tzinsurance.com,10/13/2017
melinda.rogers@tzinsurance.com,10/13/2017
melisa.barrios@cignium.com,10/13/2017
melissa.brice@tzinsurance.com,10/13/2017
melissa.victorin@tzinsurance.com,10/13/2017
Melissa.Birmingham@tzinsurance.com,10/13/2017
melissa.runions@tzinsurance.com,10/13/2017
melody.clemmer@tzinsurance.com,10/13/2017
melody.brown@tzinsurance.com,10/13/2017
Mercedes.Straubel@tzinsurance.com,10/13/2017
mercia.hill@tzinsurance.com,10/13/2017
mia.seymore@tzinsurance.com,10/13/2017
micah.drake@tzinsurance.com,10/13/2017
michael.paich@tranzact.net,10/13/2017
michael.john@tzinsurance.com,10/13/2017
mike.mcgimpsey@tzinsurance.com,10/13/2017
michael.maas@tzinsurance.com,10/13/2017
Michael.Wolkonowski@tzinsurance.com,10/13/2017
michael.quemp@tzinsurance.com,10/13/2017
michael.alexander@tzinsurance.com,10/13/2017
michael.doherty@tzinsurance.com,10/13/2017
michael.fosdick@tzinsurance.com,10/13/2017
michael.fulkerson@tzinsurance.com,10/13/2017
michael.molligi@tranzact.net,10/13/2017
michael.martling@tzinsurance.com,10/13/2017
michael.montgomery@tzinsurance.com,10/13/2017
michael.parsons@tzinsurance.com,10/13/2017
mike.odom@cignium.com,10/13/2017
michael.hopper@tzinsurance.com,10/13/2017
mike.mayle@tzinsurance.com,10/13/2017
Michael.Torchia@Tranzact.net,10/13/2017
Michael.Miller@tzinsurance.com,10/13/2017
michaela.allen@tzinsurance.com,10/13/2017
michele.garcia@tranzact.net,10/13/2017
Michele.Leasure@tzinsurance.com,10/13/2017
michelle.hoover@tzinsurance.com,10/13/2017
michelle.megown@tzinsurance.com,10/13/2017
michelle.trujillo-calix@tranzact.net,10/13/2017
michelle.may@tzinsurance.com,10/13/2017
michelle.ridgeway@tzinsurance.com,10/13/2017
michelle.twidwell@tzinsurance.com,10/13/2017
mihir.parikh@cignium.com,10/13/2017
mili.skikic@cignium.com,10/13/2017
mindy.oberlin@tzinsurance.com,10/13/2017
mitchell.ginzburg@tranzact.net,10/13/2017
mona.wong@tzinsurance.com,10/13/2017
monise.sineus@tzinsurance.com,10/13/2017
morgan.osorio@cignium.com,10/13/2017
morgan.millender@tzinsurance.com,10/13/2017
myron.dace@tzinsurance.com,10/13/2017
nallely.rivas@tzinsurance.com,10/13/2017
nancy.masucci@tzinsurance.com,10/13/2017
nancy.jennings@tzinsurance.com,10/13/2017
Naren.Guntupalli@Tranzact.net,10/13/2017
natalya.konopleva@cignium.com,10/13/2017
natalya.sorokin@tranzact.net,10/13/2017
natalya.antonova@cignium.com,10/13/2017
natasha.smith@tzinsurance.com,10/13/2017
nicholas.perillo@tzinsurance.com,10/13/2017
nicholas.dangelo@tzinsurance.com,10/13/2017
nichole.carter@tzinsurance.com,10/13/2017
nick.weber@cignium.com,10/13/2017
nicole.tynan@tzinsurance.com,10/13/2017
nicole.booth@tzinsurance.com,10/13/2017
nicole.bradley@tzinsurance.com,10/13/2017
Nicole.Gates@tzinsurance.com,10/13/2017
nina.toombs@tzinsurance.com,10/13/2017
noel.duran@tzinsurance.com,10/13/2017
norman.velarde@cignium.com,10/13/2017
octavia.burch@tzinsurance.com,10/13/2017
olexiy.romanov@cignium.com,10/13/2017
olivia.lynch@tzinsurance.com,10/13/2017
omar.perez@tzinsurance.com,10/13/2017
omar.lewis@tzinsurance.com,10/13/2017
omolade.kolawole@tzinsurance.com,10/13/2017
oneykka.mcaffee@tzinsurance.com,10/13/2017
ora.richards@tzinsurance.com,10/13/2017
orlando.shropshire@tzinsurance.com,10/13/2017
oscar.ramos@cignium.com,10/13/2017
oscar.benitez@tzinsurance.com,10/13/2017
oskar.crisostomo@cignium.com,10/13/2017
paige.soltano@tranzact.net,10/13/2017
Patrice.Shanks@tzinsurance.com,10/13/2017
patricia.donaldson@tzinsurance.com,10/13/2017
patricia.williams@tzinsurance.com,10/13/2017
Patricia.Outing@tzinsurance.com,10/13/2017
Patricia.Loukoumis@tzinsurance.com,10/13/2017
patricia.doll@tzinsurance.com,10/13/2017
patricia.mann@tzinsurance.com,10/13/2017
patty.ledonne@cignium.com,10/13/2017
patty.rufener@tzinsurance.com,10/13/2017
paul.johnson@cignium.com,10/13/2017
paul.diaz@cignium.com,10/13/2017
paul.greenstein@tzinsurance.com,10/13/2017
paul.kortz@tzinsurance.com,10/13/2017
paula.sneed@tzinsurance.com,10/13/2017
paula.stewart@tzinsurance.com,10/13/2017
Paula.Baumgarten@tzinsurance.com,10/13/2017
pawnee.holland@tzinsurance.com,10/13/2017
Pedro.MendezChacon@cignium.com,10/13/2017
peggy.jensen@tranzact.net,10/13/2017
peter.nannas@tranzact.net,10/13/2017
peter.grunstra@tzinsurance.com,10/13/2017
philip.vanalmen@tzinsurance.com,10/13/2017
pierre.houde@tzinsurance.com,10/13/2017
pompeo.gatto@tzinsurance.com,10/13/2017
pratik.patel@cignium.com,10/13/2017
quinn.pompilus@tzinsurance.com,10/13/2017
rachel.truhon@tranzact.net,10/13/2017
rachel.zattosky@tranzact.net,10/13/2017
rachel.mcdonald@tzinsurance.com,10/13/2017
Rachel.Williams@tranzact.net,10/13/2017
rachel.neely@tzinsurance.com,10/13/2017
raisa.zeltser@tranzact.net,10/13/2017
ramiro.herrera@tzinsurance.com,10/13/2017
randall.thomas@tzinsurance.com,10/13/2017
randy.shore@tzinsurance.com,10/13/2017
randy.eilert@tzinsurance.com,10/13/2017
randy.hall@tzinsurance.com,10/13/2017
raoul.turner@tzinsurance.com,10/13/2017
rashawn.brown@tzinsurance.com,10/13/2017
raul.naupari@cignium.com,10/13/2017
raul.grey@cignium.com,10/13/2017
raven.reagon@tzinsurance.com,10/13/2017
Rayelle.Robertson@tzinsurance.com,10/13/2017
raymel.santiesteban@tzinsurance.com,10/13/2017
rebecca.davis@tranzact.net,10/13/2017
rebecca.dickerson@tzinsurance.com,10/13/2017
rebekah.coleman@tranzact.net,10/13/2017
Reed.Adelsperger@tzinsurance.com,10/13/2017
regina.whittenburg@tzinsurance.com,10/13/2017
regina.clark@tzinsurance.com,10/13/2017
rene.norsworthy@tranzact.net,10/13/2017
Rene@Cignium.com,10/13/2017
renzo.robles@cignium.com,10/13/2017
Renzo.Marchena@cignium.com,10/13/2017
rhea.doblar@tzinsurance.com,10/13/2017
rhonda.davis@tzinsurance.com,10/13/2017
rhonda.jackson@tzinsurance.com,10/13/2017
Rhonda.Kozlowski@tzinsurance.com,10/13/2017
rich.akin@tzinsurance.com,10/13/2017
richard.bravo@tzinsurance.com,10/13/2017
richard.hunter@tzinsurance.com,10/13/2017
rpapay@tzinsurance.com,10/13/2017
robert.weil@tranzact.net,10/13/2017
robert.allen@tzinsurance.com,10/13/2017
robert.rakes@tzinsurance.com,10/13/2017
robert.doerr@tzinsurance.com,10/13/2017
robert.butler@tzinsurance.com,10/13/2017
robert.mccarter@tzinsurance.com,10/13/2017
robert.chatham@tzinsurance.com,10/13/2017
robert.wilson@tzinsurance.com,10/13/2017
rob.schreiner@cignium.com,10/13/2017
Robert.Taylor@tzinsurance.com,10/13/2017
Robert.Monte@tzinsurance.com,10/13/2017
roberta.legg@tzinsurance.com,10/13/2017
roberto.honores@cignium.com,10/13/2017
robin.brand@tzinsurance.com,10/13/2017
robin.lepak@tzinsurance.com,10/13/2017
Robin.Nicholls@tzinsurance.com,10/13/2017
robyn.caster@tranzact.net,10/13/2017
roman.pearah@tranzact.net,10/13/2017
romina.chahar@cignium.com,10/13/2017
rommie.swade@tzinsurance.com,10/13/2017
ronald.ameri@cignium.com,10/13/2017
ronald.marrou@cignium.com,10/13/2017
ron.murrey@tzinsurance.com,10/13/2017
ron.wells@cignium.com,10/13/2017
ronald.williams@tzinsurance.com,10/13/2017
Roopa.Puli@cignium.com,10/13/2017
roosevelt.lynch@tzinsurance.com,10/13/2017
elizabeth.katzman@tranzact.net,10/13/2017
rosa.singleton@tzinsurance.com,10/13/2017
Rosanna.Barrientos@tzinsurance.com,10/13/2017
roxanne.landry@tzinsurance.com,10/13/2017
roy.delgado@cignium.com,10/13/2017
ruben.ryan@tzinsurance.com,10/13/2017
ruth.euell@tzinsurance.com,10/13/2017
ryan.mcquillan@tzinsurance.com,10/13/2017
ryan.carlson@tzinsurance.com,10/13/2017
ryan.sanford@tranzact.net,10/13/2017
ryan.simmerman@tzinsurance.com,10/13/2017
ryan.kelly@cignium.com,10/13/2017
ryan.thompson@tzinsurance.com,10/13/2017
ryan.shevin@tranzact.net,10/13/2017
rytorin.gary@tzinsurance.com,10/13/2017
Saila.Kath@tranzact.net,10/13/2017
Sajjad.Ahmed@cignium.com,10/13/2017
sakoria.osborne@tzinsurance.com,10/13/2017
sally.aarons@tzinsurance.com,10/13/2017
samantha.rodriguez@tzinsurance.com,10/13/2017
samantha.terrell@tzinsurance.com,10/13/2017
samantha.kaufman@tranzact.net,10/13/2017
sandra.harris@tzinsurance.com,10/13/2017
sandra.merritt@tzinsurance.com,10/13/2017
sandra.abraham@tzinsurance.com,10/13/2017
sandy.segura@cignium.com,10/13/2017
sanjeev.rangaiah@cignium.com,10/13/2017
santiago.talavera@cignium.com,10/13/2017
sarah.lawes@tzinsurance.com,10/13/2017
sarah.burns@tzinsurance.com,10/13/2017
sarah.smith@tzinsurance.com,10/13/2017
Sariann.Funderburk@tzinsurance.com,10/13/2017
sateia.watson@tzinsurance.com,10/13/2017
saulo.tsuchida@cignium.com,10/13/2017
scharly.ochoa@cignium.com,10/13/2017
scot.ruddock@tzinsurance.com,10/13/2017
scott.schneider@cignium.com,10/13/2017
scott.parente@tranzact.net,10/13/2017
scott.stamm@tzinsurance.com,10/13/2017
sean.akers@tzinsurance.com,10/13/2017
serena.pratt@tzinsurance.com,10/13/2017
serra.kerrigan@tzinsurance.com,10/13/2017
seth.johnson@tzinsurance.com,10/13/2017
Seth.Lytton@Tranzact.net,10/13/2017
shalleen.melland@tzinsurance.com,10/13/2017
shamara.sledge@tzinsurance.com,10/13/2017
Shanice.Hyde-Ballen@tzinsurance.com,10/13/2017
shannon.koch@tzinsurance.com,10/13/2017
Shannon.Davis@tzinsurance.com,10/13/2017
shardae.ruffin@tzinsurance.com,10/13/2017
shari.rose@tzinsurance.com,10/13/2017
sharon.horn@tzinsurance.com,10/13/2017
Sharon.Drnek@tzinsurance.com,10/13/2017
shawn.waite@tzinsurance.com,10/13/2017
Shawna.Lilly@tzinsurance.com,10/13/2017
shefali.chaurasia@cignium.com,10/13/2017
shelia.lewis@tzinsurance.com,10/13/2017
sheri.myrick@tzinsurance.com,10/13/2017
sherri.mack@tzinsurance.com,10/13/2017
sherry.dandison@tzinsurance.com,10/13/2017
sherry.schmidt@tzinsurance.com,10/13/2017
sheryl.beneduce@tzinsurance.com,10/13/2017
shirley.vargo@tzinsurance.com,10/13/2017
Shonda.Lafavore@tzinsurance.com,10/13/2017
Shonee.Ferguson@tzinsurance.com,10/13/2017
shurdell.wright@tzinsurance.com,10/13/2017
Sierra.Brown@tzinsurance.com,10/13/2017
sierra.brown@cigna-insurance.com,10/13/2017
siobhan.householder@tzinsurance.com,10/13/2017
Sofia.Tejada@Cignium.com,10/13/2017
spencer.humphrey@tzinsurance.com,10/13/2017
Sreepathy.Nagarajan@cignium.com,10/13/2017
stacey.lechner@tranzact.net,10/13/2017
stacy.harper@tzinsurance.com,10/13/2017
stephanie.byers@tzinsurance.com,10/13/2017
stephanie.naylor@tzinsurance.com,10/13/2017
stephanie.nelson@tzinsurance.com,10/13/2017
stephanie.solis@tzinsurance.com,10/13/2017
Stephanie.Bogue@Tranzact.net,10/13/2017
stephen.barnes@tzinsurance.com,10/13/2017
steve.rankin@tzinsurance.com,10/13/2017
steve.dexter@tranzact.net,10/13/2017
steven.schulman@tranzact.net,10/13/2017
steven.john@tzinsurance.com,10/13/2017
sstout@trubridgeinc.com,10/13/2017
steve.hardy@tzinsurance.com,10/13/2017
Steven.Levy@tzinsurance.com,10/13/2017
steven.norris@tzinsurance.com,10/13/2017
sumeet.manchanda@cignium.com,10/13/2017
susan.alessi@tzinsurance.com,10/13/2017
suzanne.walden@tzinsurance.com,10/13/2017
suzanne.lewis@tzinsurance.com,10/13/2017
Syed.Sajjad@cignium.com,10/13/2017
sylvia.swaby@tzinsurance.com,10/13/2017
tamyra.stevens@tzinsurance.com,10/13/2017
tammy.carrico@tzinsurance.com,10/13/2017
tanya.burney@tzinsurance.com,10/13/2017
tanya.stout@tzinsurance.com,10/13/2017
tara.davis@tzinsurance.com,10/13/2017
tatsiana.pisarenka@tranzact.net,10/13/2017
taurean.watkins@tzinsurance.com,10/13/2017
taylor.hobbs@tzinsurance.com,10/13/2017
taylor.funk@tzinsurance.com,10/13/2017
teresa.lioce@tzinsurance.com,10/13/2017
Terrance.Smith@tzinsurance.com,10/13/2017
terrance.brady@tzinsurance.com,10/13/2017
Terrence.Rodway@tzinsurance.com,10/13/2017
terry.zornes@tzinsurance.com,10/13/2017
tessa.feit@tzinsurance.com,10/13/2017
theresa.ruhl@tzinsurance.com,10/13/2017
Thomas.Lange@tzinsurance.com,10/13/2017
thomas.jones@tzinsurance.com,10/13/2017
thomas.hunt@tzinsurance.com,10/13/2017
thomas.lange@cignium.com,10/13/2017
Thomas.Koerper@tzinsurance.com,10/13/2017
tianna.peoples@tzinsurance.com,10/13/2017
tiffany.hol@tzinsurance.com,10/13/2017
tiffany.huff@tranzact.net,10/13/2017
tiffene.magazine@tzinsurance.com,10/13/2017
tim.lairson@tranzact.net,10/13/2017
thim.hatcher@tzinsurance.com,10/13/2017
Tina.Jannelli@tzinsurance.com,10/13/2017
todd.alexander@tranzact.net,10/13/2017
tomas.lazo@cignium.com,10/13/2017
Tonya.Hudson@tzinsurance.com,10/13/2017
tracey.leary@tzinsurance.com,10/13/2017
tracey.smith@tzinsurance.com,10/13/2017
tracy.mattison@tzinsurance.com,10/13/2017
TRANZACT_MANAGER,10/13/2017
Travis.Jones@tzinsurance.com,10/13/2017
trina.syner@tzinsurance.com,10/13/2017
tristan.davis@tzinsurance.com,10/13/2017
troy.dunner@tzinsurance.com,10/13/2017
sewnarine.sharma@tzinsurance.com,10/13/2017
valerie.miller@tzinsurance.com,10/13/2017
valerie.johnson@tzinsurance.com,10/13/2017
vanessa.banner@tzinsurance.com,10/13/2017
vanessa.jackson@tzinsurance.com,10/13/2017
vanteena.scott@tzinsurance.com,10/13/2017
vasthi.whitely@tzinsurance.com,10/13/2017
Vickie.Hill@tzinsurance.com,10/13/2017
victoria.loukoumis@tzinsurance.com,10/13/2017
victoria.underdue@tzinsurance.com,10/13/2017
victoria.neal@tzinsurance.com,10/13/2017
vincent.haskell@tzinsurance.com,10/13/2017
walter.perez@tzinsurance.com,10/13/2017
wendy.miller@tzinsurance.com,10/13/2017
Wendy.Cannella@tzinsurance.com,10/13/2017
Wendy.Ibarra@cignium.com,10/13/2017
whitely.murphy@tzinsurance.com,10/13/2017
whitley.murphy@tzinsurance.com,10/13/2017
wilberto.benitez@tranzact.net,10/13/2017
william.luna@cignium.com,10/13/2017
william.shockley@tzinsurance.com,10/13/2017
william.player@tzinsurance.com,10/13/2017
william.allen@tzinsurance.com,10/13/2017
william.gray@tzinsurance.com,10/13/2017
wilmer.delaguila@cignium.com,10/13/2017
winsome.jackson@tzinsurance.com,10/13/2017
Yaima.Torres@tzinsurance.com,10/13/2017
Yiseli.Sairitupa@cignium.com,10/13/2017
yuri.kaminsky@cignium.com,10/13/2017
zach.clayton@tranzact.net,10/13/2017
zuhaib.hasan@cignium.com,10/13/2017
