Username*,Enrollment End Date(MM/DD/YYYY)
angela.richardson@tzinsurance.com,11/3/2017
tamyra.stevens@tzinsurance.com,11/3/2017
ashton.crooks@tzinsurance.com,11/3/2017
alexander.devus@tzinsurance.com,11/3/2017
annetta.egler@tzinsurance.com,11/3/2017
jeremy.gibson@tzinsurance.com,11/3/2017
courtney.huff@tzinsurance.com,11/3/2017
eric.krannich@tzinsurance.com,11/3/2017
ashley.mckinney@tzinsurance.com,11/3/2017
steve.rankin@tzinsurance.com,11/3/2017
harper.martel@tzinsurance.com,11/3/2017
antonio.brown@tzinsurance.com,11/3/2017
blake.carpenter@tzinsurance.com,11/3/2017
james.fernandez@tzinsurance.com,11/3/2017
crystal.jacobs@tzinsurance.com,11/3/2017
cherran.evans@tzinsurance.com,11/3/2017
jitzel.long@tzinsurance.com,11/3/2017
