Username*,Enrollment End Date(MM/DD/YYYY)
Carolyn.Edwards@cigna-insurance.com,10/7/2017
Debbie.Rossiter@cigna-insurance.com,10/7/2017
Christopher.Griffith@cigna-insurance.com,10/7/2017
Rienne.Cook@cigna-insurance.com,10/7/2017
DiAsia.Brown@cigna-insurance.com,10/7/2017
Randolph.Lucas@cigna-insurance.com,10/7/2017
Ayanna.Shaw@cigna-insurance.com,10/7/2017
Alexis.Marteli@cigna-insurance.com,10/7/2017
Alicia.Butler@cigna-insurance.com,10/7/2017
kiana.zimmerman@cigna-insurance.com,10/7/2017
Robert.Monte@cigna-insurance.com,10/7/2017
Vickie.Hill@cigna-insurance.com,10/7/2017
Christopher.Russo@cigna-insurance.com,10/7/2017
Sharon.Drnek@cigna-insurance.com,10/7/2017
Rhonda.Kozlowski@cigna-insurance.com,10/7/2017
Melissa.Birmingham@cigna-insurance.com,10/7/2017
Carol.Canfield@cigna-insurance.com,10/7/2017
Heather.Costello@cigna-insurance.com,10/7/2017
Patricia.Loukoumis@cigna-insurance.com,10/7/2017
Reed.Adelsperger@cigna-insurance.com,10/7/2017
Eileen.Dillon@cigna-insurance.com,10/7/2017
Joel.Reyes@cigna-insurance.com,10/7/2017
Judith.Ernest@cigna-insurance.com,10/7/2017
Bathsheba.Stewart@cigna-insurance.com,10/7/2017
Lina.Hart@cigna-insurance.com,10/7/2017
Ken.Suarez@cigna-insurance.com,10/7/2017
Darilis.Zambrana@cigna-insurance.com,10/7/2017
Demi.Leonard@cigna-insurance.com,10/7/2017
Raoul.Turner@cigna-insurance.com,10/7/2017
Damonte.Greene@cigna-insurance.com,10/7/2017
Amber.Gooding@cigna-insurance.com,10/7/2017
Danah.Jenkins@cigna-insurance.com,10/7/2017
Donna.Jackson@cigna-insurance.com,10/7/2017
Sandra.Abraham@cigna-insurance.com,10/7/2017
Robin.Nicholls@cigna-insurance.com,10/7/2017
Brian.Cassista@cigna-insurance.com,10/7/2017
Dandrila.Green@cigna-insurance.com,10/7/2017
Michael.Miller@cigna-insurance.com,10/7/2017
Jesse.Thompson@cigna-insurance.com,10/7/2017
Maricle.Marshall@cigna-insurance.com,10/7/2017
Kalyan.Prime@cigna-insurance.com,10/7/2017
Kevin.Harwood@cigna-insurance.com,10/7/2017
Anna.Sitkowska@cigna-insurance.com,10/7/2017
Sierra.Brown@cigna-insurance.com,10/7/2017
robin.ilsley@cigna-insurance.com,10/7/2017
Glen.Vanderwalker@cigna-insurance.com,10/7/2017
Rosanna.Barrientos@cigna-insurance.com,10/7/2017
Marissa.Williamson@cigna-insurance.com,10/7/2017
Brandon.Volkert@cigna-insurance.com,10/7/2017
jason.jones@cigna-insurance.com,10/7/2017
Ashanti.Gordon@cigna-insurance.com,10/7/2017
Christopher.Coleman@cigna-insurance.com,10/7/2017
Matthew.Strickland@cigna-insurance.com,10/7/2017
Christopher.Booker@cigna-insurance.com,10/7/2017
